<?xml version="1.0" encoding="utf-8" standalone="no"?>
<!DOCTYPE svg PUBLIC "-//W3C//DTD SVG 1.1//EN"
  "http://www.w3.org/Graphics/SVG/1.1/DTD/svg11.dtd">
<!-- Created with matplotlib (http://matplotlib.org/) -->
<svg height="432pt" version="1.1" viewBox="0 0 864 432" width="864pt" xmlns="http://www.w3.org/2000/svg" xmlns:xlink="http://www.w3.org/1999/xlink">
 <defs>
  <style type="text/css">
*{stroke-linecap:butt;stroke-linejoin:round;stroke-miterlimit:100000;}
  </style>
 </defs>
 <g id="figure_1">
  <g id="patch_1">
   <path d="M 0 432 
L 864 432 
L 864 0 
L 0 0 
z
" style="fill:#ffffff;"/>
  </g>
  <g id="axes_1">
   <g id="patch_2">
    <path d="M 77.6925 381.24 
L 417.195 381.24 
L 417.195 19.26 
L 77.6925 19.26 
z
" style="fill:#ffffff;"/>
   </g>
   <g id="matplotlib.axis_1">
    <g id="xtick_1">
     <g id="line2d_1">
      <path clip-path="url(#pf532a3c250)" d="M 77.6925 381.24 
L 77.6925 19.26 
" style="fill:none;stroke:#dddddd;stroke-linecap:square;stroke-width:0.5;"/>
     </g>
     <g id="line2d_2">
      <defs>
       <path d="M 0 0 
L 0 -4 
" id="md768aa2b75" style="stroke:#000000;stroke-width:0.5;"/>
      </defs>
      <g>
       <use style="stroke:#000000;stroke-width:0.5;" x="77.6925" xlink:href="#md768aa2b75" y="381.24"/>
      </g>
     </g>
     <g id="line2d_3">
      <defs>
       <path d="M 0 0 
L 0 4 
" id="m63a4042b03" style="stroke:#000000;stroke-width:0.5;"/>
      </defs>
      <g>
       <use style="stroke:#000000;stroke-width:0.5;" x="77.6925" xlink:href="#m63a4042b03" y="19.26"/>
      </g>
     </g>
     <g id="text_1">
      <!-- 2 -->
      <defs>
       <path d="M 19.1875 8.296875 
L 53.609375 8.296875 
L 53.609375 0 
L 7.328125 0 
L 7.328125 8.296875 
Q 12.9375 14.109375 22.625 23.890625 
Q 32.328125 33.6875 34.8125 36.53125 
Q 39.546875 41.84375 41.421875 45.53125 
Q 43.3125 49.21875 43.3125 52.78125 
Q 43.3125 58.59375 39.234375 62.25 
Q 35.15625 65.921875 28.609375 65.921875 
Q 23.96875 65.921875 18.8125 64.3125 
Q 13.671875 62.703125 7.8125 59.421875 
L 7.8125 69.390625 
Q 13.765625 71.78125 18.9375 73 
Q 24.125 74.21875 28.421875 74.21875 
Q 39.75 74.21875 46.484375 68.546875 
Q 53.21875 62.890625 53.21875 53.421875 
Q 53.21875 48.921875 51.53125 44.890625 
Q 49.859375 40.875 45.40625 35.40625 
Q 44.1875 33.984375 37.640625 27.21875 
Q 31.109375 20.453125 19.1875 8.296875 
" id="BitstreamVeraSans-Roman-32"/>
      </defs>
      <g transform="translate(73.556875 395.11796875)scale(0.13 -0.13)">
       <use xlink:href="#BitstreamVeraSans-Roman-32"/>
      </g>
     </g>
    </g>
    <g id="xtick_2">
     <g id="line2d_4">
      <path clip-path="url(#pf532a3c250)" d="M 134.27625 381.24 
L 134.27625 19.26 
" style="fill:none;stroke:#dddddd;stroke-linecap:square;stroke-width:0.5;"/>
     </g>
     <g id="line2d_5">
      <g>
       <use style="stroke:#000000;stroke-width:0.5;" x="134.27625" xlink:href="#md768aa2b75" y="381.24"/>
      </g>
     </g>
     <g id="line2d_6">
      <g>
       <use style="stroke:#000000;stroke-width:0.5;" x="134.27625" xlink:href="#m63a4042b03" y="19.26"/>
      </g>
     </g>
     <g id="text_2">
      <!-- 4 -->
      <defs>
       <path d="M 37.796875 64.3125 
L 12.890625 25.390625 
L 37.796875 25.390625 
z
M 35.203125 72.90625 
L 47.609375 72.90625 
L 47.609375 25.390625 
L 58.015625 25.390625 
L 58.015625 17.1875 
L 47.609375 17.1875 
L 47.609375 0 
L 37.796875 0 
L 37.796875 17.1875 
L 4.890625 17.1875 
L 4.890625 26.703125 
z
" id="BitstreamVeraSans-Roman-34"/>
      </defs>
      <g transform="translate(130.140625 395.11796875)scale(0.13 -0.13)">
       <use xlink:href="#BitstreamVeraSans-Roman-34"/>
      </g>
     </g>
    </g>
    <g id="xtick_3">
     <g id="line2d_7">
      <path clip-path="url(#pf532a3c250)" d="M 190.86 381.24 
L 190.86 19.26 
" style="fill:none;stroke:#dddddd;stroke-linecap:square;stroke-width:0.5;"/>
     </g>
     <g id="line2d_8">
      <g>
       <use style="stroke:#000000;stroke-width:0.5;" x="190.86" xlink:href="#md768aa2b75" y="381.24"/>
      </g>
     </g>
     <g id="line2d_9">
      <g>
       <use style="stroke:#000000;stroke-width:0.5;" x="190.86" xlink:href="#m63a4042b03" y="19.26"/>
      </g>
     </g>
     <g id="text_3">
      <!-- 6 -->
      <defs>
       <path d="M 33.015625 40.375 
Q 26.375 40.375 22.484375 35.828125 
Q 18.609375 31.296875 18.609375 23.390625 
Q 18.609375 15.53125 22.484375 10.953125 
Q 26.375 6.390625 33.015625 6.390625 
Q 39.65625 6.390625 43.53125 10.953125 
Q 47.40625 15.53125 47.40625 23.390625 
Q 47.40625 31.296875 43.53125 35.828125 
Q 39.65625 40.375 33.015625 40.375 
M 52.59375 71.296875 
L 52.59375 62.3125 
Q 48.875 64.0625 45.09375 64.984375 
Q 41.3125 65.921875 37.59375 65.921875 
Q 27.828125 65.921875 22.671875 59.328125 
Q 17.53125 52.734375 16.796875 39.40625 
Q 19.671875 43.65625 24.015625 45.921875 
Q 28.375 48.1875 33.59375 48.1875 
Q 44.578125 48.1875 50.953125 41.515625 
Q 57.328125 34.859375 57.328125 23.390625 
Q 57.328125 12.15625 50.6875 5.359375 
Q 44.046875 -1.421875 33.015625 -1.421875 
Q 20.359375 -1.421875 13.671875 8.265625 
Q 6.984375 17.96875 6.984375 36.375 
Q 6.984375 53.65625 15.1875 63.9375 
Q 23.390625 74.21875 37.203125 74.21875 
Q 40.921875 74.21875 44.703125 73.484375 
Q 48.484375 72.75 52.59375 71.296875 
" id="BitstreamVeraSans-Roman-36"/>
      </defs>
      <g transform="translate(186.724375 395.11796875)scale(0.13 -0.13)">
       <use xlink:href="#BitstreamVeraSans-Roman-36"/>
      </g>
     </g>
    </g>
    <g id="xtick_4">
     <g id="line2d_10">
      <path clip-path="url(#pf532a3c250)" d="M 247.44375 381.24 
L 247.44375 19.26 
" style="fill:none;stroke:#dddddd;stroke-linecap:square;stroke-width:0.5;"/>
     </g>
     <g id="line2d_11">
      <g>
       <use style="stroke:#000000;stroke-width:0.5;" x="247.44375" xlink:href="#md768aa2b75" y="381.24"/>
      </g>
     </g>
     <g id="line2d_12">
      <g>
       <use style="stroke:#000000;stroke-width:0.5;" x="247.44375" xlink:href="#m63a4042b03" y="19.26"/>
      </g>
     </g>
     <g id="text_4">
      <!-- 8 -->
      <defs>
       <path d="M 31.78125 34.625 
Q 24.75 34.625 20.71875 30.859375 
Q 16.703125 27.09375 16.703125 20.515625 
Q 16.703125 13.921875 20.71875 10.15625 
Q 24.75 6.390625 31.78125 6.390625 
Q 38.8125 6.390625 42.859375 10.171875 
Q 46.921875 13.96875 46.921875 20.515625 
Q 46.921875 27.09375 42.890625 30.859375 
Q 38.875 34.625 31.78125 34.625 
M 21.921875 38.8125 
Q 15.578125 40.375 12.03125 44.71875 
Q 8.5 49.078125 8.5 55.328125 
Q 8.5 64.0625 14.71875 69.140625 
Q 20.953125 74.21875 31.78125 74.21875 
Q 42.671875 74.21875 48.875 69.140625 
Q 55.078125 64.0625 55.078125 55.328125 
Q 55.078125 49.078125 51.53125 44.71875 
Q 48 40.375 41.703125 38.8125 
Q 48.828125 37.15625 52.796875 32.3125 
Q 56.78125 27.484375 56.78125 20.515625 
Q 56.78125 9.90625 50.3125 4.234375 
Q 43.84375 -1.421875 31.78125 -1.421875 
Q 19.734375 -1.421875 13.25 4.234375 
Q 6.78125 9.90625 6.78125 20.515625 
Q 6.78125 27.484375 10.78125 32.3125 
Q 14.796875 37.15625 21.921875 38.8125 
M 18.3125 54.390625 
Q 18.3125 48.734375 21.84375 45.5625 
Q 25.390625 42.390625 31.78125 42.390625 
Q 38.140625 42.390625 41.71875 45.5625 
Q 45.3125 48.734375 45.3125 54.390625 
Q 45.3125 60.0625 41.71875 63.234375 
Q 38.140625 66.40625 31.78125 66.40625 
Q 25.390625 66.40625 21.84375 63.234375 
Q 18.3125 60.0625 18.3125 54.390625 
" id="BitstreamVeraSans-Roman-38"/>
      </defs>
      <g transform="translate(243.308125 395.11796875)scale(0.13 -0.13)">
       <use xlink:href="#BitstreamVeraSans-Roman-38"/>
      </g>
     </g>
    </g>
    <g id="xtick_5">
     <g id="line2d_13">
      <path clip-path="url(#pf532a3c250)" d="M 304.0275 381.24 
L 304.0275 19.26 
" style="fill:none;stroke:#dddddd;stroke-linecap:square;stroke-width:0.5;"/>
     </g>
     <g id="line2d_14">
      <g>
       <use style="stroke:#000000;stroke-width:0.5;" x="304.0275" xlink:href="#md768aa2b75" y="381.24"/>
      </g>
     </g>
     <g id="line2d_15">
      <g>
       <use style="stroke:#000000;stroke-width:0.5;" x="304.0275" xlink:href="#m63a4042b03" y="19.26"/>
      </g>
     </g>
     <g id="text_5">
      <!-- 10 -->
      <defs>
       <path d="M 31.78125 66.40625 
Q 24.171875 66.40625 20.328125 58.90625 
Q 16.5 51.421875 16.5 36.375 
Q 16.5 21.390625 20.328125 13.890625 
Q 24.171875 6.390625 31.78125 6.390625 
Q 39.453125 6.390625 43.28125 13.890625 
Q 47.125 21.390625 47.125 36.375 
Q 47.125 51.421875 43.28125 58.90625 
Q 39.453125 66.40625 31.78125 66.40625 
M 31.78125 74.21875 
Q 44.046875 74.21875 50.515625 64.515625 
Q 56.984375 54.828125 56.984375 36.375 
Q 56.984375 17.96875 50.515625 8.265625 
Q 44.046875 -1.421875 31.78125 -1.421875 
Q 19.53125 -1.421875 13.0625 8.265625 
Q 6.59375 17.96875 6.59375 36.375 
Q 6.59375 54.828125 13.0625 64.515625 
Q 19.53125 74.21875 31.78125 74.21875 
" id="BitstreamVeraSans-Roman-30"/>
       <path d="M 12.40625 8.296875 
L 28.515625 8.296875 
L 28.515625 63.921875 
L 10.984375 60.40625 
L 10.984375 69.390625 
L 28.421875 72.90625 
L 38.28125 72.90625 
L 38.28125 8.296875 
L 54.390625 8.296875 
L 54.390625 0 
L 12.40625 0 
z
" id="BitstreamVeraSans-Roman-31"/>
      </defs>
      <g transform="translate(295.75625 395.11796875)scale(0.13 -0.13)">
       <use xlink:href="#BitstreamVeraSans-Roman-31"/>
       <use x="63.623046875" xlink:href="#BitstreamVeraSans-Roman-30"/>
      </g>
     </g>
    </g>
    <g id="xtick_6">
     <g id="line2d_16">
      <path clip-path="url(#pf532a3c250)" d="M 360.61125 381.24 
L 360.61125 19.26 
" style="fill:none;stroke:#dddddd;stroke-linecap:square;stroke-width:0.5;"/>
     </g>
     <g id="line2d_17">
      <g>
       <use style="stroke:#000000;stroke-width:0.5;" x="360.61125" xlink:href="#md768aa2b75" y="381.24"/>
      </g>
     </g>
     <g id="line2d_18">
      <g>
       <use style="stroke:#000000;stroke-width:0.5;" x="360.61125" xlink:href="#m63a4042b03" y="19.26"/>
      </g>
     </g>
     <g id="text_6">
      <!-- 12 -->
      <g transform="translate(352.34 395.11796875)scale(0.13 -0.13)">
       <use xlink:href="#BitstreamVeraSans-Roman-31"/>
       <use x="63.623046875" xlink:href="#BitstreamVeraSans-Roman-32"/>
      </g>
     </g>
    </g>
    <g id="xtick_7">
     <g id="line2d_19">
      <path clip-path="url(#pf532a3c250)" d="M 417.195 381.24 
L 417.195 19.26 
" style="fill:none;stroke:#dddddd;stroke-linecap:square;stroke-width:0.5;"/>
     </g>
     <g id="line2d_20">
      <g>
       <use style="stroke:#000000;stroke-width:0.5;" x="417.195" xlink:href="#md768aa2b75" y="381.24"/>
      </g>
     </g>
     <g id="line2d_21">
      <g>
       <use style="stroke:#000000;stroke-width:0.5;" x="417.195" xlink:href="#m63a4042b03" y="19.26"/>
      </g>
     </g>
     <g id="text_7">
      <!-- 14 -->
      <g transform="translate(408.92375 395.11796875)scale(0.13 -0.13)">
       <use xlink:href="#BitstreamVeraSans-Roman-31"/>
       <use x="63.623046875" xlink:href="#BitstreamVeraSans-Roman-34"/>
      </g>
     </g>
    </g>
    <g id="text_8">
     <!-- Simulation hour [#] -->
     <defs>
      <path id="BitstreamVeraSans-Roman-20"/>
      <path d="M 8.59375 75.984375 
L 29.296875 75.984375 
L 29.296875 69 
L 17.578125 69 
L 17.578125 -6.203125 
L 29.296875 -6.203125 
L 29.296875 -13.1875 
L 8.59375 -13.1875 
z
" id="BitstreamVeraSans-Roman-5b"/>
      <path d="M 30.421875 75.984375 
L 30.421875 -13.1875 
L 9.71875 -13.1875 
L 9.71875 -6.203125 
L 21.390625 -6.203125 
L 21.390625 69 
L 9.71875 69 
L 9.71875 75.984375 
z
" id="BitstreamVeraSans-Roman-5d"/>
      <path d="M 54.890625 33.015625 
L 54.890625 0 
L 45.90625 0 
L 45.90625 32.71875 
Q 45.90625 40.484375 42.875 44.328125 
Q 39.84375 48.1875 33.796875 48.1875 
Q 26.515625 48.1875 22.3125 43.546875 
Q 18.109375 38.921875 18.109375 30.90625 
L 18.109375 0 
L 9.078125 0 
L 9.078125 54.6875 
L 18.109375 54.6875 
L 18.109375 46.1875 
Q 21.34375 51.125 25.703125 53.5625 
Q 30.078125 56 35.796875 56 
Q 45.21875 56 50.046875 50.171875 
Q 54.890625 44.34375 54.890625 33.015625 
" id="BitstreamVeraSans-Roman-6e"/>
      <path d="M 52 44.1875 
Q 55.375 50.25 60.0625 53.125 
Q 64.75 56 71.09375 56 
Q 79.640625 56 84.28125 50.015625 
Q 88.921875 44.046875 88.921875 33.015625 
L 88.921875 0 
L 79.890625 0 
L 79.890625 32.71875 
Q 79.890625 40.578125 77.09375 44.375 
Q 74.3125 48.1875 68.609375 48.1875 
Q 61.625 48.1875 57.5625 43.546875 
Q 53.515625 38.921875 53.515625 30.90625 
L 53.515625 0 
L 44.484375 0 
L 44.484375 32.71875 
Q 44.484375 40.625 41.703125 44.40625 
Q 38.921875 48.1875 33.109375 48.1875 
Q 26.21875 48.1875 22.15625 43.53125 
Q 18.109375 38.875 18.109375 30.90625 
L 18.109375 0 
L 9.078125 0 
L 9.078125 54.6875 
L 18.109375 54.6875 
L 18.109375 46.1875 
Q 21.1875 51.21875 25.484375 53.609375 
Q 29.78125 56 35.6875 56 
Q 41.65625 56 45.828125 52.96875 
Q 50 49.953125 52 44.1875 
" id="BitstreamVeraSans-Roman-6d"/>
      <path d="M 30.609375 48.390625 
Q 23.390625 48.390625 19.1875 42.75 
Q 14.984375 37.109375 14.984375 27.296875 
Q 14.984375 17.484375 19.15625 11.84375 
Q 23.34375 6.203125 30.609375 6.203125 
Q 37.796875 6.203125 41.984375 11.859375 
Q 46.1875 17.53125 46.1875 27.296875 
Q 46.1875 37.015625 41.984375 42.703125 
Q 37.796875 48.390625 30.609375 48.390625 
M 30.609375 56 
Q 42.328125 56 49.015625 48.375 
Q 55.71875 40.765625 55.71875 27.296875 
Q 55.71875 13.875 49.015625 6.21875 
Q 42.328125 -1.421875 30.609375 -1.421875 
Q 18.84375 -1.421875 12.171875 6.21875 
Q 5.515625 13.875 5.515625 27.296875 
Q 5.515625 40.765625 12.171875 48.375 
Q 18.84375 56 30.609375 56 
" id="BitstreamVeraSans-Roman-6f"/>
      <path d="M 51.125 44 
L 36.921875 44 
L 32.8125 27.6875 
L 47.125 27.6875 
z
M 43.796875 71.78125 
L 38.71875 51.515625 
L 52.984375 51.515625 
L 58.109375 71.78125 
L 65.921875 71.78125 
L 60.890625 51.515625 
L 76.125 51.515625 
L 76.125 44 
L 58.984375 44 
L 54.984375 27.6875 
L 70.515625 27.6875 
L 70.515625 20.21875 
L 53.078125 20.21875 
L 48 0 
L 40.1875 0 
L 45.21875 20.21875 
L 30.90625 20.21875 
L 25.875 0 
L 18.015625 0 
L 23.09375 20.21875 
L 7.71875 20.21875 
L 7.71875 27.6875 
L 24.90625 27.6875 
L 29 44 
L 13.28125 44 
L 13.28125 51.515625 
L 30.90625 51.515625 
L 35.890625 71.78125 
z
" id="BitstreamVeraSans-Roman-23"/>
      <path d="M 9.421875 75.984375 
L 18.40625 75.984375 
L 18.40625 0 
L 9.421875 0 
z
" id="BitstreamVeraSans-Roman-6c"/>
      <path d="M 53.515625 70.515625 
L 53.515625 60.890625 
Q 47.90625 63.578125 42.921875 64.890625 
Q 37.9375 66.21875 33.296875 66.21875 
Q 25.25 66.21875 20.875 63.09375 
Q 16.5 59.96875 16.5 54.203125 
Q 16.5 49.359375 19.40625 46.890625 
Q 22.3125 44.4375 30.421875 42.921875 
L 36.375 41.703125 
Q 47.40625 39.59375 52.65625 34.296875 
Q 57.90625 29 57.90625 20.125 
Q 57.90625 9.515625 50.796875 4.046875 
Q 43.703125 -1.421875 29.984375 -1.421875 
Q 24.8125 -1.421875 18.96875 -0.25 
Q 13.140625 0.921875 6.890625 3.21875 
L 6.890625 13.375 
Q 12.890625 10.015625 18.65625 8.296875 
Q 24.421875 6.59375 29.984375 6.59375 
Q 38.421875 6.59375 43.015625 9.90625 
Q 47.609375 13.234375 47.609375 19.390625 
Q 47.609375 24.75 44.3125 27.78125 
Q 41.015625 30.8125 33.5 32.328125 
L 27.484375 33.5 
Q 16.453125 35.6875 11.515625 40.375 
Q 6.59375 45.0625 6.59375 53.421875 
Q 6.59375 63.09375 13.40625 68.65625 
Q 20.21875 74.21875 32.171875 74.21875 
Q 37.3125 74.21875 42.625 73.28125 
Q 47.953125 72.359375 53.515625 70.515625 
" id="BitstreamVeraSans-Roman-53"/>
      <path d="M 9.421875 54.6875 
L 18.40625 54.6875 
L 18.40625 0 
L 9.421875 0 
z
M 9.421875 75.984375 
L 18.40625 75.984375 
L 18.40625 64.59375 
L 9.421875 64.59375 
z
" id="BitstreamVeraSans-Roman-69"/>
      <path d="M 54.890625 33.015625 
L 54.890625 0 
L 45.90625 0 
L 45.90625 32.71875 
Q 45.90625 40.484375 42.875 44.328125 
Q 39.84375 48.1875 33.796875 48.1875 
Q 26.515625 48.1875 22.3125 43.546875 
Q 18.109375 38.921875 18.109375 30.90625 
L 18.109375 0 
L 9.078125 0 
L 9.078125 75.984375 
L 18.109375 75.984375 
L 18.109375 46.1875 
Q 21.34375 51.125 25.703125 53.5625 
Q 30.078125 56 35.796875 56 
Q 45.21875 56 50.046875 50.171875 
Q 54.890625 44.34375 54.890625 33.015625 
" id="BitstreamVeraSans-Roman-68"/>
      <path d="M 41.109375 46.296875 
Q 39.59375 47.171875 37.8125 47.578125 
Q 36.03125 48 33.890625 48 
Q 26.265625 48 22.1875 43.046875 
Q 18.109375 38.09375 18.109375 28.8125 
L 18.109375 0 
L 9.078125 0 
L 9.078125 54.6875 
L 18.109375 54.6875 
L 18.109375 46.1875 
Q 20.953125 51.171875 25.484375 53.578125 
Q 30.03125 56 36.53125 56 
Q 37.453125 56 38.578125 55.875 
Q 39.703125 55.765625 41.0625 55.515625 
z
" id="BitstreamVeraSans-Roman-72"/>
      <path d="M 18.3125 70.21875 
L 18.3125 54.6875 
L 36.8125 54.6875 
L 36.8125 47.703125 
L 18.3125 47.703125 
L 18.3125 18.015625 
Q 18.3125 11.328125 20.140625 9.421875 
Q 21.96875 7.515625 27.59375 7.515625 
L 36.8125 7.515625 
L 36.8125 0 
L 27.59375 0 
Q 17.1875 0 13.234375 3.875 
Q 9.28125 7.765625 9.28125 18.015625 
L 9.28125 47.703125 
L 2.6875 47.703125 
L 2.6875 54.6875 
L 9.28125 54.6875 
L 9.28125 70.21875 
z
" id="BitstreamVeraSans-Roman-74"/>
      <path d="M 8.5 21.578125 
L 8.5 54.6875 
L 17.484375 54.6875 
L 17.484375 21.921875 
Q 17.484375 14.15625 20.5 10.265625 
Q 23.53125 6.390625 29.59375 6.390625 
Q 36.859375 6.390625 41.078125 11.03125 
Q 45.3125 15.671875 45.3125 23.6875 
L 45.3125 54.6875 
L 54.296875 54.6875 
L 54.296875 0 
L 45.3125 0 
L 45.3125 8.40625 
Q 42.046875 3.421875 37.71875 1 
Q 33.40625 -1.421875 27.6875 -1.421875 
Q 18.265625 -1.421875 13.375 4.4375 
Q 8.5 10.296875 8.5 21.578125 
" id="BitstreamVeraSans-Roman-75"/>
      <path d="M 34.28125 27.484375 
Q 23.390625 27.484375 19.1875 25 
Q 14.984375 22.515625 14.984375 16.5 
Q 14.984375 11.71875 18.140625 8.90625 
Q 21.296875 6.109375 26.703125 6.109375 
Q 34.1875 6.109375 38.703125 11.40625 
Q 43.21875 16.703125 43.21875 25.484375 
L 43.21875 27.484375 
z
M 52.203125 31.203125 
L 52.203125 0 
L 43.21875 0 
L 43.21875 8.296875 
Q 40.140625 3.328125 35.546875 0.953125 
Q 30.953125 -1.421875 24.3125 -1.421875 
Q 15.921875 -1.421875 10.953125 3.296875 
Q 6 8.015625 6 15.921875 
Q 6 25.140625 12.171875 29.828125 
Q 18.359375 34.515625 30.609375 34.515625 
L 43.21875 34.515625 
L 43.21875 35.40625 
Q 43.21875 41.609375 39.140625 45 
Q 35.0625 48.390625 27.6875 48.390625 
Q 23 48.390625 18.546875 47.265625 
Q 14.109375 46.140625 10.015625 43.890625 
L 10.015625 52.203125 
Q 14.9375 54.109375 19.578125 55.046875 
Q 24.21875 56 28.609375 56 
Q 40.484375 56 46.34375 49.84375 
Q 52.203125 43.703125 52.203125 31.203125 
" id="BitstreamVeraSans-Roman-61"/>
     </defs>
     <g transform="translate(173.41171875 414.21921875)scale(0.15 -0.15)">
      <use xlink:href="#BitstreamVeraSans-Roman-53"/>
      <use x="63.4765625" xlink:href="#BitstreamVeraSans-Roman-69"/>
      <use x="91.259765625" xlink:href="#BitstreamVeraSans-Roman-6d"/>
      <use x="188.671875" xlink:href="#BitstreamVeraSans-Roman-75"/>
      <use x="252.05078125" xlink:href="#BitstreamVeraSans-Roman-6c"/>
      <use x="279.833984375" xlink:href="#BitstreamVeraSans-Roman-61"/>
      <use x="341.11328125" xlink:href="#BitstreamVeraSans-Roman-74"/>
      <use x="380.322265625" xlink:href="#BitstreamVeraSans-Roman-69"/>
      <use x="408.10546875" xlink:href="#BitstreamVeraSans-Roman-6f"/>
      <use x="469.287109375" xlink:href="#BitstreamVeraSans-Roman-6e"/>
      <use x="532.666015625" xlink:href="#BitstreamVeraSans-Roman-20"/>
      <use x="564.453125" xlink:href="#BitstreamVeraSans-Roman-68"/>
      <use x="627.83203125" xlink:href="#BitstreamVeraSans-Roman-6f"/>
      <use x="689.013671875" xlink:href="#BitstreamVeraSans-Roman-75"/>
      <use x="752.392578125" xlink:href="#BitstreamVeraSans-Roman-72"/>
      <use x="793.505859375" xlink:href="#BitstreamVeraSans-Roman-20"/>
      <use x="825.29296875" xlink:href="#BitstreamVeraSans-Roman-5b"/>
      <use x="864.306640625" xlink:href="#BitstreamVeraSans-Roman-23"/>
      <use x="948.095703125" xlink:href="#BitstreamVeraSans-Roman-5d"/>
     </g>
    </g>
   </g>
   <g id="matplotlib.axis_2">
    <g id="ytick_1">
     <g id="line2d_22">
      <path clip-path="url(#pf532a3c250)" d="M 77.6925 381.24 
L 417.195 381.24 
" style="fill:none;stroke:#dddddd;stroke-linecap:square;stroke-width:0.5;"/>
     </g>
     <g id="line2d_23">
      <defs>
       <path d="M 0 0 
L 4 0 
" id="mf4aaf44279" style="stroke:#000000;stroke-width:0.5;"/>
      </defs>
      <g>
       <use style="stroke:#000000;stroke-width:0.5;" x="77.6925" xlink:href="#mf4aaf44279" y="381.24"/>
      </g>
     </g>
     <g id="line2d_24">
      <defs>
       <path d="M 0 0 
L -4 0 
" id="m63a08f2bbf" style="stroke:#000000;stroke-width:0.5;"/>
      </defs>
      <g>
       <use style="stroke:#000000;stroke-width:0.5;" x="417.195" xlink:href="#m63a08f2bbf" y="381.24"/>
      </g>
     </g>
     <g id="text_9">
      <!-- 0.0 -->
      <defs>
       <path d="M 10.6875 12.40625 
L 21 12.40625 
L 21 0 
L 10.6875 0 
z
" id="BitstreamVeraSans-Roman-2e"/>
      </defs>
      <g transform="translate(53.0184375 384.8271875)scale(0.13 -0.13)">
       <use xlink:href="#BitstreamVeraSans-Roman-30"/>
       <use x="63.623046875" xlink:href="#BitstreamVeraSans-Roman-2e"/>
       <use x="95.41015625" xlink:href="#BitstreamVeraSans-Roman-30"/>
      </g>
     </g>
    </g>
    <g id="ytick_2">
     <g id="line2d_25">
      <path clip-path="url(#pf532a3c250)" d="M 77.6925 320.91 
L 417.195 320.91 
" style="fill:none;stroke:#dddddd;stroke-linecap:square;stroke-width:0.5;"/>
     </g>
     <g id="line2d_26">
      <g>
       <use style="stroke:#000000;stroke-width:0.5;" x="77.6925" xlink:href="#mf4aaf44279" y="320.91"/>
      </g>
     </g>
     <g id="line2d_27">
      <g>
       <use style="stroke:#000000;stroke-width:0.5;" x="417.195" xlink:href="#m63a08f2bbf" y="320.91"/>
      </g>
     </g>
     <g id="text_10">
      <!-- 0.5 -->
      <defs>
       <path d="M 10.796875 72.90625 
L 49.515625 72.90625 
L 49.515625 64.59375 
L 19.828125 64.59375 
L 19.828125 46.734375 
Q 21.96875 47.46875 24.109375 47.828125 
Q 26.265625 48.1875 28.421875 48.1875 
Q 40.625 48.1875 47.75 41.5 
Q 54.890625 34.8125 54.890625 23.390625 
Q 54.890625 11.625 47.5625 5.09375 
Q 40.234375 -1.421875 26.90625 -1.421875 
Q 22.3125 -1.421875 17.546875 -0.640625 
Q 12.796875 0.140625 7.71875 1.703125 
L 7.71875 11.625 
Q 12.109375 9.234375 16.796875 8.0625 
Q 21.484375 6.890625 26.703125 6.890625 
Q 35.15625 6.890625 40.078125 11.328125 
Q 45.015625 15.765625 45.015625 23.390625 
Q 45.015625 31 40.078125 35.4375 
Q 35.15625 39.890625 26.703125 39.890625 
Q 22.75 39.890625 18.8125 39.015625 
Q 14.890625 38.140625 10.796875 36.28125 
z
" id="BitstreamVeraSans-Roman-35"/>
      </defs>
      <g transform="translate(53.0184375 324.4971875)scale(0.13 -0.13)">
       <use xlink:href="#BitstreamVeraSans-Roman-30"/>
       <use x="63.623046875" xlink:href="#BitstreamVeraSans-Roman-2e"/>
       <use x="95.41015625" xlink:href="#BitstreamVeraSans-Roman-35"/>
      </g>
     </g>
    </g>
    <g id="ytick_3">
     <g id="line2d_28">
      <path clip-path="url(#pf532a3c250)" d="M 77.6925 260.58 
L 417.195 260.58 
" style="fill:none;stroke:#dddddd;stroke-linecap:square;stroke-width:0.5;"/>
     </g>
     <g id="line2d_29">
      <g>
       <use style="stroke:#000000;stroke-width:0.5;" x="77.6925" xlink:href="#mf4aaf44279" y="260.58"/>
      </g>
     </g>
     <g id="line2d_30">
      <g>
       <use style="stroke:#000000;stroke-width:0.5;" x="417.195" xlink:href="#m63a08f2bbf" y="260.58"/>
      </g>
     </g>
     <g id="text_11">
      <!-- 1.0 -->
      <g transform="translate(53.0184375 264.1671875)scale(0.13 -0.13)">
       <use xlink:href="#BitstreamVeraSans-Roman-31"/>
       <use x="63.623046875" xlink:href="#BitstreamVeraSans-Roman-2e"/>
       <use x="95.41015625" xlink:href="#BitstreamVeraSans-Roman-30"/>
      </g>
     </g>
    </g>
    <g id="ytick_4">
     <g id="line2d_31">
      <path clip-path="url(#pf532a3c250)" d="M 77.6925 200.25 
L 417.195 200.25 
" style="fill:none;stroke:#dddddd;stroke-linecap:square;stroke-width:0.5;"/>
     </g>
     <g id="line2d_32">
      <g>
       <use style="stroke:#000000;stroke-width:0.5;" x="77.6925" xlink:href="#mf4aaf44279" y="200.25"/>
      </g>
     </g>
     <g id="line2d_33">
      <g>
       <use style="stroke:#000000;stroke-width:0.5;" x="417.195" xlink:href="#m63a08f2bbf" y="200.25"/>
      </g>
     </g>
     <g id="text_12">
      <!-- 1.5 -->
      <g transform="translate(53.0184375 203.8371875)scale(0.13 -0.13)">
       <use xlink:href="#BitstreamVeraSans-Roman-31"/>
       <use x="63.623046875" xlink:href="#BitstreamVeraSans-Roman-2e"/>
       <use x="95.41015625" xlink:href="#BitstreamVeraSans-Roman-35"/>
      </g>
     </g>
    </g>
    <g id="ytick_5">
     <g id="line2d_34">
      <path clip-path="url(#pf532a3c250)" d="M 77.6925 139.92 
L 417.195 139.92 
" style="fill:none;stroke:#dddddd;stroke-linecap:square;stroke-width:0.5;"/>
     </g>
     <g id="line2d_35">
      <g>
       <use style="stroke:#000000;stroke-width:0.5;" x="77.6925" xlink:href="#mf4aaf44279" y="139.92"/>
      </g>
     </g>
     <g id="line2d_36">
      <g>
       <use style="stroke:#000000;stroke-width:0.5;" x="417.195" xlink:href="#m63a08f2bbf" y="139.92"/>
      </g>
     </g>
     <g id="text_13">
      <!-- 2.0 -->
      <g transform="translate(53.0184375 143.5071875)scale(0.13 -0.13)">
       <use xlink:href="#BitstreamVeraSans-Roman-32"/>
       <use x="63.623046875" xlink:href="#BitstreamVeraSans-Roman-2e"/>
       <use x="95.41015625" xlink:href="#BitstreamVeraSans-Roman-30"/>
      </g>
     </g>
    </g>
    <g id="ytick_6">
     <g id="line2d_37">
      <path clip-path="url(#pf532a3c250)" d="M 77.6925 79.59 
L 417.195 79.59 
" style="fill:none;stroke:#dddddd;stroke-linecap:square;stroke-width:0.5;"/>
     </g>
     <g id="line2d_38">
      <g>
       <use style="stroke:#000000;stroke-width:0.5;" x="77.6925" xlink:href="#mf4aaf44279" y="79.59"/>
      </g>
     </g>
     <g id="line2d_39">
      <g>
       <use style="stroke:#000000;stroke-width:0.5;" x="417.195" xlink:href="#m63a08f2bbf" y="79.59"/>
      </g>
     </g>
     <g id="text_14">
      <!-- 2.5 -->
      <g transform="translate(53.0184375 83.1771875)scale(0.13 -0.13)">
       <use xlink:href="#BitstreamVeraSans-Roman-32"/>
       <use x="63.623046875" xlink:href="#BitstreamVeraSans-Roman-2e"/>
       <use x="95.41015625" xlink:href="#BitstreamVeraSans-Roman-35"/>
      </g>
     </g>
    </g>
    <g id="ytick_7">
     <g id="line2d_40">
      <path clip-path="url(#pf532a3c250)" d="M 77.6925 19.26 
L 417.195 19.26 
" style="fill:none;stroke:#dddddd;stroke-linecap:square;stroke-width:0.5;"/>
     </g>
     <g id="line2d_41">
      <g>
       <use style="stroke:#000000;stroke-width:0.5;" x="77.6925" xlink:href="#mf4aaf44279" y="19.26"/>
      </g>
     </g>
     <g id="line2d_42">
      <g>
       <use style="stroke:#000000;stroke-width:0.5;" x="417.195" xlink:href="#m63a08f2bbf" y="19.26"/>
      </g>
     </g>
     <g id="text_15">
      <!-- 3.0 -->
      <defs>
       <path d="M 40.578125 39.3125 
Q 47.65625 37.796875 51.625 33 
Q 55.609375 28.21875 55.609375 21.1875 
Q 55.609375 10.40625 48.1875 4.484375 
Q 40.765625 -1.421875 27.09375 -1.421875 
Q 22.515625 -1.421875 17.65625 -0.515625 
Q 12.796875 0.390625 7.625 2.203125 
L 7.625 11.71875 
Q 11.71875 9.328125 16.59375 8.109375 
Q 21.484375 6.890625 26.8125 6.890625 
Q 36.078125 6.890625 40.9375 10.546875 
Q 45.796875 14.203125 45.796875 21.1875 
Q 45.796875 27.640625 41.28125 31.265625 
Q 36.765625 34.90625 28.71875 34.90625 
L 20.21875 34.90625 
L 20.21875 43.015625 
L 29.109375 43.015625 
Q 36.375 43.015625 40.234375 45.921875 
Q 44.09375 48.828125 44.09375 54.296875 
Q 44.09375 59.90625 40.109375 62.90625 
Q 36.140625 65.921875 28.71875 65.921875 
Q 24.65625 65.921875 20.015625 65.03125 
Q 15.375 64.15625 9.8125 62.3125 
L 9.8125 71.09375 
Q 15.4375 72.65625 20.34375 73.4375 
Q 25.25 74.21875 29.59375 74.21875 
Q 40.828125 74.21875 47.359375 69.109375 
Q 53.90625 64.015625 53.90625 55.328125 
Q 53.90625 49.265625 50.4375 45.09375 
Q 46.96875 40.921875 40.578125 39.3125 
" id="BitstreamVeraSans-Roman-33"/>
      </defs>
      <g transform="translate(53.0184375 22.8471875)scale(0.13 -0.13)">
       <use xlink:href="#BitstreamVeraSans-Roman-33"/>
       <use x="63.623046875" xlink:href="#BitstreamVeraSans-Roman-2e"/>
       <use x="95.41015625" xlink:href="#BitstreamVeraSans-Roman-30"/>
      </g>
     </g>
    </g>
    <g id="text_16">
     <!-- All clouds -->
     <defs>
      <path d="M 45.40625 46.390625 
L 45.40625 75.984375 
L 54.390625 75.984375 
L 54.390625 0 
L 45.40625 0 
L 45.40625 8.203125 
Q 42.578125 3.328125 38.25 0.953125 
Q 33.9375 -1.421875 27.875 -1.421875 
Q 17.96875 -1.421875 11.734375 6.484375 
Q 5.515625 14.40625 5.515625 27.296875 
Q 5.515625 40.1875 11.734375 48.09375 
Q 17.96875 56 27.875 56 
Q 33.9375 56 38.25 53.625 
Q 42.578125 51.265625 45.40625 46.390625 
M 14.796875 27.296875 
Q 14.796875 17.390625 18.875 11.75 
Q 22.953125 6.109375 30.078125 6.109375 
Q 37.203125 6.109375 41.296875 11.75 
Q 45.40625 17.390625 45.40625 27.296875 
Q 45.40625 37.203125 41.296875 42.84375 
Q 37.203125 48.484375 30.078125 48.484375 
Q 22.953125 48.484375 18.875 42.84375 
Q 14.796875 37.203125 14.796875 27.296875 
" id="BitstreamVeraSans-Roman-64"/>
      <path d="M 48.78125 52.59375 
L 48.78125 44.1875 
Q 44.96875 46.296875 41.140625 47.34375 
Q 37.3125 48.390625 33.40625 48.390625 
Q 24.65625 48.390625 19.8125 42.84375 
Q 14.984375 37.3125 14.984375 27.296875 
Q 14.984375 17.28125 19.8125 11.734375 
Q 24.65625 6.203125 33.40625 6.203125 
Q 37.3125 6.203125 41.140625 7.25 
Q 44.96875 8.296875 48.78125 10.40625 
L 48.78125 2.09375 
Q 45.015625 0.34375 40.984375 -0.53125 
Q 36.96875 -1.421875 32.421875 -1.421875 
Q 20.0625 -1.421875 12.78125 6.34375 
Q 5.515625 14.109375 5.515625 27.296875 
Q 5.515625 40.671875 12.859375 48.328125 
Q 20.21875 56 33.015625 56 
Q 37.15625 56 41.109375 55.140625 
Q 45.0625 54.296875 48.78125 52.59375 
" id="BitstreamVeraSans-Roman-63"/>
      <path d="M 34.1875 63.1875 
L 20.796875 26.90625 
L 47.609375 26.90625 
z
M 28.609375 72.90625 
L 39.796875 72.90625 
L 67.578125 0 
L 57.328125 0 
L 50.6875 18.703125 
L 17.828125 18.703125 
L 11.1875 0 
L 0.78125 0 
z
" id="BitstreamVeraSans-Roman-41"/>
      <path d="M 44.28125 53.078125 
L 44.28125 44.578125 
Q 40.484375 46.53125 36.375 47.5 
Q 32.28125 48.484375 27.875 48.484375 
Q 21.1875 48.484375 17.84375 46.4375 
Q 14.5 44.390625 14.5 40.28125 
Q 14.5 37.15625 16.890625 35.375 
Q 19.28125 33.59375 26.515625 31.984375 
L 29.59375 31.296875 
Q 39.15625 29.25 43.1875 25.515625 
Q 47.21875 21.78125 47.21875 15.09375 
Q 47.21875 7.46875 41.1875 3.015625 
Q 35.15625 -1.421875 24.609375 -1.421875 
Q 20.21875 -1.421875 15.453125 -0.5625 
Q 10.6875 0.296875 5.421875 2 
L 5.421875 11.28125 
Q 10.40625 8.6875 15.234375 7.390625 
Q 20.0625 6.109375 24.8125 6.109375 
Q 31.15625 6.109375 34.5625 8.28125 
Q 37.984375 10.453125 37.984375 14.40625 
Q 37.984375 18.0625 35.515625 20.015625 
Q 33.0625 21.96875 24.703125 23.78125 
L 21.578125 24.515625 
Q 13.234375 26.265625 9.515625 29.90625 
Q 5.8125 33.546875 5.8125 39.890625 
Q 5.8125 47.609375 11.28125 51.796875 
Q 16.75 56 26.8125 56 
Q 31.78125 56 36.171875 55.265625 
Q 40.578125 54.546875 44.28125 53.078125 
" id="BitstreamVeraSans-Roman-73"/>
     </defs>
     <g transform="translate(28.1021875 236.14921875)rotate(-90.0)scale(0.15 -0.15)">
      <use xlink:href="#BitstreamVeraSans-Roman-41"/>
      <use x="68.408203125" xlink:href="#BitstreamVeraSans-Roman-6c"/>
      <use x="96.19140625" xlink:href="#BitstreamVeraSans-Roman-6c"/>
      <use x="123.974609375" xlink:href="#BitstreamVeraSans-Roman-20"/>
      <use x="155.76171875" xlink:href="#BitstreamVeraSans-Roman-63"/>
      <use x="210.7421875" xlink:href="#BitstreamVeraSans-Roman-6c"/>
      <use x="238.525390625" xlink:href="#BitstreamVeraSans-Roman-6f"/>
      <use x="299.70703125" xlink:href="#BitstreamVeraSans-Roman-75"/>
      <use x="363.0859375" xlink:href="#BitstreamVeraSans-Roman-64"/>
      <use x="426.5625" xlink:href="#BitstreamVeraSans-Roman-73"/>
     </g>
     <!-- min base, max top -->
     <defs>
      <path d="M 56.203125 29.59375 
L 56.203125 25.203125 
L 14.890625 25.203125 
Q 15.484375 15.921875 20.484375 11.0625 
Q 25.484375 6.203125 34.421875 6.203125 
Q 39.59375 6.203125 44.453125 7.46875 
Q 49.3125 8.734375 54.109375 11.28125 
L 54.109375 2.78125 
Q 49.265625 0.734375 44.1875 -0.34375 
Q 39.109375 -1.421875 33.890625 -1.421875 
Q 20.796875 -1.421875 13.15625 6.1875 
Q 5.515625 13.8125 5.515625 26.8125 
Q 5.515625 40.234375 12.765625 48.109375 
Q 20.015625 56 32.328125 56 
Q 43.359375 56 49.78125 48.890625 
Q 56.203125 41.796875 56.203125 29.59375 
M 47.21875 32.234375 
Q 47.125 39.59375 43.09375 43.984375 
Q 39.0625 48.390625 32.421875 48.390625 
Q 24.90625 48.390625 20.390625 44.140625 
Q 15.875 39.890625 15.1875 32.171875 
z
" id="BitstreamVeraSans-Roman-65"/>
      <path d="M 11.71875 12.40625 
L 22.015625 12.40625 
L 22.015625 4 
L 14.015625 -11.625 
L 7.71875 -11.625 
L 11.71875 4 
z
" id="BitstreamVeraSans-Roman-2c"/>
      <path d="M 18.109375 8.203125 
L 18.109375 -20.796875 
L 9.078125 -20.796875 
L 9.078125 54.6875 
L 18.109375 54.6875 
L 18.109375 46.390625 
Q 20.953125 51.265625 25.265625 53.625 
Q 29.59375 56 35.59375 56 
Q 45.5625 56 51.78125 48.09375 
Q 58.015625 40.1875 58.015625 27.296875 
Q 58.015625 14.40625 51.78125 6.484375 
Q 45.5625 -1.421875 35.59375 -1.421875 
Q 29.59375 -1.421875 25.265625 0.953125 
Q 20.953125 3.328125 18.109375 8.203125 
M 48.6875 27.296875 
Q 48.6875 37.203125 44.609375 42.84375 
Q 40.53125 48.484375 33.40625 48.484375 
Q 26.265625 48.484375 22.1875 42.84375 
Q 18.109375 37.203125 18.109375 27.296875 
Q 18.109375 17.390625 22.1875 11.75 
Q 26.265625 6.109375 33.40625 6.109375 
Q 40.53125 6.109375 44.609375 11.75 
Q 48.6875 17.390625 48.6875 27.296875 
" id="BitstreamVeraSans-Roman-70"/>
      <path d="M 54.890625 54.6875 
L 35.109375 28.078125 
L 55.90625 0 
L 45.3125 0 
L 29.390625 21.484375 
L 13.484375 0 
L 2.875 0 
L 24.125 28.609375 
L 4.6875 54.6875 
L 15.28125 54.6875 
L 29.78125 35.203125 
L 44.28125 54.6875 
z
" id="BitstreamVeraSans-Roman-78"/>
      <path d="M 48.6875 27.296875 
Q 48.6875 37.203125 44.609375 42.84375 
Q 40.53125 48.484375 33.40625 48.484375 
Q 26.265625 48.484375 22.1875 42.84375 
Q 18.109375 37.203125 18.109375 27.296875 
Q 18.109375 17.390625 22.1875 11.75 
Q 26.265625 6.109375 33.40625 6.109375 
Q 40.53125 6.109375 44.609375 11.75 
Q 48.6875 17.390625 48.6875 27.296875 
M 18.109375 46.390625 
Q 20.953125 51.265625 25.265625 53.625 
Q 29.59375 56 35.59375 56 
Q 45.5625 56 51.78125 48.09375 
Q 58.015625 40.1875 58.015625 27.296875 
Q 58.015625 14.40625 51.78125 6.484375 
Q 45.5625 -1.421875 35.59375 -1.421875 
Q 29.59375 -1.421875 25.265625 0.953125 
Q 20.953125 3.328125 18.109375 8.203125 
L 18.109375 0 
L 9.078125 0 
L 9.078125 75.984375 
L 18.109375 75.984375 
z
" id="BitstreamVeraSans-Roman-62"/>
     </defs>
     <g transform="translate(44.89890625 270.437109375)rotate(-90.0)scale(0.15 -0.15)">
      <use xlink:href="#BitstreamVeraSans-Roman-6d"/>
      <use x="97.412109375" xlink:href="#BitstreamVeraSans-Roman-69"/>
      <use x="125.1953125" xlink:href="#BitstreamVeraSans-Roman-6e"/>
      <use x="188.57421875" xlink:href="#BitstreamVeraSans-Roman-20"/>
      <use x="220.361328125" xlink:href="#BitstreamVeraSans-Roman-62"/>
      <use x="283.837890625" xlink:href="#BitstreamVeraSans-Roman-61"/>
      <use x="345.1171875" xlink:href="#BitstreamVeraSans-Roman-73"/>
      <use x="397.216796875" xlink:href="#BitstreamVeraSans-Roman-65"/>
      <use x="458.740234375" xlink:href="#BitstreamVeraSans-Roman-2c"/>
      <use x="490.52734375" xlink:href="#BitstreamVeraSans-Roman-20"/>
      <use x="522.314453125" xlink:href="#BitstreamVeraSans-Roman-6d"/>
      <use x="619.7265625" xlink:href="#BitstreamVeraSans-Roman-61"/>
      <use x="681.005859375" xlink:href="#BitstreamVeraSans-Roman-78"/>
      <use x="740.185546875" xlink:href="#BitstreamVeraSans-Roman-20"/>
      <use x="771.97265625" xlink:href="#BitstreamVeraSans-Roman-74"/>
      <use x="811.181640625" xlink:href="#BitstreamVeraSans-Roman-6f"/>
      <use x="872.36328125" xlink:href="#BitstreamVeraSans-Roman-70"/>
     </g>
    </g>
   </g>
   <g id="PolyCollection_1">
    <defs>
     <path d="M 105.984375 -255.882 
L 105.984375 -108.0735 
L 134.27625 -111.09 
L 162.568125 -114.1065 
L 190.86 -117.123 
L 219.151875 -117.123 
L 247.44375 -120.1395 
L 275.735625 -120.1395 
L 304.0275 -123.156 
L 332.319375 -126.1725 
L 360.61125 -123.156 
L 388.903125 -126.1725 
L 417.195 -129.189 
L 417.195 -273.981 
L 417.195 -273.981 
L 388.903125 -270.9645 
L 360.61125 -270.9645 
L 332.319375 -252.8655 
L 304.0275 -249.849 
L 275.735625 -258.8985 
L 247.44375 -255.882 
L 219.151875 -289.0635 
L 190.86 -255.882 
L 162.568125 -261.915 
L 134.27625 -258.8985 
L 105.984375 -255.882 
z
" id="mc82205e5e2" style="stroke:#4077aa;stroke-opacity:0.33;"/>
    </defs>
    <g clip-path="url(#pf532a3c250)">
     <use style="fill:#4077aa;fill-opacity:0.33;stroke:#4077aa;stroke-opacity:0.33;" x="0.0" xlink:href="#mc82205e5e2" y="432.0"/>
    </g>
   </g>
   <g id="PolyCollection_2">
    <defs>
     <path d="M 105.984375 -238.9896 
L 105.984375 -108.6768 
L 134.27625 -113.5032 
L 162.568125 -118.3296 
L 190.86 -118.3296 
L 219.151875 -123.156 
L 247.44375 -123.156 
L 275.735625 -123.156 
L 304.0275 -127.9824 
L 332.319375 -127.9824 
L 360.61125 -127.9824 
L 388.903125 -132.8088 
L 417.195 -132.8088 
L 417.195 -238.9896 
L 417.195 -238.9896 
L 388.903125 -272.7744 
L 360.61125 -248.6424 
L 332.319375 -263.1216 
L 304.0275 -253.4688 
L 275.735625 -277.6008 
L 247.44375 -214.8576 
L 219.151875 -234.1632 
L 190.86 -267.948 
L 162.568125 -238.9896 
L 134.27625 -248.6424 
L 105.984375 -238.9896 
z
" id="mb648b78017" style="stroke:#117733;stroke-opacity:0.33;"/>
    </defs>
    <g clip-path="url(#pf532a3c250)">
     <use style="fill:#117733;fill-opacity:0.33;stroke:#117733;stroke-opacity:0.33;" x="0.0" xlink:href="#mb648b78017" y="432.0"/>
    </g>
   </g>
   <g id="PolyCollection_3">
    <defs>
     <path d="M 105.984375 -296.9064 
L 105.984375 -108.6768 
L 134.27625 -108.6768 
L 162.568125 -113.5032 
L 190.86 -118.3296 
L 219.151875 -118.3296 
L 247.44375 -118.3296 
L 275.735625 -123.156 
L 304.0275 -123.156 
L 332.319375 -127.9824 
L 360.61125 -127.9824 
L 388.903125 -127.9824 
L 417.195 -127.9824 
L 417.195 -359.6496 
L 417.195 -359.6496 
L 388.903125 -335.5176 
L 360.61125 -316.212 
L 332.319375 -359.6496 
L 304.0275 -321.0384 
L 275.735625 -306.5592 
L 247.44375 -292.08 
L 219.151875 -316.212 
L 190.86 -287.2536 
L 162.568125 -325.8648 
L 134.27625 -335.5176 
L 105.984375 -296.9064 
z
" id="mc4abc6f2d5" style="stroke:#ddcc77;stroke-opacity:0.33;"/>
    </defs>
    <g clip-path="url(#pf532a3c250)">
     <use style="fill:#ddcc77;fill-opacity:0.33;stroke:#ddcc77;stroke-opacity:0.33;" x="0.0" xlink:href="#mc4abc6f2d5" y="432.0"/>
    </g>
   </g>
   <g id="PolyCollection_4">
    <defs>
     <path d="M 105.984375 -276.9975 
L 105.984375 -108.0735 
L 134.27625 -108.0735 
L 162.568125 -111.09 
L 190.86 -114.1065 
L 219.151875 -114.1065 
L 247.44375 -120.1395 
L 275.735625 -120.1395 
L 304.0275 -123.156 
L 332.319375 -123.156 
L 360.61125 -123.156 
L 388.903125 -123.156 
L 417.195 -126.1725 
L 417.195 -289.0635 
L 417.195 -289.0635 
L 388.903125 -283.0305 
L 360.61125 -273.981 
L 332.319375 -276.9975 
L 304.0275 -267.948 
L 275.735625 -273.981 
L 247.44375 -270.9645 
L 219.151875 -270.9645 
L 190.86 -264.9315 
L 162.568125 -270.9645 
L 134.27625 -270.9645 
L 105.984375 -276.9975 
z
" id="ma10e3d77fb" style="stroke:#cc6677;stroke-opacity:0.33;"/>
    </defs>
    <g clip-path="url(#pf532a3c250)">
     <use style="fill:#cc6677;fill-opacity:0.33;stroke:#cc6677;stroke-opacity:0.33;" x="0.0" xlink:href="#ma10e3d77fb" y="432.0"/>
    </g>
   </g>
   <g id="line2d_43">
    <path clip-path="url(#pf532a3c250)" d="M 105.984375 323.9265 
L 134.27625 320.91 
L 162.568125 317.8935 
L 190.86 314.877 
L 219.151875 314.877 
L 247.44375 311.8605 
L 275.735625 311.8605 
L 304.0275 308.844 
L 332.319375 305.8275 
L 360.61125 308.844 
L 388.903125 305.8275 
L 417.195 302.811 
" style="fill:none;stroke:#4077aa;stroke-linecap:square;stroke-width:2.0;"/>
   </g>
   <g id="line2d_44">
    <path clip-path="url(#pf532a3c250)" d="M 105.984375 176.118 
L 134.27625 173.1015 
L 162.568125 170.085 
L 190.86 176.118 
L 219.151875 142.9365 
L 247.44375 176.118 
L 275.735625 173.1015 
L 304.0275 182.151 
L 332.319375 179.1345 
L 360.61125 161.0355 
L 388.903125 161.0355 
L 417.195 158.019 
" style="fill:none;stroke:#4077aa;stroke-linecap:square;stroke-width:2.0;"/>
   </g>
   <g id="line2d_45">
    <path clip-path="url(#pf532a3c250)" d="M 105.984375 323.3232 
L 134.27625 318.4968 
L 162.568125 313.6704 
L 190.86 313.6704 
L 219.151875 308.844 
L 247.44375 308.844 
L 275.735625 308.844 
L 304.0275 304.0176 
L 332.319375 304.0176 
L 360.61125 304.0176 
L 388.903125 299.1912 
L 417.195 299.1912 
" style="fill:none;stroke:#117733;stroke-linecap:square;stroke-width:2.0;"/>
   </g>
   <g id="line2d_46">
    <path clip-path="url(#pf532a3c250)" d="M 105.984375 193.0104 
L 134.27625 183.3576 
L 162.568125 193.0104 
L 190.86 164.052 
L 219.151875 197.8368 
L 247.44375 217.1424 
L 275.735625 154.3992 
L 304.0275 178.5312 
L 332.319375 168.8784 
L 360.61125 183.3576 
L 388.903125 159.2256 
L 417.195 193.0104 
" style="fill:none;stroke:#117733;stroke-linecap:square;stroke-width:2.0;"/>
   </g>
   <g id="line2d_47">
    <path clip-path="url(#pf532a3c250)" d="M 105.984375 323.3232 
L 134.27625 323.3232 
L 162.568125 318.4968 
L 190.86 313.6704 
L 219.151875 313.6704 
L 247.44375 313.6704 
L 275.735625 308.844 
L 304.0275 308.844 
L 332.319375 304.0176 
L 360.61125 304.0176 
L 388.903125 304.0176 
L 417.195 304.0176 
" style="fill:none;stroke:#ddcc77;stroke-linecap:square;stroke-width:2.0;"/>
   </g>
   <g id="line2d_48">
    <path clip-path="url(#pf532a3c250)" d="M 105.984375 135.0936 
L 134.27625 96.4824 
L 162.568125 106.1352 
L 190.86 144.7464 
L 219.151875 115.788 
L 247.44375 139.92 
L 275.735625 125.4408 
L 304.0275 110.9616 
L 332.319375 72.3504 
L 360.61125 115.788 
L 388.903125 96.4824 
L 417.195 72.3504 
" style="fill:none;stroke:#ddcc77;stroke-linecap:square;stroke-width:2.0;"/>
   </g>
   <g id="line2d_49">
    <path clip-path="url(#pf532a3c250)" d="M 105.984375 323.9265 
L 134.27625 323.9265 
L 162.568125 320.91 
L 190.86 317.8935 
L 219.151875 317.8935 
L 247.44375 311.8605 
L 275.735625 311.8605 
L 304.0275 308.844 
L 332.319375 308.844 
L 360.61125 308.844 
L 388.903125 308.844 
L 417.195 305.8275 
" style="fill:none;stroke:#cc6677;stroke-linecap:square;stroke-width:2.0;"/>
   </g>
   <g id="line2d_50">
    <path clip-path="url(#pf532a3c250)" d="M 105.984375 155.0025 
L 134.27625 161.0355 
L 162.568125 161.0355 
L 190.86 167.0685 
L 219.151875 161.0355 
L 247.44375 161.0355 
L 275.735625 158.019 
L 304.0275 164.052 
L 332.319375 155.0025 
L 360.61125 158.019 
L 388.903125 148.9695 
L 417.195 142.9365 
" style="fill:none;stroke:#cc6677;stroke-linecap:square;stroke-width:2.0;"/>
   </g>
   <g id="patch_3">
    <path d="M 77.6925 381.24 
L 417.195 381.24 
" style="fill:none;stroke:#8c8c8c;stroke-linecap:square;stroke-linejoin:miter;"/>
   </g>
   <g id="patch_4">
    <path d="M 77.6925 381.24 
L 77.6925 19.26 
" style="fill:none;stroke:#8c8c8c;stroke-linecap:square;stroke-linejoin:miter;"/>
   </g>
  </g>
  <g id="axes_2">
   <g id="patch_5">
    <path d="M 503.2125 381.24 
L 842.715 381.24 
L 842.715 19.26 
L 503.2125 19.26 
z
" style="fill:#ffffff;"/>
   </g>
   <g id="matplotlib.axis_3">
    <g id="xtick_8">
     <g id="line2d_51">
      <path clip-path="url(#p91b750a4fd)" d="M 503.2125 381.24 
L 503.2125 19.26 
" style="fill:none;stroke:#dddddd;stroke-linecap:square;stroke-width:0.5;"/>
     </g>
     <g id="line2d_52">
      <g>
       <use style="stroke:#000000;stroke-width:0.5;" x="503.2125" xlink:href="#md768aa2b75" y="381.24"/>
      </g>
     </g>
     <g id="line2d_53">
      <g>
       <use style="stroke:#000000;stroke-width:0.5;" x="503.2125" xlink:href="#m63a4042b03" y="19.26"/>
      </g>
     </g>
     <g id="text_17">
      <!-- 2 -->
      <g transform="translate(499.076875 395.11796875)scale(0.13 -0.13)">
       <use xlink:href="#BitstreamVeraSans-Roman-32"/>
      </g>
     </g>
    </g>
    <g id="xtick_9">
     <g id="line2d_54">
      <path clip-path="url(#p91b750a4fd)" d="M 559.79625 381.24 
L 559.79625 19.26 
" style="fill:none;stroke:#dddddd;stroke-linecap:square;stroke-width:0.5;"/>
     </g>
     <g id="line2d_55">
      <g>
       <use style="stroke:#000000;stroke-width:0.5;" x="559.79625" xlink:href="#md768aa2b75" y="381.24"/>
      </g>
     </g>
     <g id="line2d_56">
      <g>
       <use style="stroke:#000000;stroke-width:0.5;" x="559.79625" xlink:href="#m63a4042b03" y="19.26"/>
      </g>
     </g>
     <g id="text_18">
      <!-- 4 -->
      <g transform="translate(555.660625 395.11796875)scale(0.13 -0.13)">
       <use xlink:href="#BitstreamVeraSans-Roman-34"/>
      </g>
     </g>
    </g>
    <g id="xtick_10">
     <g id="line2d_57">
      <path clip-path="url(#p91b750a4fd)" d="M 616.38 381.24 
L 616.38 19.26 
" style="fill:none;stroke:#dddddd;stroke-linecap:square;stroke-width:0.5;"/>
     </g>
     <g id="line2d_58">
      <g>
       <use style="stroke:#000000;stroke-width:0.5;" x="616.38" xlink:href="#md768aa2b75" y="381.24"/>
      </g>
     </g>
     <g id="line2d_59">
      <g>
       <use style="stroke:#000000;stroke-width:0.5;" x="616.38" xlink:href="#m63a4042b03" y="19.26"/>
      </g>
     </g>
     <g id="text_19">
      <!-- 6 -->
      <g transform="translate(612.244375 395.11796875)scale(0.13 -0.13)">
       <use xlink:href="#BitstreamVeraSans-Roman-36"/>
      </g>
     </g>
    </g>
    <g id="xtick_11">
     <g id="line2d_60">
      <path clip-path="url(#p91b750a4fd)" d="M 672.96375 381.24 
L 672.96375 19.26 
" style="fill:none;stroke:#dddddd;stroke-linecap:square;stroke-width:0.5;"/>
     </g>
     <g id="line2d_61">
      <g>
       <use style="stroke:#000000;stroke-width:0.5;" x="672.96375" xlink:href="#md768aa2b75" y="381.24"/>
      </g>
     </g>
     <g id="line2d_62">
      <g>
       <use style="stroke:#000000;stroke-width:0.5;" x="672.96375" xlink:href="#m63a4042b03" y="19.26"/>
      </g>
     </g>
     <g id="text_20">
      <!-- 8 -->
      <g transform="translate(668.828125 395.11796875)scale(0.13 -0.13)">
       <use xlink:href="#BitstreamVeraSans-Roman-38"/>
      </g>
     </g>
    </g>
    <g id="xtick_12">
     <g id="line2d_63">
      <path clip-path="url(#p91b750a4fd)" d="M 729.5475 381.24 
L 729.5475 19.26 
" style="fill:none;stroke:#dddddd;stroke-linecap:square;stroke-width:0.5;"/>
     </g>
     <g id="line2d_64">
      <g>
       <use style="stroke:#000000;stroke-width:0.5;" x="729.5475" xlink:href="#md768aa2b75" y="381.24"/>
      </g>
     </g>
     <g id="line2d_65">
      <g>
       <use style="stroke:#000000;stroke-width:0.5;" x="729.5475" xlink:href="#m63a4042b03" y="19.26"/>
      </g>
     </g>
     <g id="text_21">
      <!-- 10 -->
      <g transform="translate(721.27625 395.11796875)scale(0.13 -0.13)">
       <use xlink:href="#BitstreamVeraSans-Roman-31"/>
       <use x="63.623046875" xlink:href="#BitstreamVeraSans-Roman-30"/>
      </g>
     </g>
    </g>
    <g id="xtick_13">
     <g id="line2d_66">
      <path clip-path="url(#p91b750a4fd)" d="M 786.13125 381.24 
L 786.13125 19.26 
" style="fill:none;stroke:#dddddd;stroke-linecap:square;stroke-width:0.5;"/>
     </g>
     <g id="line2d_67">
      <g>
       <use style="stroke:#000000;stroke-width:0.5;" x="786.13125" xlink:href="#md768aa2b75" y="381.24"/>
      </g>
     </g>
     <g id="line2d_68">
      <g>
       <use style="stroke:#000000;stroke-width:0.5;" x="786.13125" xlink:href="#m63a4042b03" y="19.26"/>
      </g>
     </g>
     <g id="text_22">
      <!-- 12 -->
      <g transform="translate(777.86 395.11796875)scale(0.13 -0.13)">
       <use xlink:href="#BitstreamVeraSans-Roman-31"/>
       <use x="63.623046875" xlink:href="#BitstreamVeraSans-Roman-32"/>
      </g>
     </g>
    </g>
    <g id="xtick_14">
     <g id="line2d_69">
      <path clip-path="url(#p91b750a4fd)" d="M 842.715 381.24 
L 842.715 19.26 
" style="fill:none;stroke:#dddddd;stroke-linecap:square;stroke-width:0.5;"/>
     </g>
     <g id="line2d_70">
      <g>
       <use style="stroke:#000000;stroke-width:0.5;" x="842.715" xlink:href="#md768aa2b75" y="381.24"/>
      </g>
     </g>
     <g id="line2d_71">
      <g>
       <use style="stroke:#000000;stroke-width:0.5;" x="842.715" xlink:href="#m63a4042b03" y="19.26"/>
      </g>
     </g>
     <g id="text_23">
      <!-- 14 -->
      <g transform="translate(834.44375 395.11796875)scale(0.13 -0.13)">
       <use xlink:href="#BitstreamVeraSans-Roman-31"/>
       <use x="63.623046875" xlink:href="#BitstreamVeraSans-Roman-34"/>
      </g>
     </g>
    </g>
    <g id="text_24">
     <!-- Simulation hour [#] -->
     <g transform="translate(598.93171875 414.21921875)scale(0.15 -0.15)">
      <use xlink:href="#BitstreamVeraSans-Roman-53"/>
      <use x="63.4765625" xlink:href="#BitstreamVeraSans-Roman-69"/>
      <use x="91.259765625" xlink:href="#BitstreamVeraSans-Roman-6d"/>
      <use x="188.671875" xlink:href="#BitstreamVeraSans-Roman-75"/>
      <use x="252.05078125" xlink:href="#BitstreamVeraSans-Roman-6c"/>
      <use x="279.833984375" xlink:href="#BitstreamVeraSans-Roman-61"/>
      <use x="341.11328125" xlink:href="#BitstreamVeraSans-Roman-74"/>
      <use x="380.322265625" xlink:href="#BitstreamVeraSans-Roman-69"/>
      <use x="408.10546875" xlink:href="#BitstreamVeraSans-Roman-6f"/>
      <use x="469.287109375" xlink:href="#BitstreamVeraSans-Roman-6e"/>
      <use x="532.666015625" xlink:href="#BitstreamVeraSans-Roman-20"/>
      <use x="564.453125" xlink:href="#BitstreamVeraSans-Roman-68"/>
      <use x="627.83203125" xlink:href="#BitstreamVeraSans-Roman-6f"/>
      <use x="689.013671875" xlink:href="#BitstreamVeraSans-Roman-75"/>
      <use x="752.392578125" xlink:href="#BitstreamVeraSans-Roman-72"/>
      <use x="793.505859375" xlink:href="#BitstreamVeraSans-Roman-20"/>
      <use x="825.29296875" xlink:href="#BitstreamVeraSans-Roman-5b"/>
      <use x="864.306640625" xlink:href="#BitstreamVeraSans-Roman-23"/>
      <use x="948.095703125" xlink:href="#BitstreamVeraSans-Roman-5d"/>
     </g>
    </g>
   </g>
   <g id="matplotlib.axis_4">
    <g id="ytick_8">
     <g id="line2d_72">
      <path clip-path="url(#p91b750a4fd)" d="M 503.2125 381.24 
L 842.715 381.24 
" style="fill:none;stroke:#dddddd;stroke-linecap:square;stroke-width:0.5;"/>
     </g>
     <g id="line2d_73">
      <g>
       <use style="stroke:#000000;stroke-width:0.5;" x="503.2125" xlink:href="#mf4aaf44279" y="381.24"/>
      </g>
     </g>
     <g id="line2d_74">
      <g>
       <use style="stroke:#000000;stroke-width:0.5;" x="842.715" xlink:href="#m63a08f2bbf" y="381.24"/>
      </g>
     </g>
     <g id="text_25">
      <!-- 0.4 -->
      <g transform="translate(478.5384375 384.8271875)scale(0.13 -0.13)">
       <use xlink:href="#BitstreamVeraSans-Roman-30"/>
       <use x="63.623046875" xlink:href="#BitstreamVeraSans-Roman-2e"/>
       <use x="95.41015625" xlink:href="#BitstreamVeraSans-Roman-34"/>
      </g>
     </g>
    </g>
    <g id="ytick_9">
     <g id="line2d_75">
      <path clip-path="url(#p91b750a4fd)" d="M 503.2125 320.91 
L 842.715 320.91 
" style="fill:none;stroke:#dddddd;stroke-linecap:square;stroke-width:0.5;"/>
     </g>
     <g id="line2d_76">
      <g>
       <use style="stroke:#000000;stroke-width:0.5;" x="503.2125" xlink:href="#mf4aaf44279" y="320.91"/>
      </g>
     </g>
     <g id="line2d_77">
      <g>
       <use style="stroke:#000000;stroke-width:0.5;" x="842.715" xlink:href="#m63a08f2bbf" y="320.91"/>
      </g>
     </g>
     <g id="text_26">
      <!-- 0.6 -->
      <g transform="translate(478.5384375 324.4971875)scale(0.13 -0.13)">
       <use xlink:href="#BitstreamVeraSans-Roman-30"/>
       <use x="63.623046875" xlink:href="#BitstreamVeraSans-Roman-2e"/>
       <use x="95.41015625" xlink:href="#BitstreamVeraSans-Roman-36"/>
      </g>
     </g>
    </g>
    <g id="ytick_10">
     <g id="line2d_78">
      <path clip-path="url(#p91b750a4fd)" d="M 503.2125 260.58 
L 842.715 260.58 
" style="fill:none;stroke:#dddddd;stroke-linecap:square;stroke-width:0.5;"/>
     </g>
     <g id="line2d_79">
      <g>
       <use style="stroke:#000000;stroke-width:0.5;" x="503.2125" xlink:href="#mf4aaf44279" y="260.58"/>
      </g>
     </g>
     <g id="line2d_80">
      <g>
       <use style="stroke:#000000;stroke-width:0.5;" x="842.715" xlink:href="#m63a08f2bbf" y="260.58"/>
      </g>
     </g>
     <g id="text_27">
      <!-- 0.8 -->
      <g transform="translate(478.5384375 264.1671875)scale(0.13 -0.13)">
       <use xlink:href="#BitstreamVeraSans-Roman-30"/>
       <use x="63.623046875" xlink:href="#BitstreamVeraSans-Roman-2e"/>
       <use x="95.41015625" xlink:href="#BitstreamVeraSans-Roman-38"/>
      </g>
     </g>
    </g>
    <g id="ytick_11">
     <g id="line2d_81">
      <path clip-path="url(#p91b750a4fd)" d="M 503.2125 200.25 
L 842.715 200.25 
" style="fill:none;stroke:#dddddd;stroke-linecap:square;stroke-width:0.5;"/>
     </g>
     <g id="line2d_82">
      <g>
       <use style="stroke:#000000;stroke-width:0.5;" x="503.2125" xlink:href="#mf4aaf44279" y="200.25"/>
      </g>
     </g>
     <g id="line2d_83">
      <g>
       <use style="stroke:#000000;stroke-width:0.5;" x="842.715" xlink:href="#m63a08f2bbf" y="200.25"/>
      </g>
     </g>
     <g id="text_28">
      <!-- 1.0 -->
      <g transform="translate(478.5384375 203.8371875)scale(0.13 -0.13)">
       <use xlink:href="#BitstreamVeraSans-Roman-31"/>
       <use x="63.623046875" xlink:href="#BitstreamVeraSans-Roman-2e"/>
       <use x="95.41015625" xlink:href="#BitstreamVeraSans-Roman-30"/>
      </g>
     </g>
    </g>
    <g id="ytick_12">
     <g id="line2d_84">
      <path clip-path="url(#p91b750a4fd)" d="M 503.2125 139.92 
L 842.715 139.92 
" style="fill:none;stroke:#dddddd;stroke-linecap:square;stroke-width:0.5;"/>
     </g>
     <g id="line2d_85">
      <g>
       <use style="stroke:#000000;stroke-width:0.5;" x="503.2125" xlink:href="#mf4aaf44279" y="139.92"/>
      </g>
     </g>
     <g id="line2d_86">
      <g>
       <use style="stroke:#000000;stroke-width:0.5;" x="842.715" xlink:href="#m63a08f2bbf" y="139.92"/>
      </g>
     </g>
     <g id="text_29">
      <!-- 1.2 -->
      <g transform="translate(478.5384375 143.5071875)scale(0.13 -0.13)">
       <use xlink:href="#BitstreamVeraSans-Roman-31"/>
       <use x="63.623046875" xlink:href="#BitstreamVeraSans-Roman-2e"/>
       <use x="95.41015625" xlink:href="#BitstreamVeraSans-Roman-32"/>
      </g>
     </g>
    </g>
    <g id="ytick_13">
     <g id="line2d_87">
      <path clip-path="url(#p91b750a4fd)" d="M 503.2125 79.59 
L 842.715 79.59 
" style="fill:none;stroke:#dddddd;stroke-linecap:square;stroke-width:0.5;"/>
     </g>
     <g id="line2d_88">
      <g>
       <use style="stroke:#000000;stroke-width:0.5;" x="503.2125" xlink:href="#mf4aaf44279" y="79.59"/>
      </g>
     </g>
     <g id="line2d_89">
      <g>
       <use style="stroke:#000000;stroke-width:0.5;" x="842.715" xlink:href="#m63a08f2bbf" y="79.59"/>
      </g>
     </g>
     <g id="text_30">
      <!-- 1.4 -->
      <g transform="translate(478.5384375 83.1771875)scale(0.13 -0.13)">
       <use xlink:href="#BitstreamVeraSans-Roman-31"/>
       <use x="63.623046875" xlink:href="#BitstreamVeraSans-Roman-2e"/>
       <use x="95.41015625" xlink:href="#BitstreamVeraSans-Roman-34"/>
      </g>
     </g>
    </g>
    <g id="ytick_14">
     <g id="line2d_90">
      <path clip-path="url(#p91b750a4fd)" d="M 503.2125 19.26 
L 842.715 19.26 
" style="fill:none;stroke:#dddddd;stroke-linecap:square;stroke-width:0.5;"/>
     </g>
     <g id="line2d_91">
      <g>
       <use style="stroke:#000000;stroke-width:0.5;" x="503.2125" xlink:href="#mf4aaf44279" y="19.26"/>
      </g>
     </g>
     <g id="line2d_92">
      <g>
       <use style="stroke:#000000;stroke-width:0.5;" x="842.715" xlink:href="#m63a08f2bbf" y="19.26"/>
      </g>
     </g>
     <g id="text_31">
      <!-- 1.6 -->
      <g transform="translate(478.5384375 22.8471875)scale(0.13 -0.13)">
       <use xlink:href="#BitstreamVeraSans-Roman-31"/>
       <use x="63.623046875" xlink:href="#BitstreamVeraSans-Roman-2e"/>
       <use x="95.41015625" xlink:href="#BitstreamVeraSans-Roman-36"/>
      </g>
     </g>
    </g>
    <g id="text_32">
     <!-- Big clouds -->
     <defs>
      <path d="M 45.40625 27.984375 
Q 45.40625 37.75 41.375 43.109375 
Q 37.359375 48.484375 30.078125 48.484375 
Q 22.859375 48.484375 18.828125 43.109375 
Q 14.796875 37.75 14.796875 27.984375 
Q 14.796875 18.265625 18.828125 12.890625 
Q 22.859375 7.515625 30.078125 7.515625 
Q 37.359375 7.515625 41.375 12.890625 
Q 45.40625 18.265625 45.40625 27.984375 
M 54.390625 6.78125 
Q 54.390625 -7.171875 48.1875 -13.984375 
Q 42 -20.796875 29.203125 -20.796875 
Q 24.46875 -20.796875 20.265625 -20.09375 
Q 16.0625 -19.390625 12.109375 -17.921875 
L 12.109375 -9.1875 
Q 16.0625 -11.328125 19.921875 -12.34375 
Q 23.78125 -13.375 27.78125 -13.375 
Q 36.625 -13.375 41.015625 -8.765625 
Q 45.40625 -4.15625 45.40625 5.171875 
L 45.40625 9.625 
Q 42.625 4.78125 38.28125 2.390625 
Q 33.9375 0 27.875 0 
Q 17.828125 0 11.671875 7.65625 
Q 5.515625 15.328125 5.515625 27.984375 
Q 5.515625 40.671875 11.671875 48.328125 
Q 17.828125 56 27.875 56 
Q 33.9375 56 38.28125 53.609375 
Q 42.625 51.21875 45.40625 46.390625 
L 45.40625 54.6875 
L 54.390625 54.6875 
z
" id="BitstreamVeraSans-Roman-67"/>
      <path d="M 19.671875 34.8125 
L 19.671875 8.109375 
L 35.5 8.109375 
Q 43.453125 8.109375 47.28125 11.40625 
Q 51.125 14.703125 51.125 21.484375 
Q 51.125 28.328125 47.28125 31.5625 
Q 43.453125 34.8125 35.5 34.8125 
z
M 19.671875 64.796875 
L 19.671875 42.828125 
L 34.28125 42.828125 
Q 41.5 42.828125 45.03125 45.53125 
Q 48.578125 48.25 48.578125 53.8125 
Q 48.578125 59.328125 45.03125 62.0625 
Q 41.5 64.796875 34.28125 64.796875 
z
M 9.8125 72.90625 
L 35.015625 72.90625 
Q 46.296875 72.90625 52.390625 68.21875 
Q 58.5 63.53125 58.5 54.890625 
Q 58.5 48.1875 55.375 44.234375 
Q 52.25 40.28125 46.1875 39.3125 
Q 53.46875 37.75 57.5 32.78125 
Q 61.53125 27.828125 61.53125 20.40625 
Q 61.53125 10.640625 54.890625 5.3125 
Q 48.25 0 35.984375 0 
L 9.8125 0 
z
" id="BitstreamVeraSans-Roman-42"/>
     </defs>
     <g transform="translate(453.6221875 238.8421875)rotate(-90.0)scale(0.15 -0.15)">
      <use xlink:href="#BitstreamVeraSans-Roman-42"/>
      <use x="68.603515625" xlink:href="#BitstreamVeraSans-Roman-69"/>
      <use x="96.38671875" xlink:href="#BitstreamVeraSans-Roman-67"/>
      <use x="159.86328125" xlink:href="#BitstreamVeraSans-Roman-20"/>
      <use x="191.650390625" xlink:href="#BitstreamVeraSans-Roman-63"/>
      <use x="246.630859375" xlink:href="#BitstreamVeraSans-Roman-6c"/>
      <use x="274.4140625" xlink:href="#BitstreamVeraSans-Roman-6f"/>
      <use x="335.595703125" xlink:href="#BitstreamVeraSans-Roman-75"/>
      <use x="398.974609375" xlink:href="#BitstreamVeraSans-Roman-64"/>
      <use x="462.451171875" xlink:href="#BitstreamVeraSans-Roman-73"/>
     </g>
     <!-- mean base and top -->
     <g transform="translate(470.41890625 272.95078125)rotate(-90.0)scale(0.15 -0.15)">
      <use xlink:href="#BitstreamVeraSans-Roman-6d"/>
      <use x="97.412109375" xlink:href="#BitstreamVeraSans-Roman-65"/>
      <use x="158.935546875" xlink:href="#BitstreamVeraSans-Roman-61"/>
      <use x="220.21484375" xlink:href="#BitstreamVeraSans-Roman-6e"/>
      <use x="283.59375" xlink:href="#BitstreamVeraSans-Roman-20"/>
      <use x="315.380859375" xlink:href="#BitstreamVeraSans-Roman-62"/>
      <use x="378.857421875" xlink:href="#BitstreamVeraSans-Roman-61"/>
      <use x="440.13671875" xlink:href="#BitstreamVeraSans-Roman-73"/>
      <use x="492.236328125" xlink:href="#BitstreamVeraSans-Roman-65"/>
      <use x="553.759765625" xlink:href="#BitstreamVeraSans-Roman-20"/>
      <use x="585.546875" xlink:href="#BitstreamVeraSans-Roman-61"/>
      <use x="646.826171875" xlink:href="#BitstreamVeraSans-Roman-6e"/>
      <use x="710.205078125" xlink:href="#BitstreamVeraSans-Roman-64"/>
      <use x="773.681640625" xlink:href="#BitstreamVeraSans-Roman-20"/>
      <use x="805.46875" xlink:href="#BitstreamVeraSans-Roman-74"/>
      <use x="844.677734375" xlink:href="#BitstreamVeraSans-Roman-6f"/>
      <use x="905.859375" xlink:href="#BitstreamVeraSans-Roman-70"/>
     </g>
    </g>
   </g>
   <g id="PolyCollection_5">
    <defs>
     <path d="M 531.504375 -232.827321 
L 531.504375 -100.316786 
L 559.79625 -108.935357 
L 588.088125 -113.917969 
L 616.38 -127.200852 
L 644.671875 -135.127734 
L 672.96375 -131.357109 
L 701.255625 -115.803281 
L 729.5475 -155.206312 
L 757.839375 -148.79625 
L 786.13125 -143.948304 
L 814.423125 -139.514712 
L 842.715 -159.030804 
L 842.715 -336.250179 
L 842.715 -336.250179 
L 814.423125 -342.548365 
L 786.13125 -341.098125 
L 757.839375 -295.671071 
L 729.5475 -276.243375 
L 701.255625 -275.112188 
L 672.96375 -280.296797 
L 644.671875 -315.646406 
L 616.38 -309.219205 
L 588.088125 -288.309375 
L 559.79625 -261.196786 
L 531.504375 -232.827321 
z
" id="ma5904e2983" style="stroke:#4077aa;stroke-opacity:0.33;"/>
    </defs>
    <g clip-path="url(#p91b750a4fd)">
     <use style="fill:#4077aa;fill-opacity:0.33;stroke:#4077aa;stroke-opacity:0.33;" x="0.0" xlink:href="#ma5904e2983" y="432.0"/>
    </g>
   </g>
   <g id="PolyCollection_6">
    <defs>
     <path d="M 531.504375 -317.552667 
L 531.504375 -92.320667 
L 559.79625 -107.068 
L 588.088125 -108.0735 
L 616.38 -111.09 
L 644.671875 -112.813714 
L 672.96375 -121.145 
L 701.255625 -123.156 
L 729.5475 -133.211 
L 757.839375 -129.189 
L 786.13125 -129.189 
L 814.423125 -137.6352 
L 842.715 -151.928769 
L 842.715 -237.318923 
L 842.715 -237.318923 
L 814.423125 -345.1704 
L 786.13125 -328.278 
L 757.839375 -310.179 
L 729.5475 -263.926 
L 701.255625 -323.4516 
L 672.96375 -213.651 
L 644.671875 -262.776857 
L 616.38 -367.4925 
L 588.088125 -219.684 
L 559.79625 -296.102 
L 531.504375 -317.552667 
z
" id="m6e2cf52a73" style="stroke:#117733;stroke-opacity:0.33;"/>
    </defs>
    <g clip-path="url(#p91b750a4fd)">
     <use style="fill:#117733;fill-opacity:0.33;stroke:#117733;stroke-opacity:0.33;" x="0.0" xlink:href="#m6e2cf52a73" y="432.0"/>
    </g>
   </g>
   <g id="PolyCollection_7">
    <defs>
     <path d="M 531.504375 -268.533728 
L 531.504375 -92.815282 
L 559.79625 -96.145872 
L 588.088125 -106.797288 
L 616.38 -106.02228 
L 644.671875 -116.1175 
L 672.96375 -120.413727 
L 701.255625 -125.5692 
L 729.5475 -126.603429 
L 757.839375 -134.495133 
L 786.13125 -135.571739 
L 814.423125 -140.706545 
L 842.715 -137.536027 
L 842.715 -326.955699 
L 842.715 -326.955699 
L 814.423125 -316.623341 
L 786.13125 -355.207913 
L 757.839375 -296.441205 
L 729.5475 -288.058 
L 701.255625 -322.032071 
L 672.96375 -306.888273 
L 644.671875 -274.3832 
L 616.38 -295.33782 
L 588.088125 -283.958654 
L 559.79625 -285.880954 
L 531.504375 -268.533728 
z
" id="m370e843f2f" style="stroke:#ddcc77;stroke-opacity:0.33;"/>
    </defs>
    <g clip-path="url(#p91b750a4fd)">
     <use style="fill:#ddcc77;fill-opacity:0.33;stroke:#ddcc77;stroke-opacity:0.33;" x="0.0" xlink:href="#m370e843f2f" y="432.0"/>
    </g>
   </g>
   <g id="PolyCollection_8">
    <defs>
     <path d="M 531.504375 -244.069864 
L 531.504375 -104.818069 
L 559.79625 -115.150673 
L 588.088125 -119.888125 
L 616.38 -118.63125 
L 644.671875 -132.287027 
L 672.96375 -140.500875 
L 701.255625 -136.153566 
L 729.5475 -135.051714 
L 757.839375 -139.531286 
L 786.13125 -149.256082 
L 814.423125 -153.741332 
L 842.715 -164.528858 
L 842.715 -330.956444 
L 842.715 -330.956444 
L 814.423125 -329.78625 
L 786.13125 -301.276646 
L 757.839375 -303.391875 
L 729.5475 -291.836734 
L 701.255625 -314.038346 
L 672.96375 -311.256321 
L 644.671875 -296.563986 
L 616.38 -267.060794 
L 588.088125 -267.750491 
L 559.79625 -251.255733 
L 531.504375 -244.069864 
z
" id="me757e139b2" style="stroke:#cc6677;stroke-opacity:0.33;"/>
    </defs>
    <g clip-path="url(#p91b750a4fd)">
     <use style="fill:#cc6677;fill-opacity:0.33;stroke:#cc6677;stroke-opacity:0.33;" x="0.0" xlink:href="#me757e139b2" y="432.0"/>
    </g>
   </g>
   <g id="line2d_93">
    <path clip-path="url(#p91b750a4fd)" d="M 531.504375 331.683214 
L 559.79625 323.064643 
L 588.088125 318.082031 
L 616.38 304.799148 
L 644.671875 296.872266 
L 672.96375 300.642891 
L 701.255625 316.196719 
L 729.5475 276.793688 
L 757.839375 283.20375 
L 786.13125 288.051696 
L 814.423125 292.485288 
L 842.715 272.969196 
" style="fill:none;stroke:#4077aa;stroke-linecap:square;stroke-width:2.0;"/>
   </g>
   <g id="line2d_94">
    <path clip-path="url(#p91b750a4fd)" d="M 531.504375 199.172679 
L 559.79625 170.803214 
L 588.088125 143.690625 
L 616.38 122.780795 
L 644.671875 116.353594 
L 672.96375 151.703203 
L 701.255625 156.887812 
L 729.5475 155.756625 
L 757.839375 136.328929 
L 786.13125 90.901875 
L 814.423125 89.451635 
L 842.715 95.749821 
" style="fill:none;stroke:#4077aa;stroke-linecap:square;stroke-width:2.0;"/>
   </g>
   <g id="line2d_95">
    <path clip-path="url(#p91b750a4fd)" d="M 531.504375 339.679333 
L 559.79625 324.932 
L 588.088125 323.9265 
L 616.38 320.91 
L 644.671875 319.186286 
L 672.96375 310.855 
L 701.255625 308.844 
L 729.5475 298.789 
L 757.839375 302.811 
L 786.13125 302.811 
L 814.423125 294.3648 
L 842.715 280.071231 
" style="fill:none;stroke:#117733;stroke-linecap:square;stroke-width:2.0;"/>
   </g>
   <g id="line2d_96">
    <path clip-path="url(#p91b750a4fd)" d="M 531.504375 114.447333 
L 559.79625 135.898 
L 588.088125 212.316 
L 616.38 64.5075 
L 644.671875 169.223143 
L 672.96375 218.349 
L 701.255625 108.5484 
L 729.5475 168.074 
L 757.839375 121.821 
L 786.13125 103.722 
L 814.423125 86.8296 
L 842.715 194.681077 
" style="fill:none;stroke:#117733;stroke-linecap:square;stroke-width:2.0;"/>
   </g>
   <g id="line2d_97">
    <path clip-path="url(#p91b750a4fd)" d="M 531.504375 339.184718 
L 559.79625 335.854128 
L 588.088125 325.202712 
L 616.38 325.97772 
L 644.671875 315.8825 
L 672.96375 311.586273 
L 701.255625 306.4308 
L 729.5475 305.396571 
L 757.839375 297.504867 
L 786.13125 296.428261 
L 814.423125 291.293455 
L 842.715 294.463973 
" style="fill:none;stroke:#ddcc77;stroke-linecap:square;stroke-width:2.0;"/>
   </g>
   <g id="line2d_98">
    <path clip-path="url(#p91b750a4fd)" d="M 531.504375 163.466272 
L 559.79625 146.119046 
L 588.088125 148.041346 
L 616.38 136.66218 
L 644.671875 157.6168 
L 672.96375 125.111727 
L 701.255625 109.967929 
L 729.5475 143.942 
L 757.839375 135.558795 
L 786.13125 76.792087 
L 814.423125 115.376659 
L 842.715 105.044301 
" style="fill:none;stroke:#ddcc77;stroke-linecap:square;stroke-width:2.0;"/>
   </g>
   <g id="line2d_99">
    <path clip-path="url(#p91b750a4fd)" d="M 531.504375 327.181931 
L 559.79625 316.849327 
L 588.088125 312.111875 
L 616.38 313.36875 
L 644.671875 299.712973 
L 672.96375 291.499125 
L 701.255625 295.846434 
L 729.5475 296.948286 
L 757.839375 292.468714 
L 786.13125 282.743918 
L 814.423125 278.258668 
L 842.715 267.471142 
" style="fill:none;stroke:#cc6677;stroke-linecap:square;stroke-width:2.0;"/>
   </g>
   <g id="line2d_100">
    <path clip-path="url(#p91b750a4fd)" d="M 531.504375 187.930136 
L 559.79625 180.744267 
L 588.088125 164.249509 
L 616.38 164.939206 
L 644.671875 135.436014 
L 672.96375 120.743679 
L 701.255625 117.961654 
L 729.5475 140.163266 
L 757.839375 128.608125 
L 786.13125 130.723354 
L 814.423125 102.21375 
L 842.715 101.043556 
" style="fill:none;stroke:#cc6677;stroke-linecap:square;stroke-width:2.0;"/>
   </g>
   <g id="patch_6">
    <path d="M 503.2125 381.24 
L 842.715 381.24 
" style="fill:none;stroke:#8c8c8c;stroke-linecap:square;stroke-linejoin:miter;"/>
   </g>
   <g id="patch_7">
    <path d="M 503.2125 381.24 
L 503.2125 19.26 
" style="fill:none;stroke:#8c8c8c;stroke-linecap:square;stroke-linejoin:miter;"/>
   </g>
   <g id="legend_1">
    <g id="patch_8">
     <path d="M 618.567656 295.46625 
L 727.359844 295.46625 
L 727.359844 26.76 
L 618.567656 26.76 
z
" style="fill:#ffffff;stroke:#8c8c8c;stroke-linejoin:miter;"/>
    </g>
    <g id="line2d_101">
     <path d="M 629.067656 38.907656 
L 650.067656 38.907656 
" style="fill:none;stroke:#4077aa;stroke-linecap:square;stroke-width:2.0;"/>
    </g>
    <g id="line2d_102"/>
    <g id="text_33">
     <!-- VMFTH -->
     <defs>
      <path d="M 9.8125 72.90625 
L 51.703125 72.90625 
L 51.703125 64.59375 
L 19.671875 64.59375 
L 19.671875 43.109375 
L 48.578125 43.109375 
L 48.578125 34.8125 
L 19.671875 34.8125 
L 19.671875 0 
L 9.8125 0 
z
" id="BitstreamVeraSans-Roman-46"/>
      <path d="M 9.8125 72.90625 
L 24.515625 72.90625 
L 43.109375 23.296875 
L 61.8125 72.90625 
L 76.515625 72.90625 
L 76.515625 0 
L 66.890625 0 
L 66.890625 64.015625 
L 48.09375 14.015625 
L 38.1875 14.015625 
L 19.390625 64.015625 
L 19.390625 0 
L 9.8125 0 
z
" id="BitstreamVeraSans-Roman-4d"/>
      <path d="M -0.296875 72.90625 
L 61.375 72.90625 
L 61.375 64.59375 
L 35.5 64.59375 
L 35.5 0 
L 25.59375 0 
L 25.59375 64.59375 
L -0.296875 64.59375 
z
" id="BitstreamVeraSans-Roman-54"/>
      <path d="M 28.609375 0 
L 0.78125 72.90625 
L 11.078125 72.90625 
L 34.1875 11.53125 
L 57.328125 72.90625 
L 67.578125 72.90625 
L 39.796875 0 
z
" id="BitstreamVeraSans-Roman-56"/>
      <path d="M 9.8125 72.90625 
L 19.671875 72.90625 
L 19.671875 43.015625 
L 55.515625 43.015625 
L 55.515625 72.90625 
L 65.375 72.90625 
L 65.375 0 
L 55.515625 0 
L 55.515625 34.71875 
L 19.671875 34.71875 
L 19.671875 0 
L 9.8125 0 
z
" id="BitstreamVeraSans-Roman-48"/>
     </defs>
     <g transform="translate(666.56765625 44.15765625)scale(0.15 -0.15)">
      <use xlink:href="#BitstreamVeraSans-Roman-56"/>
      <use x="68.408203125" xlink:href="#BitstreamVeraSans-Roman-4d"/>
      <use x="154.6875" xlink:href="#BitstreamVeraSans-Roman-46"/>
      <use x="212.19140625" xlink:href="#BitstreamVeraSans-Roman-54"/>
      <use x="273.275390625" xlink:href="#BitstreamVeraSans-Roman-48"/>
     </g>
    </g>
    <g id="line2d_103">
     <path d="M 629.067656 60.924844 
L 650.067656 60.924844 
" style="fill:none;stroke:#4077aa;stroke-linecap:square;stroke-width:2.0;"/>
    </g>
    <g id="line2d_104"/>
    <g id="text_34">
     <!-- VMFTH -->
     <g transform="translate(666.56765625 66.17484375)scale(0.15 -0.15)">
      <use xlink:href="#BitstreamVeraSans-Roman-56"/>
      <use x="68.408203125" xlink:href="#BitstreamVeraSans-Roman-4d"/>
      <use x="154.6875" xlink:href="#BitstreamVeraSans-Roman-46"/>
      <use x="212.19140625" xlink:href="#BitstreamVeraSans-Roman-54"/>
      <use x="273.275390625" xlink:href="#BitstreamVeraSans-Roman-48"/>
     </g>
    </g>
    <g id="line2d_105">
     <path d="M 629.067656 82.942031 
L 650.067656 82.942031 
" style="fill:none;stroke:#117733;stroke-linecap:square;stroke-width:2.0;"/>
    </g>
    <g id="line2d_106"/>
    <g id="text_35">
     <!-- D100m -->
     <defs>
      <path d="M 19.671875 64.796875 
L 19.671875 8.109375 
L 31.59375 8.109375 
Q 46.6875 8.109375 53.6875 14.9375 
Q 60.6875 21.78125 60.6875 36.53125 
Q 60.6875 51.171875 53.6875 57.984375 
Q 46.6875 64.796875 31.59375 64.796875 
z
M 9.8125 72.90625 
L 30.078125 72.90625 
Q 51.265625 72.90625 61.171875 64.09375 
Q 71.09375 55.28125 71.09375 36.53125 
Q 71.09375 17.671875 61.125 8.828125 
Q 51.171875 0 30.078125 0 
L 9.8125 0 
z
" id="BitstreamVeraSans-Roman-44"/>
     </defs>
     <g transform="translate(666.56765625 88.19203125)scale(0.15 -0.15)">
      <use xlink:href="#BitstreamVeraSans-Roman-44"/>
      <use x="77.001953125" xlink:href="#BitstreamVeraSans-Roman-31"/>
      <use x="140.625" xlink:href="#BitstreamVeraSans-Roman-30"/>
      <use x="204.248046875" xlink:href="#BitstreamVeraSans-Roman-30"/>
      <use x="267.87109375" xlink:href="#BitstreamVeraSans-Roman-6d"/>
     </g>
    </g>
    <g id="line2d_107">
     <path d="M 629.067656 104.959219 
L 650.067656 104.959219 
" style="fill:none;stroke:#117733;stroke-linecap:square;stroke-width:2.0;"/>
    </g>
    <g id="line2d_108"/>
    <g id="text_36">
     <!-- D100m -->
     <g transform="translate(666.56765625 110.20921875)scale(0.15 -0.15)">
      <use xlink:href="#BitstreamVeraSans-Roman-44"/>
      <use x="77.001953125" xlink:href="#BitstreamVeraSans-Roman-31"/>
      <use x="140.625" xlink:href="#BitstreamVeraSans-Roman-30"/>
      <use x="204.248046875" xlink:href="#BitstreamVeraSans-Roman-30"/>
      <use x="267.87109375" xlink:href="#BitstreamVeraSans-Roman-6d"/>
     </g>
    </g>
    <g id="line2d_109">
     <path d="M 629.067656 126.976406 
L 650.067656 126.976406 
" style="fill:none;stroke:#ddcc77;stroke-linecap:square;stroke-width:2.0;"/>
    </g>
    <g id="line2d_110"/>
    <g id="text_37">
     <!-- L25km -->
     <defs>
      <path d="M 9.8125 72.90625 
L 19.671875 72.90625 
L 19.671875 8.296875 
L 55.171875 8.296875 
L 55.171875 0 
L 9.8125 0 
z
" id="BitstreamVeraSans-Roman-4c"/>
      <path d="M 9.078125 75.984375 
L 18.109375 75.984375 
L 18.109375 31.109375 
L 44.921875 54.6875 
L 56.390625 54.6875 
L 27.390625 29.109375 
L 57.625 0 
L 45.90625 0 
L 18.109375 26.703125 
L 18.109375 0 
L 9.078125 0 
z
" id="BitstreamVeraSans-Roman-6b"/>
     </defs>
     <g transform="translate(666.56765625 132.22640625)scale(0.15 -0.15)">
      <use xlink:href="#BitstreamVeraSans-Roman-4c"/>
      <use x="55.712890625" xlink:href="#BitstreamVeraSans-Roman-32"/>
      <use x="119.3359375" xlink:href="#BitstreamVeraSans-Roman-35"/>
      <use x="182.958984375" xlink:href="#BitstreamVeraSans-Roman-6b"/>
      <use x="240.869140625" xlink:href="#BitstreamVeraSans-Roman-6d"/>
     </g>
    </g>
    <g id="line2d_111">
     <path d="M 629.067656 148.993594 
L 650.067656 148.993594 
" style="fill:none;stroke:#ddcc77;stroke-linecap:square;stroke-width:2.0;"/>
    </g>
    <g id="line2d_112"/>
    <g id="text_38">
     <!-- L25km -->
     <g transform="translate(666.56765625 154.24359375)scale(0.15 -0.15)">
      <use xlink:href="#BitstreamVeraSans-Roman-4c"/>
      <use x="55.712890625" xlink:href="#BitstreamVeraSans-Roman-32"/>
      <use x="119.3359375" xlink:href="#BitstreamVeraSans-Roman-35"/>
      <use x="182.958984375" xlink:href="#BitstreamVeraSans-Roman-6b"/>
      <use x="240.869140625" xlink:href="#BitstreamVeraSans-Roman-6d"/>
     </g>
    </g>
    <g id="line2d_113">
     <path d="M 629.067656 171.010781 
L 650.067656 171.010781 
" style="fill:none;stroke:#cc6677;stroke-linecap:square;stroke-width:2.0;"/>
    </g>
    <g id="line2d_114"/>
    <g id="text_39">
     <!-- L12km -->
     <g transform="translate(666.56765625 176.26078125)scale(0.15 -0.15)">
      <use xlink:href="#BitstreamVeraSans-Roman-4c"/>
      <use x="55.712890625" xlink:href="#BitstreamVeraSans-Roman-31"/>
      <use x="119.3359375" xlink:href="#BitstreamVeraSans-Roman-32"/>
      <use x="182.958984375" xlink:href="#BitstreamVeraSans-Roman-6b"/>
      <use x="240.869140625" xlink:href="#BitstreamVeraSans-Roman-6d"/>
     </g>
    </g>
    <g id="line2d_115">
     <path d="M 629.067656 193.027969 
L 650.067656 193.027969 
" style="fill:none;stroke:#cc6677;stroke-linecap:square;stroke-width:2.0;"/>
    </g>
    <g id="line2d_116"/>
    <g id="text_40">
     <!-- L12km -->
     <g transform="translate(666.56765625 198.27796875)scale(0.15 -0.15)">
      <use xlink:href="#BitstreamVeraSans-Roman-4c"/>
      <use x="55.712890625" xlink:href="#BitstreamVeraSans-Roman-31"/>
      <use x="119.3359375" xlink:href="#BitstreamVeraSans-Roman-32"/>
      <use x="182.958984375" xlink:href="#BitstreamVeraSans-Roman-6b"/>
      <use x="240.869140625" xlink:href="#BitstreamVeraSans-Roman-6d"/>
     </g>
    </g>
    <g id="patch_9">
     <path d="M 624.567656 220.295156 
L 654.567656 220.295156 
L 654.567656 209.795156 
L 624.567656 209.795156 
z
" style="fill:#4077aa;opacity:0.33;stroke:#4077aa;stroke-linejoin:miter;"/>
    </g>
    <g id="text_41">
     <!-- VMFTH -->
     <g transform="translate(666.56765625 220.29515625)scale(0.15 -0.15)">
      <use xlink:href="#BitstreamVeraSans-Roman-56"/>
      <use x="68.408203125" xlink:href="#BitstreamVeraSans-Roman-4d"/>
      <use x="154.6875" xlink:href="#BitstreamVeraSans-Roman-46"/>
      <use x="212.19140625" xlink:href="#BitstreamVeraSans-Roman-54"/>
      <use x="273.275390625" xlink:href="#BitstreamVeraSans-Roman-48"/>
     </g>
    </g>
    <g id="patch_10">
     <path d="M 624.567656 242.312344 
L 654.567656 242.312344 
L 654.567656 231.812344 
L 624.567656 231.812344 
z
" style="fill:#117733;opacity:0.33;stroke:#117733;stroke-linejoin:miter;"/>
    </g>
    <g id="text_42">
     <!-- D100m -->
     <g transform="translate(666.56765625 242.31234375)scale(0.15 -0.15)">
      <use xlink:href="#BitstreamVeraSans-Roman-44"/>
      <use x="77.001953125" xlink:href="#BitstreamVeraSans-Roman-31"/>
      <use x="140.625" xlink:href="#BitstreamVeraSans-Roman-30"/>
      <use x="204.248046875" xlink:href="#BitstreamVeraSans-Roman-30"/>
      <use x="267.87109375" xlink:href="#BitstreamVeraSans-Roman-6d"/>
     </g>
    </g>
    <g id="patch_11">
     <path d="M 624.567656 264.329531 
L 654.567656 264.329531 
L 654.567656 253.829531 
L 624.567656 253.829531 
z
" style="fill:#ddcc77;opacity:0.33;stroke:#ddcc77;stroke-linejoin:miter;"/>
    </g>
    <g id="text_43">
     <!-- L25km -->
     <g transform="translate(666.56765625 264.32953125)scale(0.15 -0.15)">
      <use xlink:href="#BitstreamVeraSans-Roman-4c"/>
      <use x="55.712890625" xlink:href="#BitstreamVeraSans-Roman-32"/>
      <use x="119.3359375" xlink:href="#BitstreamVeraSans-Roman-35"/>
      <use x="182.958984375" xlink:href="#BitstreamVeraSans-Roman-6b"/>
      <use x="240.869140625" xlink:href="#BitstreamVeraSans-Roman-6d"/>
     </g>
    </g>
    <g id="patch_12">
     <path d="M 624.567656 286.346719 
L 654.567656 286.346719 
L 654.567656 275.846719 
L 624.567656 275.846719 
z
" style="fill:#cc6677;opacity:0.33;stroke:#cc6677;stroke-linejoin:miter;"/>
    </g>
    <g id="text_44">
     <!-- L12km -->
     <g transform="translate(666.56765625 286.34671875)scale(0.15 -0.15)">
      <use xlink:href="#BitstreamVeraSans-Roman-4c"/>
      <use x="55.712890625" xlink:href="#BitstreamVeraSans-Roman-31"/>
      <use x="119.3359375" xlink:href="#BitstreamVeraSans-Roman-32"/>
      <use x="182.958984375" xlink:href="#BitstreamVeraSans-Roman-6b"/>
      <use x="240.869140625" xlink:href="#BitstreamVeraSans-Roman-6d"/>
     </g>
    </g>
   </g>
  </g>
 </g>
 <defs>
  <clipPath id="pf532a3c250">
   <rect height="361.98" width="339.5025" x="77.6925" y="19.26"/>
  </clipPath>
  <clipPath id="p91b750a4fd">
   <rect height="361.98" width="339.5025" x="503.2125" y="19.26"/>
  </clipPath>
 </defs>
</svg>
