<?xml version="1.0" encoding="utf-8" standalone="no"?>
<!DOCTYPE svg PUBLIC "-//W3C//DTD SVG 1.1//EN"
  "http://www.w3.org/Graphics/SVG/1.1/DTD/svg11.dtd">
<!-- Created with matplotlib (http://matplotlib.org/) -->
<svg height="432pt" version="1.1" viewBox="0 0 576 432" width="576pt" xmlns="http://www.w3.org/2000/svg" xmlns:xlink="http://www.w3.org/1999/xlink">
 <defs>
  <style type="text/css">
*{stroke-linecap:butt;stroke-linejoin:round;stroke-miterlimit:100000;}
  </style>
 </defs>
 <g id="figure_1">
  <g id="patch_1">
   <path d="M 0 432 
L 576 432 
L 576 0 
L 0 0 
z
" style="fill:#ffffff;"/>
  </g>
  <g id="axes_1">
   <g id="patch_2">
    <path d="M 49.0725 381.778313 
L 178.7925 381.778313 
L 178.7925 28.76 
L 49.0725 28.76 
z
" style="fill:#ffffff;"/>
   </g>
   <g id="line2d_1">
    <path clip-path="url(#p22ce12ed63)" d="M 52.479723 -1 
L 54.172333 111.780741 
L 54.691968 133.784359 
L 55.059243 144.558835 
L 55.609165 155.397378 
L 56.521456 166.118711 
L 57.125419 171.481238 
L 57.904734 176.824878 
L 58.821993 182.185469 
L 59.91917 187.502091 
L 62.501931 198.393592 
L 65.439428 209.218567 
L 70.048809 225.337643 
L 73.343849 236.158881 
L 76.893326 246.937498 
L 80.743689 257.627774 
L 84.8783 268.225426 
L 91.574098 284.16702 
L 96.391436 294.679554 
L 98.878348 299.786494 
L 104.046712 309.664912 
L 109.19972 318.907286 
L 114.128304 327.451777 
L 121.272616 339.199238 
L 129.639418 352.717616 
L 134.076347 359.76335 
L 138.553348 366.464828 
L 143.39004 373.277552 
L 148.917585 380.590198 
L 149.843209 381.778313 
L 149.843209 381.778313 
" style="fill:none;stroke:#ff0000;stroke-dasharray:6.000000,6.000000;stroke-dashoffset:0.0;stroke-width:2.0;"/>
   </g>
   <g id="line2d_2">
    <path clip-path="url(#p22ce12ed63)" d="M 51.698899 -1 
L 51.886227 39.26777 
L 52.082008 100.402946 
L 52.490182 117.374658 
L 53.308557 139.151111 
L 54.201153 155.397378 
L 55.120907 166.118711 
L 55.671654 171.481238 
L 57.101588 182.185469 
L 57.883372 187.502091 
L 58.9148 192.967873 
L 61.346085 203.818957 
L 62.761105 209.218567 
L 65.921033 219.984071 
L 67.590147 225.337643 
L 73.135333 241.564207 
L 77.34027 252.293334 
L 79.49451 257.627774 
L 84.304232 268.225426 
L 89.370655 278.840533 
L 97.579683 294.679554 
L 106.246135 309.664912 
L 109.160841 314.363587 
L 115.400181 323.281783 
L 121.193327 331.419633 
L 132.662136 347.670971 
L 138.820159 354.853252 
L 145.718994 362.572209 
L 147.744918 364.735679 
L 154.019337 370.88642 
L 165.562848 381.778313 
L 165.562848 381.778313 
" style="fill:none;stroke:#000000;stroke-linecap:square;stroke-width:2.0;"/>
   </g>
   <g id="line2d_3">
    <path clip-path="url(#p22ce12ed63)" d="M 51.990029 -1 
L 52.234795 39.26777 
L 52.484436 100.402946 
L 52.932683 117.374658 
L 53.59995 133.784359 
L 54.207621 144.558835 
L 54.991302 155.397378 
L 56.184724 166.118711 
L 56.883363 171.481238 
L 58.718837 182.185469 
L 59.810775 187.502091 
L 62.629986 198.393592 
L 65.734665 209.218567 
L 70.58923 225.337643 
L 75.795486 241.564207 
L 79.690433 252.293334 
L 81.697655 257.627774 
L 88.372405 273.478259 
L 95.693071 289.437006 
L 98.227197 294.679554 
L 100.986139 299.786494 
L 106.637465 309.664912 
L 112.460658 318.907286 
L 120.410072 331.419633 
L 125.222255 339.897312 
L 129.622897 347.670971 
L 134.506319 354.853252 
L 139.030086 361.166226 
L 141.732305 364.735679 
L 148.793976 373.277552 
L 155.843023 381.417854 
L 156.161464 381.778313 
L 156.161464 381.778313 
" style="fill:none;stroke:#ffa500;stroke-linecap:square;stroke-width:2.0;"/>
   </g>
   <g id="patch_3">
    <path d="M 49.0725 28.76 
L 178.7925 28.76 
" style="fill:none;stroke:#000000;stroke-linecap:square;stroke-linejoin:miter;"/>
   </g>
   <g id="patch_4">
    <path d="M 178.7925 381.778313 
L 178.7925 28.76 
" style="fill:none;stroke:#000000;stroke-linecap:square;stroke-linejoin:miter;"/>
   </g>
   <g id="patch_5">
    <path d="M 49.0725 381.778313 
L 178.7925 381.778313 
" style="fill:none;stroke:#000000;stroke-linecap:square;stroke-linejoin:miter;"/>
   </g>
   <g id="patch_6">
    <path d="M 49.0725 381.778313 
L 49.0725 28.76 
" style="fill:none;stroke:#000000;stroke-linecap:square;stroke-linejoin:miter;"/>
   </g>
   <g id="matplotlib.axis_1">
    <g id="xtick_1">
     <g id="line2d_4">
      <path clip-path="url(#p22ce12ed63)" d="M 49.0725 381.778313 
L 49.0725 28.76 
" style="fill:none;stroke:#000000;stroke-dasharray:1.000000,3.000000;stroke-dashoffset:0.0;stroke-width:0.5;"/>
     </g>
     <g id="line2d_5">
      <defs>
       <path d="M 0 0 
L 0 -4 
" id="m86acaacddb" style="stroke:#000000;stroke-width:0.5;"/>
      </defs>
      <g>
       <use style="stroke:#000000;stroke-width:0.5;" x="49.0725" xlink:href="#m86acaacddb" y="381.7783125"/>
      </g>
     </g>
     <g id="line2d_6">
      <defs>
       <path d="M 0 0 
L 0 4 
" id="m4b66ceb6e8" style="stroke:#000000;stroke-width:0.5;"/>
      </defs>
      <g>
       <use style="stroke:#000000;stroke-width:0.5;" x="49.0725" xlink:href="#m4b66ceb6e8" y="28.76"/>
      </g>
     </g>
     <g id="text_1">
      <!-- 0 -->
      <defs>
       <path d="M 31.78125 66.40625 
Q 24.171875 66.40625 20.328125 58.90625 
Q 16.5 51.421875 16.5 36.375 
Q 16.5 21.390625 20.328125 13.890625 
Q 24.171875 6.390625 31.78125 6.390625 
Q 39.453125 6.390625 43.28125 13.890625 
Q 47.125 21.390625 47.125 36.375 
Q 47.125 51.421875 43.28125 58.90625 
Q 39.453125 66.40625 31.78125 66.40625 
M 31.78125 74.21875 
Q 44.046875 74.21875 50.515625 64.515625 
Q 56.984375 54.828125 56.984375 36.375 
Q 56.984375 17.96875 50.515625 8.265625 
Q 44.046875 -1.421875 31.78125 -1.421875 
Q 19.53125 -1.421875 13.0625 8.265625 
Q 6.59375 17.96875 6.59375 36.375 
Q 6.59375 54.828125 13.0625 64.515625 
Q 19.53125 74.21875 31.78125 74.21875 
" id="BitstreamVeraSans-Roman-30"/>
      </defs>
      <g transform="translate(45.255 394.8964375)scale(0.12 -0.12)">
       <use xlink:href="#BitstreamVeraSans-Roman-30"/>
      </g>
     </g>
    </g>
    <g id="xtick_2">
     <g id="line2d_7">
      <path clip-path="url(#p22ce12ed63)" d="M 63.485833 381.778313 
L 63.485833 28.76 
" style="fill:none;stroke:#000000;stroke-dasharray:1.000000,3.000000;stroke-dashoffset:0.0;stroke-width:0.5;"/>
     </g>
     <g id="line2d_8">
      <g>
       <use style="stroke:#000000;stroke-width:0.5;" x="63.4858333333" xlink:href="#m86acaacddb" y="381.7783125"/>
      </g>
     </g>
     <g id="line2d_9">
      <g>
       <use style="stroke:#000000;stroke-width:0.5;" x="63.4858333333" xlink:href="#m4b66ceb6e8" y="28.76"/>
      </g>
     </g>
     <g id="text_2">
      <!-- 50 -->
      <defs>
       <path d="M 10.796875 72.90625 
L 49.515625 72.90625 
L 49.515625 64.59375 
L 19.828125 64.59375 
L 19.828125 46.734375 
Q 21.96875 47.46875 24.109375 47.828125 
Q 26.265625 48.1875 28.421875 48.1875 
Q 40.625 48.1875 47.75 41.5 
Q 54.890625 34.8125 54.890625 23.390625 
Q 54.890625 11.625 47.5625 5.09375 
Q 40.234375 -1.421875 26.90625 -1.421875 
Q 22.3125 -1.421875 17.546875 -0.640625 
Q 12.796875 0.140625 7.71875 1.703125 
L 7.71875 11.625 
Q 12.109375 9.234375 16.796875 8.0625 
Q 21.484375 6.890625 26.703125 6.890625 
Q 35.15625 6.890625 40.078125 11.328125 
Q 45.015625 15.765625 45.015625 23.390625 
Q 45.015625 31 40.078125 35.4375 
Q 35.15625 39.890625 26.703125 39.890625 
Q 22.75 39.890625 18.8125 39.015625 
Q 14.890625 38.140625 10.796875 36.28125 
z
" id="BitstreamVeraSans-Roman-35"/>
      </defs>
      <g transform="translate(55.8508333333 394.8964375)scale(0.12 -0.12)">
       <use xlink:href="#BitstreamVeraSans-Roman-35"/>
       <use x="63.623046875" xlink:href="#BitstreamVeraSans-Roman-30"/>
      </g>
     </g>
    </g>
    <g id="xtick_3">
     <g id="line2d_10">
      <path clip-path="url(#p22ce12ed63)" d="M 77.899167 381.778313 
L 77.899167 28.76 
" style="fill:none;stroke:#000000;stroke-dasharray:1.000000,3.000000;stroke-dashoffset:0.0;stroke-width:0.5;"/>
     </g>
     <g id="line2d_11">
      <g>
       <use style="stroke:#000000;stroke-width:0.5;" x="77.8991666667" xlink:href="#m86acaacddb" y="381.7783125"/>
      </g>
     </g>
     <g id="line2d_12">
      <g>
       <use style="stroke:#000000;stroke-width:0.5;" x="77.8991666667" xlink:href="#m4b66ceb6e8" y="28.76"/>
      </g>
     </g>
     <g id="text_3">
      <!-- 100 -->
      <defs>
       <path d="M 12.40625 8.296875 
L 28.515625 8.296875 
L 28.515625 63.921875 
L 10.984375 60.40625 
L 10.984375 69.390625 
L 28.421875 72.90625 
L 38.28125 72.90625 
L 38.28125 8.296875 
L 54.390625 8.296875 
L 54.390625 0 
L 12.40625 0 
z
" id="BitstreamVeraSans-Roman-31"/>
      </defs>
      <g transform="translate(66.4466666667 394.8964375)scale(0.12 -0.12)">
       <use xlink:href="#BitstreamVeraSans-Roman-31"/>
       <use x="63.623046875" xlink:href="#BitstreamVeraSans-Roman-30"/>
       <use x="127.24609375" xlink:href="#BitstreamVeraSans-Roman-30"/>
      </g>
     </g>
    </g>
    <g id="xtick_4">
     <g id="line2d_13">
      <path clip-path="url(#p22ce12ed63)" d="M 92.3125 381.778313 
L 92.3125 28.76 
" style="fill:none;stroke:#000000;stroke-dasharray:1.000000,3.000000;stroke-dashoffset:0.0;stroke-width:0.5;"/>
     </g>
     <g id="line2d_14">
      <g>
       <use style="stroke:#000000;stroke-width:0.5;" x="92.3125" xlink:href="#m86acaacddb" y="381.7783125"/>
      </g>
     </g>
     <g id="line2d_15">
      <g>
       <use style="stroke:#000000;stroke-width:0.5;" x="92.3125" xlink:href="#m4b66ceb6e8" y="28.76"/>
      </g>
     </g>
     <g id="text_4">
      <!-- 150 -->
      <g transform="translate(80.86 394.8964375)scale(0.12 -0.12)">
       <use xlink:href="#BitstreamVeraSans-Roman-31"/>
       <use x="63.623046875" xlink:href="#BitstreamVeraSans-Roman-35"/>
       <use x="127.24609375" xlink:href="#BitstreamVeraSans-Roman-30"/>
      </g>
     </g>
    </g>
    <g id="xtick_5">
     <g id="line2d_16">
      <path clip-path="url(#p22ce12ed63)" d="M 106.725833 381.778313 
L 106.725833 28.76 
" style="fill:none;stroke:#000000;stroke-dasharray:1.000000,3.000000;stroke-dashoffset:0.0;stroke-width:0.5;"/>
     </g>
     <g id="line2d_17">
      <g>
       <use style="stroke:#000000;stroke-width:0.5;" x="106.725833333" xlink:href="#m86acaacddb" y="381.7783125"/>
      </g>
     </g>
     <g id="line2d_18">
      <g>
       <use style="stroke:#000000;stroke-width:0.5;" x="106.725833333" xlink:href="#m4b66ceb6e8" y="28.76"/>
      </g>
     </g>
     <g id="text_5">
      <!-- 200 -->
      <defs>
       <path d="M 19.1875 8.296875 
L 53.609375 8.296875 
L 53.609375 0 
L 7.328125 0 
L 7.328125 8.296875 
Q 12.9375 14.109375 22.625 23.890625 
Q 32.328125 33.6875 34.8125 36.53125 
Q 39.546875 41.84375 41.421875 45.53125 
Q 43.3125 49.21875 43.3125 52.78125 
Q 43.3125 58.59375 39.234375 62.25 
Q 35.15625 65.921875 28.609375 65.921875 
Q 23.96875 65.921875 18.8125 64.3125 
Q 13.671875 62.703125 7.8125 59.421875 
L 7.8125 69.390625 
Q 13.765625 71.78125 18.9375 73 
Q 24.125 74.21875 28.421875 74.21875 
Q 39.75 74.21875 46.484375 68.546875 
Q 53.21875 62.890625 53.21875 53.421875 
Q 53.21875 48.921875 51.53125 44.890625 
Q 49.859375 40.875 45.40625 35.40625 
Q 44.1875 33.984375 37.640625 27.21875 
Q 31.109375 20.453125 19.1875 8.296875 
" id="BitstreamVeraSans-Roman-32"/>
      </defs>
      <g transform="translate(95.2733333333 394.8964375)scale(0.12 -0.12)">
       <use xlink:href="#BitstreamVeraSans-Roman-32"/>
       <use x="63.623046875" xlink:href="#BitstreamVeraSans-Roman-30"/>
       <use x="127.24609375" xlink:href="#BitstreamVeraSans-Roman-30"/>
      </g>
     </g>
    </g>
    <g id="xtick_6">
     <g id="line2d_19">
      <path clip-path="url(#p22ce12ed63)" d="M 121.139167 381.778313 
L 121.139167 28.76 
" style="fill:none;stroke:#000000;stroke-dasharray:1.000000,3.000000;stroke-dashoffset:0.0;stroke-width:0.5;"/>
     </g>
     <g id="line2d_20">
      <g>
       <use style="stroke:#000000;stroke-width:0.5;" x="121.139166667" xlink:href="#m86acaacddb" y="381.7783125"/>
      </g>
     </g>
     <g id="line2d_21">
      <g>
       <use style="stroke:#000000;stroke-width:0.5;" x="121.139166667" xlink:href="#m4b66ceb6e8" y="28.76"/>
      </g>
     </g>
     <g id="text_6">
      <!-- 250 -->
      <g transform="translate(109.686666667 394.8964375)scale(0.12 -0.12)">
       <use xlink:href="#BitstreamVeraSans-Roman-32"/>
       <use x="63.623046875" xlink:href="#BitstreamVeraSans-Roman-35"/>
       <use x="127.24609375" xlink:href="#BitstreamVeraSans-Roman-30"/>
      </g>
     </g>
    </g>
    <g id="xtick_7">
     <g id="line2d_22">
      <path clip-path="url(#p22ce12ed63)" d="M 135.5525 381.778313 
L 135.5525 28.76 
" style="fill:none;stroke:#000000;stroke-dasharray:1.000000,3.000000;stroke-dashoffset:0.0;stroke-width:0.5;"/>
     </g>
     <g id="line2d_23">
      <g>
       <use style="stroke:#000000;stroke-width:0.5;" x="135.5525" xlink:href="#m86acaacddb" y="381.7783125"/>
      </g>
     </g>
     <g id="line2d_24">
      <g>
       <use style="stroke:#000000;stroke-width:0.5;" x="135.5525" xlink:href="#m4b66ceb6e8" y="28.76"/>
      </g>
     </g>
     <g id="text_7">
      <!-- 300 -->
      <defs>
       <path d="M 40.578125 39.3125 
Q 47.65625 37.796875 51.625 33 
Q 55.609375 28.21875 55.609375 21.1875 
Q 55.609375 10.40625 48.1875 4.484375 
Q 40.765625 -1.421875 27.09375 -1.421875 
Q 22.515625 -1.421875 17.65625 -0.515625 
Q 12.796875 0.390625 7.625 2.203125 
L 7.625 11.71875 
Q 11.71875 9.328125 16.59375 8.109375 
Q 21.484375 6.890625 26.8125 6.890625 
Q 36.078125 6.890625 40.9375 10.546875 
Q 45.796875 14.203125 45.796875 21.1875 
Q 45.796875 27.640625 41.28125 31.265625 
Q 36.765625 34.90625 28.71875 34.90625 
L 20.21875 34.90625 
L 20.21875 43.015625 
L 29.109375 43.015625 
Q 36.375 43.015625 40.234375 45.921875 
Q 44.09375 48.828125 44.09375 54.296875 
Q 44.09375 59.90625 40.109375 62.90625 
Q 36.140625 65.921875 28.71875 65.921875 
Q 24.65625 65.921875 20.015625 65.03125 
Q 15.375 64.15625 9.8125 62.3125 
L 9.8125 71.09375 
Q 15.4375 72.65625 20.34375 73.4375 
Q 25.25 74.21875 29.59375 74.21875 
Q 40.828125 74.21875 47.359375 69.109375 
Q 53.90625 64.015625 53.90625 55.328125 
Q 53.90625 49.265625 50.4375 45.09375 
Q 46.96875 40.921875 40.578125 39.3125 
" id="BitstreamVeraSans-Roman-33"/>
      </defs>
      <g transform="translate(124.1 394.8964375)scale(0.12 -0.12)">
       <use xlink:href="#BitstreamVeraSans-Roman-33"/>
       <use x="63.623046875" xlink:href="#BitstreamVeraSans-Roman-30"/>
       <use x="127.24609375" xlink:href="#BitstreamVeraSans-Roman-30"/>
      </g>
     </g>
    </g>
    <g id="xtick_8">
     <g id="line2d_25">
      <path clip-path="url(#p22ce12ed63)" d="M 149.965833 381.778313 
L 149.965833 28.76 
" style="fill:none;stroke:#000000;stroke-dasharray:1.000000,3.000000;stroke-dashoffset:0.0;stroke-width:0.5;"/>
     </g>
     <g id="line2d_26">
      <g>
       <use style="stroke:#000000;stroke-width:0.5;" x="149.965833333" xlink:href="#m86acaacddb" y="381.7783125"/>
      </g>
     </g>
     <g id="line2d_27">
      <g>
       <use style="stroke:#000000;stroke-width:0.5;" x="149.965833333" xlink:href="#m4b66ceb6e8" y="28.76"/>
      </g>
     </g>
     <g id="text_8">
      <!-- 350 -->
      <g transform="translate(138.513333333 394.8964375)scale(0.12 -0.12)">
       <use xlink:href="#BitstreamVeraSans-Roman-33"/>
       <use x="63.623046875" xlink:href="#BitstreamVeraSans-Roman-35"/>
       <use x="127.24609375" xlink:href="#BitstreamVeraSans-Roman-30"/>
      </g>
     </g>
    </g>
    <g id="xtick_9">
     <g id="line2d_28">
      <path clip-path="url(#p22ce12ed63)" d="M 164.379167 381.778313 
L 164.379167 28.76 
" style="fill:none;stroke:#000000;stroke-dasharray:1.000000,3.000000;stroke-dashoffset:0.0;stroke-width:0.5;"/>
     </g>
     <g id="line2d_29">
      <g>
       <use style="stroke:#000000;stroke-width:0.5;" x="164.379166667" xlink:href="#m86acaacddb" y="381.7783125"/>
      </g>
     </g>
     <g id="line2d_30">
      <g>
       <use style="stroke:#000000;stroke-width:0.5;" x="164.379166667" xlink:href="#m4b66ceb6e8" y="28.76"/>
      </g>
     </g>
     <g id="text_9">
      <!-- 400 -->
      <defs>
       <path d="M 37.796875 64.3125 
L 12.890625 25.390625 
L 37.796875 25.390625 
z
M 35.203125 72.90625 
L 47.609375 72.90625 
L 47.609375 25.390625 
L 58.015625 25.390625 
L 58.015625 17.1875 
L 47.609375 17.1875 
L 47.609375 0 
L 37.796875 0 
L 37.796875 17.1875 
L 4.890625 17.1875 
L 4.890625 26.703125 
z
" id="BitstreamVeraSans-Roman-34"/>
      </defs>
      <g transform="translate(152.926666667 394.8964375)scale(0.12 -0.12)">
       <use xlink:href="#BitstreamVeraSans-Roman-34"/>
       <use x="63.623046875" xlink:href="#BitstreamVeraSans-Roman-30"/>
       <use x="127.24609375" xlink:href="#BitstreamVeraSans-Roman-30"/>
      </g>
     </g>
    </g>
    <g id="xtick_10">
     <g id="line2d_31">
      <path clip-path="url(#p22ce12ed63)" d="M 178.7925 381.778313 
L 178.7925 28.76 
" style="fill:none;stroke:#000000;stroke-dasharray:1.000000,3.000000;stroke-dashoffset:0.0;stroke-width:0.5;"/>
     </g>
     <g id="line2d_32">
      <g>
       <use style="stroke:#000000;stroke-width:0.5;" x="178.7925" xlink:href="#m86acaacddb" y="381.7783125"/>
      </g>
     </g>
     <g id="line2d_33">
      <g>
       <use style="stroke:#000000;stroke-width:0.5;" x="178.7925" xlink:href="#m4b66ceb6e8" y="28.76"/>
      </g>
     </g>
     <g id="text_10">
      <!-- 450 -->
      <g transform="translate(167.34 394.8964375)scale(0.12 -0.12)">
       <use xlink:href="#BitstreamVeraSans-Roman-34"/>
       <use x="63.623046875" xlink:href="#BitstreamVeraSans-Roman-35"/>
       <use x="127.24609375" xlink:href="#BitstreamVeraSans-Roman-30"/>
      </g>
     </g>
    </g>
    <g id="text_11">
     <!-- Down fluxes (W/m$^2$) -->
     <defs>
      <path id="BitstreamVeraSans-Roman-20"/>
      <path d="M 52 44.1875 
Q 55.375 50.25 60.0625 53.125 
Q 64.75 56 71.09375 56 
Q 79.640625 56 84.28125 50.015625 
Q 88.921875 44.046875 88.921875 33.015625 
L 88.921875 0 
L 79.890625 0 
L 79.890625 32.71875 
Q 79.890625 40.578125 77.09375 44.375 
Q 74.3125 48.1875 68.609375 48.1875 
Q 61.625 48.1875 57.5625 43.546875 
Q 53.515625 38.921875 53.515625 30.90625 
L 53.515625 0 
L 44.484375 0 
L 44.484375 32.71875 
Q 44.484375 40.625 41.703125 44.40625 
Q 38.921875 48.1875 33.109375 48.1875 
Q 26.21875 48.1875 22.15625 43.53125 
Q 18.109375 38.875 18.109375 30.90625 
L 18.109375 0 
L 9.078125 0 
L 9.078125 54.6875 
L 18.109375 54.6875 
L 18.109375 46.1875 
Q 21.1875 51.21875 25.484375 53.609375 
Q 29.78125 56 35.6875 56 
Q 41.65625 56 45.828125 52.96875 
Q 50 49.953125 52 44.1875 
" id="BitstreamVeraSans-Roman-6d"/>
      <path d="M 8.5 21.578125 
L 8.5 54.6875 
L 17.484375 54.6875 
L 17.484375 21.921875 
Q 17.484375 14.15625 20.5 10.265625 
Q 23.53125 6.390625 29.59375 6.390625 
Q 36.859375 6.390625 41.078125 11.03125 
Q 45.3125 15.671875 45.3125 23.6875 
L 45.3125 54.6875 
L 54.296875 54.6875 
L 54.296875 0 
L 45.3125 0 
L 45.3125 8.40625 
Q 42.046875 3.421875 37.71875 1 
Q 33.40625 -1.421875 27.6875 -1.421875 
Q 18.265625 -1.421875 13.375 4.4375 
Q 8.5 10.296875 8.5 21.578125 
" id="BitstreamVeraSans-Roman-75"/>
      <path d="M 4.984375 0 
L 4.984375 2.6875 
Q 4.984375 2.9375 5.171875 3.21875 
L 20.703125 20.40625 
Q 24.21875 24.21875 26.40625 26.796875 
Q 28.609375 29.390625 30.75 32.765625 
Q 32.90625 36.140625 34.15625 39.625 
Q 35.40625 43.109375 35.40625 47.015625 
Q 35.40625 51.125 33.890625 54.859375 
Q 32.375 58.59375 29.375 60.84375 
Q 26.375 63.09375 22.125 63.09375 
Q 17.78125 63.09375 14.3125 60.46875 
Q 10.84375 57.859375 9.421875 53.71875 
Q 9.8125 53.8125 10.5 53.8125 
Q 12.75 53.8125 14.328125 52.296875 
Q 15.921875 50.78125 15.921875 48.390625 
Q 15.921875 46.09375 14.328125 44.5 
Q 12.75 42.921875 10.5 42.921875 
Q 8.15625 42.921875 6.5625 44.546875 
Q 4.984375 46.1875 4.984375 48.390625 
Q 4.984375 52.15625 6.390625 55.4375 
Q 7.8125 58.734375 10.46875 61.296875 
Q 13.140625 63.875 16.484375 65.234375 
Q 19.828125 66.609375 23.578125 66.609375 
Q 29.296875 66.609375 34.21875 64.1875 
Q 39.15625 61.765625 42.03125 57.34375 
Q 44.921875 52.9375 44.921875 47.015625 
Q 44.921875 42.671875 43.015625 38.765625 
Q 41.109375 34.859375 38.125 31.65625 
Q 35.15625 28.46875 30.515625 24.40625 
Q 25.875 20.359375 24.421875 19 
L 13.09375 8.109375 
L 22.703125 8.109375 
Q 29.78125 8.109375 34.546875 8.21875 
Q 39.3125 8.34375 39.59375 8.59375 
Q 40.765625 9.859375 42 17.828125 
L 44.921875 17.828125 
L 42.09375 0 
z
" id="Cmr10-32"/>
      <path d="M 54.890625 33.015625 
L 54.890625 0 
L 45.90625 0 
L 45.90625 32.71875 
Q 45.90625 40.484375 42.875 44.328125 
Q 39.84375 48.1875 33.796875 48.1875 
Q 26.515625 48.1875 22.3125 43.546875 
Q 18.109375 38.921875 18.109375 30.90625 
L 18.109375 0 
L 9.078125 0 
L 9.078125 54.6875 
L 18.109375 54.6875 
L 18.109375 46.1875 
Q 21.34375 51.125 25.703125 53.5625 
Q 30.078125 56 35.796875 56 
Q 45.21875 56 50.046875 50.171875 
Q 54.890625 44.34375 54.890625 33.015625 
" id="BitstreamVeraSans-Roman-6e"/>
      <path d="M 31 75.875 
Q 24.46875 64.65625 21.28125 53.65625 
Q 18.109375 42.671875 18.109375 31.390625 
Q 18.109375 20.125 21.3125 9.0625 
Q 24.515625 -2 31 -13.1875 
L 23.1875 -13.1875 
Q 15.875 -1.703125 12.234375 9.375 
Q 8.59375 20.453125 8.59375 31.390625 
Q 8.59375 42.28125 12.203125 53.3125 
Q 15.828125 64.359375 23.1875 75.875 
z
" id="BitstreamVeraSans-Roman-28"/>
      <path d="M 30.609375 48.390625 
Q 23.390625 48.390625 19.1875 42.75 
Q 14.984375 37.109375 14.984375 27.296875 
Q 14.984375 17.484375 19.15625 11.84375 
Q 23.34375 6.203125 30.609375 6.203125 
Q 37.796875 6.203125 41.984375 11.859375 
Q 46.1875 17.53125 46.1875 27.296875 
Q 46.1875 37.015625 41.984375 42.703125 
Q 37.796875 48.390625 30.609375 48.390625 
M 30.609375 56 
Q 42.328125 56 49.015625 48.375 
Q 55.71875 40.765625 55.71875 27.296875 
Q 55.71875 13.875 49.015625 6.21875 
Q 42.328125 -1.421875 30.609375 -1.421875 
Q 18.84375 -1.421875 12.171875 6.21875 
Q 5.515625 13.875 5.515625 27.296875 
Q 5.515625 40.765625 12.171875 48.375 
Q 18.84375 56 30.609375 56 
" id="BitstreamVeraSans-Roman-6f"/>
      <path d="M 9.421875 75.984375 
L 18.40625 75.984375 
L 18.40625 0 
L 9.421875 0 
z
" id="BitstreamVeraSans-Roman-6c"/>
      <path d="M 8.015625 75.875 
L 15.828125 75.875 
Q 23.140625 64.359375 26.78125 53.3125 
Q 30.421875 42.28125 30.421875 31.390625 
Q 30.421875 20.453125 26.78125 9.375 
Q 23.140625 -1.703125 15.828125 -13.1875 
L 8.015625 -13.1875 
Q 14.5 -2 17.703125 9.0625 
Q 20.90625 20.125 20.90625 31.390625 
Q 20.90625 42.671875 17.703125 53.65625 
Q 14.5 64.65625 8.015625 75.875 
" id="BitstreamVeraSans-Roman-29"/>
      <path d="M 19.671875 64.796875 
L 19.671875 8.109375 
L 31.59375 8.109375 
Q 46.6875 8.109375 53.6875 14.9375 
Q 60.6875 21.78125 60.6875 36.53125 
Q 60.6875 51.171875 53.6875 57.984375 
Q 46.6875 64.796875 31.59375 64.796875 
z
M 9.8125 72.90625 
L 30.078125 72.90625 
Q 51.265625 72.90625 61.171875 64.09375 
Q 71.09375 55.28125 71.09375 36.53125 
Q 71.09375 17.671875 61.125 8.828125 
Q 51.171875 0 30.078125 0 
L 9.8125 0 
z
" id="BitstreamVeraSans-Roman-44"/>
      <path d="M 54.890625 54.6875 
L 35.109375 28.078125 
L 55.90625 0 
L 45.3125 0 
L 29.390625 21.484375 
L 13.484375 0 
L 2.875 0 
L 24.125 28.609375 
L 4.6875 54.6875 
L 15.28125 54.6875 
L 29.78125 35.203125 
L 44.28125 54.6875 
z
" id="BitstreamVeraSans-Roman-78"/>
      <path d="M 3.328125 72.90625 
L 13.28125 72.90625 
L 28.609375 11.28125 
L 43.890625 72.90625 
L 54.984375 72.90625 
L 70.3125 11.28125 
L 85.59375 72.90625 
L 95.609375 72.90625 
L 77.296875 0 
L 64.890625 0 
L 49.515625 63.28125 
L 33.984375 0 
L 21.578125 0 
z
" id="BitstreamVeraSans-Roman-57"/>
      <path d="M 56.203125 29.59375 
L 56.203125 25.203125 
L 14.890625 25.203125 
Q 15.484375 15.921875 20.484375 11.0625 
Q 25.484375 6.203125 34.421875 6.203125 
Q 39.59375 6.203125 44.453125 7.46875 
Q 49.3125 8.734375 54.109375 11.28125 
L 54.109375 2.78125 
Q 49.265625 0.734375 44.1875 -0.34375 
Q 39.109375 -1.421875 33.890625 -1.421875 
Q 20.796875 -1.421875 13.15625 6.1875 
Q 5.515625 13.8125 5.515625 26.8125 
Q 5.515625 40.234375 12.765625 48.109375 
Q 20.015625 56 32.328125 56 
Q 43.359375 56 49.78125 48.890625 
Q 56.203125 41.796875 56.203125 29.59375 
M 47.21875 32.234375 
Q 47.125 39.59375 43.09375 43.984375 
Q 39.0625 48.390625 32.421875 48.390625 
Q 24.90625 48.390625 20.390625 44.140625 
Q 15.875 39.890625 15.1875 32.171875 
z
" id="BitstreamVeraSans-Roman-65"/>
      <path d="M 4.203125 54.6875 
L 13.1875 54.6875 
L 24.421875 12.015625 
L 35.59375 54.6875 
L 46.1875 54.6875 
L 57.421875 12.015625 
L 68.609375 54.6875 
L 77.59375 54.6875 
L 63.28125 0 
L 52.6875 0 
L 40.921875 44.828125 
L 29.109375 0 
L 18.5 0 
z
" id="BitstreamVeraSans-Roman-77"/>
      <path d="M 37.109375 75.984375 
L 37.109375 68.5 
L 28.515625 68.5 
Q 23.6875 68.5 21.796875 66.546875 
Q 19.921875 64.59375 19.921875 59.515625 
L 19.921875 54.6875 
L 34.71875 54.6875 
L 34.71875 47.703125 
L 19.921875 47.703125 
L 19.921875 0 
L 10.890625 0 
L 10.890625 47.703125 
L 2.296875 47.703125 
L 2.296875 54.6875 
L 10.890625 54.6875 
L 10.890625 58.5 
Q 10.890625 67.625 15.140625 71.796875 
Q 19.390625 75.984375 28.609375 75.984375 
z
" id="BitstreamVeraSans-Roman-66"/>
      <path d="M 44.28125 53.078125 
L 44.28125 44.578125 
Q 40.484375 46.53125 36.375 47.5 
Q 32.28125 48.484375 27.875 48.484375 
Q 21.1875 48.484375 17.84375 46.4375 
Q 14.5 44.390625 14.5 40.28125 
Q 14.5 37.15625 16.890625 35.375 
Q 19.28125 33.59375 26.515625 31.984375 
L 29.59375 31.296875 
Q 39.15625 29.25 43.1875 25.515625 
Q 47.21875 21.78125 47.21875 15.09375 
Q 47.21875 7.46875 41.1875 3.015625 
Q 35.15625 -1.421875 24.609375 -1.421875 
Q 20.21875 -1.421875 15.453125 -0.5625 
Q 10.6875 0.296875 5.421875 2 
L 5.421875 11.28125 
Q 10.40625 8.6875 15.234375 7.390625 
Q 20.0625 6.109375 24.8125 6.109375 
Q 31.15625 6.109375 34.5625 8.28125 
Q 37.984375 10.453125 37.984375 14.40625 
Q 37.984375 18.0625 35.515625 20.015625 
Q 33.0625 21.96875 24.703125 23.78125 
L 21.578125 24.515625 
Q 13.234375 26.265625 9.515625 29.90625 
Q 5.8125 33.546875 5.8125 39.890625 
Q 5.8125 47.609375 11.28125 51.796875 
Q 16.75 56 26.8125 56 
Q 31.78125 56 36.171875 55.265625 
Q 40.578125 54.546875 44.28125 53.078125 
" id="BitstreamVeraSans-Roman-73"/>
      <path d="M 25.390625 72.90625 
L 33.6875 72.90625 
L 8.296875 -9.28125 
L 0 -9.28125 
z
" id="BitstreamVeraSans-Roman-2f"/>
     </defs>
     <g transform="translate(53.9325 411.7764375)scale(0.12 -0.12)">
      <use transform="translate(0.0 0.109375)" xlink:href="#BitstreamVeraSans-Roman-44"/>
      <use transform="translate(77.001953125 0.109375)" xlink:href="#BitstreamVeraSans-Roman-6f"/>
      <use transform="translate(138.18359375 0.109375)" xlink:href="#BitstreamVeraSans-Roman-77"/>
      <use transform="translate(219.970703125 0.109375)" xlink:href="#BitstreamVeraSans-Roman-6e"/>
      <use transform="translate(283.349609375 0.109375)" xlink:href="#BitstreamVeraSans-Roman-20"/>
      <use transform="translate(315.13671875 0.109375)" xlink:href="#BitstreamVeraSans-Roman-66"/>
      <use transform="translate(350.341796875 0.109375)" xlink:href="#BitstreamVeraSans-Roman-6c"/>
      <use transform="translate(378.125 0.109375)" xlink:href="#BitstreamVeraSans-Roman-75"/>
      <use transform="translate(441.50390625 0.109375)" xlink:href="#BitstreamVeraSans-Roman-78"/>
      <use transform="translate(500.68359375 0.109375)" xlink:href="#BitstreamVeraSans-Roman-65"/>
      <use transform="translate(562.20703125 0.109375)" xlink:href="#BitstreamVeraSans-Roman-73"/>
      <use transform="translate(614.306640625 0.109375)" xlink:href="#BitstreamVeraSans-Roman-20"/>
      <use transform="translate(646.09375 0.109375)" xlink:href="#BitstreamVeraSans-Roman-28"/>
      <use transform="translate(685.107421875 0.109375)" xlink:href="#BitstreamVeraSans-Roman-57"/>
      <use transform="translate(783.984375 0.109375)" xlink:href="#BitstreamVeraSans-Roman-2f"/>
      <use transform="translate(817.67578125 0.109375)" xlink:href="#BitstreamVeraSans-Roman-6d"/>
      <use transform="translate(919.55203125 38.3734375)scale(0.7)" xlink:href="#Cmr10-32"/>
      <use transform="translate(960.929375 0.109375)" xlink:href="#BitstreamVeraSans-Roman-29"/>
     </g>
    </g>
   </g>
   <g id="matplotlib.axis_2">
    <g id="ytick_1">
     <g id="line2d_34">
      <path clip-path="url(#p22ce12ed63)" d="M 49.0725 381.778313 
L 178.7925 381.778313 
" style="fill:none;stroke:#000000;stroke-dasharray:1.000000,3.000000;stroke-dashoffset:0.0;stroke-width:0.5;"/>
     </g>
     <g id="line2d_35">
      <defs>
       <path d="M 0 0 
L 4 0 
" id="mfa0a6fd976" style="stroke:#000000;stroke-width:0.5;"/>
      </defs>
      <g>
       <use style="stroke:#000000;stroke-width:0.5;" x="49.0725" xlink:href="#mfa0a6fd976" y="381.7783125"/>
      </g>
     </g>
     <g id="line2d_36">
      <defs>
       <path d="M 0 0 
L -4 0 
" id="m6880616380" style="stroke:#000000;stroke-width:0.5;"/>
      </defs>
      <g>
       <use style="stroke:#000000;stroke-width:0.5;" x="178.7925" xlink:href="#m6880616380" y="381.7783125"/>
      </g>
     </g>
     <g id="text_12">
      <!-- 0 -->
      <g transform="translate(37.4375 385.0895625)scale(0.12 -0.12)">
       <use xlink:href="#BitstreamVeraSans-Roman-30"/>
      </g>
     </g>
    </g>
    <g id="ytick_2">
     <g id="line2d_37">
      <path clip-path="url(#p22ce12ed63)" d="M 49.0725 293.523734 
L 178.7925 293.523734 
" style="fill:none;stroke:#000000;stroke-dasharray:1.000000,3.000000;stroke-dashoffset:0.0;stroke-width:0.5;"/>
     </g>
     <g id="line2d_38">
      <g>
       <use style="stroke:#000000;stroke-width:0.5;" x="49.0725" xlink:href="#mfa0a6fd976" y="293.523734375"/>
      </g>
     </g>
     <g id="line2d_39">
      <g>
       <use style="stroke:#000000;stroke-width:0.5;" x="178.7925" xlink:href="#m6880616380" y="293.523734375"/>
      </g>
     </g>
     <g id="text_13">
      <!-- 5 -->
      <g transform="translate(37.4375 296.834984375)scale(0.12 -0.12)">
       <use xlink:href="#BitstreamVeraSans-Roman-35"/>
      </g>
     </g>
    </g>
    <g id="ytick_3">
     <g id="line2d_40">
      <path clip-path="url(#p22ce12ed63)" d="M 49.0725 205.269156 
L 178.7925 205.269156 
" style="fill:none;stroke:#000000;stroke-dasharray:1.000000,3.000000;stroke-dashoffset:0.0;stroke-width:0.5;"/>
     </g>
     <g id="line2d_41">
      <g>
       <use style="stroke:#000000;stroke-width:0.5;" x="49.0725" xlink:href="#mfa0a6fd976" y="205.26915625"/>
      </g>
     </g>
     <g id="line2d_42">
      <g>
       <use style="stroke:#000000;stroke-width:0.5;" x="178.7925" xlink:href="#m6880616380" y="205.26915625"/>
      </g>
     </g>
     <g id="text_14">
      <!-- 10 -->
      <g transform="translate(29.8025 208.58040625)scale(0.12 -0.12)">
       <use xlink:href="#BitstreamVeraSans-Roman-31"/>
       <use x="63.623046875" xlink:href="#BitstreamVeraSans-Roman-30"/>
      </g>
     </g>
    </g>
    <g id="ytick_4">
     <g id="line2d_43">
      <path clip-path="url(#p22ce12ed63)" d="M 49.0725 117.014578 
L 178.7925 117.014578 
" style="fill:none;stroke:#000000;stroke-dasharray:1.000000,3.000000;stroke-dashoffset:0.0;stroke-width:0.5;"/>
     </g>
     <g id="line2d_44">
      <g>
       <use style="stroke:#000000;stroke-width:0.5;" x="49.0725" xlink:href="#mfa0a6fd976" y="117.014578125"/>
      </g>
     </g>
     <g id="line2d_45">
      <g>
       <use style="stroke:#000000;stroke-width:0.5;" x="178.7925" xlink:href="#m6880616380" y="117.014578125"/>
      </g>
     </g>
     <g id="text_15">
      <!-- 15 -->
      <g transform="translate(29.8025 120.325828125)scale(0.12 -0.12)">
       <use xlink:href="#BitstreamVeraSans-Roman-31"/>
       <use x="63.623046875" xlink:href="#BitstreamVeraSans-Roman-35"/>
      </g>
     </g>
    </g>
    <g id="ytick_5">
     <g id="line2d_46">
      <path clip-path="url(#p22ce12ed63)" d="M 49.0725 28.76 
L 178.7925 28.76 
" style="fill:none;stroke:#000000;stroke-dasharray:1.000000,3.000000;stroke-dashoffset:0.0;stroke-width:0.5;"/>
     </g>
     <g id="line2d_47">
      <g>
       <use style="stroke:#000000;stroke-width:0.5;" x="49.0725" xlink:href="#mfa0a6fd976" y="28.76"/>
      </g>
     </g>
     <g id="line2d_48">
      <g>
       <use style="stroke:#000000;stroke-width:0.5;" x="178.7925" xlink:href="#m6880616380" y="28.76"/>
      </g>
     </g>
     <g id="text_16">
      <!-- 20 -->
      <g transform="translate(29.8025 32.07125)scale(0.12 -0.12)">
       <use xlink:href="#BitstreamVeraSans-Roman-32"/>
       <use x="63.623046875" xlink:href="#BitstreamVeraSans-Roman-30"/>
      </g>
     </g>
    </g>
    <g id="text_17">
     <!-- z (km) -->
     <defs>
      <path d="M 9.078125 75.984375 
L 18.109375 75.984375 
L 18.109375 31.109375 
L 44.921875 54.6875 
L 56.390625 54.6875 
L 27.390625 29.109375 
L 57.625 0 
L 45.90625 0 
L 18.109375 26.703125 
L 18.109375 0 
L 9.078125 0 
z
" id="BitstreamVeraSans-Roman-6b"/>
      <path d="M 5.515625 54.6875 
L 48.1875 54.6875 
L 48.1875 46.484375 
L 14.40625 7.171875 
L 48.1875 7.171875 
L 48.1875 0 
L 4.296875 0 
L 4.296875 8.203125 
L 38.09375 47.515625 
L 5.515625 47.515625 
z
" id="BitstreamVeraSans-Roman-7a"/>
     </defs>
     <g transform="translate(22.306875 224.32571875)rotate(-90.0)scale(0.12 -0.12)">
      <use xlink:href="#BitstreamVeraSans-Roman-7a"/>
      <use x="52.490234375" xlink:href="#BitstreamVeraSans-Roman-20"/>
      <use x="84.27734375" xlink:href="#BitstreamVeraSans-Roman-28"/>
      <use x="123.291015625" xlink:href="#BitstreamVeraSans-Roman-6b"/>
      <use x="181.201171875" xlink:href="#BitstreamVeraSans-Roman-6d"/>
      <use x="278.61328125" xlink:href="#BitstreamVeraSans-Roman-29"/>
     </g>
    </g>
   </g>
   <g id="text_18">
    <!-- Down fluxes -->
    <g transform="translate(69.7065 23.76)scale(0.144 -0.144)">
     <use xlink:href="#BitstreamVeraSans-Roman-44"/>
     <use x="77.001953125" xlink:href="#BitstreamVeraSans-Roman-6f"/>
     <use x="138.18359375" xlink:href="#BitstreamVeraSans-Roman-77"/>
     <use x="219.970703125" xlink:href="#BitstreamVeraSans-Roman-6e"/>
     <use x="283.349609375" xlink:href="#BitstreamVeraSans-Roman-20"/>
     <use x="315.13671875" xlink:href="#BitstreamVeraSans-Roman-66"/>
     <use x="350.341796875" xlink:href="#BitstreamVeraSans-Roman-6c"/>
     <use x="378.125" xlink:href="#BitstreamVeraSans-Roman-75"/>
     <use x="441.50390625" xlink:href="#BitstreamVeraSans-Roman-78"/>
     <use x="500.63671875" xlink:href="#BitstreamVeraSans-Roman-65"/>
     <use x="562.16015625" xlink:href="#BitstreamVeraSans-Roman-73"/>
    </g>
   </g>
   <g id="legend_1">
    <g id="patch_7">
     <path d="M 49.89 103.6895 
L 171.5925 103.6895 
L 171.5925 35.96 
L 49.89 35.96 
z
" style="fill:#ffffff;stroke:#000000;stroke-linejoin:miter;"/>
    </g>
    <g id="line2d_49">
     <path d="M 59.97 47.62175 
L 80.13 47.62175 
" style="fill:none;stroke:#ff0000;stroke-dasharray:6.000000,6.000000;stroke-dashoffset:0.0;stroke-width:2.0;"/>
    </g>
    <g id="line2d_50"/>
    <g id="text_19">
     <!-- i3rc -->
     <defs>
      <path d="M 41.109375 46.296875 
Q 39.59375 47.171875 37.8125 47.578125 
Q 36.03125 48 33.890625 48 
Q 26.265625 48 22.1875 43.046875 
Q 18.109375 38.09375 18.109375 28.8125 
L 18.109375 0 
L 9.078125 0 
L 9.078125 54.6875 
L 18.109375 54.6875 
L 18.109375 46.1875 
Q 20.953125 51.171875 25.484375 53.578125 
Q 30.03125 56 36.53125 56 
Q 37.453125 56 38.578125 55.875 
Q 39.703125 55.765625 41.0625 55.515625 
z
" id="BitstreamVeraSans-Roman-72"/>
      <path d="M 9.421875 54.6875 
L 18.40625 54.6875 
L 18.40625 0 
L 9.421875 0 
z
M 9.421875 75.984375 
L 18.40625 75.984375 
L 18.40625 64.59375 
L 9.421875 64.59375 
z
" id="BitstreamVeraSans-Roman-69"/>
      <path d="M 48.78125 52.59375 
L 48.78125 44.1875 
Q 44.96875 46.296875 41.140625 47.34375 
Q 37.3125 48.390625 33.40625 48.390625 
Q 24.65625 48.390625 19.8125 42.84375 
Q 14.984375 37.3125 14.984375 27.296875 
Q 14.984375 17.28125 19.8125 11.734375 
Q 24.65625 6.203125 33.40625 6.203125 
Q 37.3125 6.203125 41.140625 7.25 
Q 44.96875 8.296875 48.78125 10.40625 
L 48.78125 2.09375 
Q 45.015625 0.34375 40.984375 -0.53125 
Q 36.96875 -1.421875 32.421875 -1.421875 
Q 20.0625 -1.421875 12.78125 6.34375 
Q 5.515625 14.109375 5.515625 27.296875 
Q 5.515625 40.671875 12.859375 48.328125 
Q 20.21875 56 33.015625 56 
Q 37.15625 56 41.109375 55.140625 
Q 45.0625 54.296875 48.78125 52.59375 
" id="BitstreamVeraSans-Roman-63"/>
     </defs>
     <g transform="translate(95.97 52.66175)scale(0.144 -0.144)">
      <use xlink:href="#BitstreamVeraSans-Roman-69"/>
      <use x="27.783203125" xlink:href="#BitstreamVeraSans-Roman-33"/>
      <use x="91.40625" xlink:href="#BitstreamVeraSans-Roman-72"/>
      <use x="132.48828125" xlink:href="#BitstreamVeraSans-Roman-63"/>
     </g>
    </g>
    <g id="line2d_51">
     <path d="M 59.97 68.75825 
L 80.13 68.75825 
" style="fill:none;stroke:#000000;stroke-linecap:square;stroke-width:2.0;"/>
    </g>
    <g id="line2d_52"/>
    <g id="text_20">
     <!-- T,P,q trop -->
     <defs>
      <path d="M 19.671875 64.796875 
L 19.671875 37.40625 
L 32.078125 37.40625 
Q 38.96875 37.40625 42.71875 40.96875 
Q 46.484375 44.53125 46.484375 51.125 
Q 46.484375 57.671875 42.71875 61.234375 
Q 38.96875 64.796875 32.078125 64.796875 
z
M 9.8125 72.90625 
L 32.078125 72.90625 
Q 44.34375 72.90625 50.609375 67.359375 
Q 56.890625 61.8125 56.890625 51.125 
Q 56.890625 40.328125 50.609375 34.8125 
Q 44.34375 29.296875 32.078125 29.296875 
L 19.671875 29.296875 
L 19.671875 0 
L 9.8125 0 
z
" id="BitstreamVeraSans-Roman-50"/>
      <path d="M 11.71875 12.40625 
L 22.015625 12.40625 
L 22.015625 4 
L 14.015625 -11.625 
L 7.71875 -11.625 
L 11.71875 4 
z
" id="BitstreamVeraSans-Roman-2c"/>
      <path d="M -0.296875 72.90625 
L 61.375 72.90625 
L 61.375 64.59375 
L 35.5 64.59375 
L 35.5 0 
L 25.59375 0 
L 25.59375 64.59375 
L -0.296875 64.59375 
z
" id="BitstreamVeraSans-Roman-54"/>
      <path d="M 18.3125 70.21875 
L 18.3125 54.6875 
L 36.8125 54.6875 
L 36.8125 47.703125 
L 18.3125 47.703125 
L 18.3125 18.015625 
Q 18.3125 11.328125 20.140625 9.421875 
Q 21.96875 7.515625 27.59375 7.515625 
L 36.8125 7.515625 
L 36.8125 0 
L 27.59375 0 
Q 17.1875 0 13.234375 3.875 
Q 9.28125 7.765625 9.28125 18.015625 
L 9.28125 47.703125 
L 2.6875 47.703125 
L 2.6875 54.6875 
L 9.28125 54.6875 
L 9.28125 70.21875 
z
" id="BitstreamVeraSans-Roman-74"/>
      <path d="M 18.109375 8.203125 
L 18.109375 -20.796875 
L 9.078125 -20.796875 
L 9.078125 54.6875 
L 18.109375 54.6875 
L 18.109375 46.390625 
Q 20.953125 51.265625 25.265625 53.625 
Q 29.59375 56 35.59375 56 
Q 45.5625 56 51.78125 48.09375 
Q 58.015625 40.1875 58.015625 27.296875 
Q 58.015625 14.40625 51.78125 6.484375 
Q 45.5625 -1.421875 35.59375 -1.421875 
Q 29.59375 -1.421875 25.265625 0.953125 
Q 20.953125 3.328125 18.109375 8.203125 
M 48.6875 27.296875 
Q 48.6875 37.203125 44.609375 42.84375 
Q 40.53125 48.484375 33.40625 48.484375 
Q 26.265625 48.484375 22.1875 42.84375 
Q 18.109375 37.203125 18.109375 27.296875 
Q 18.109375 17.390625 22.1875 11.75 
Q 26.265625 6.109375 33.40625 6.109375 
Q 40.53125 6.109375 44.609375 11.75 
Q 48.6875 17.390625 48.6875 27.296875 
" id="BitstreamVeraSans-Roman-70"/>
      <path d="M 14.796875 27.296875 
Q 14.796875 17.390625 18.875 11.75 
Q 22.953125 6.109375 30.078125 6.109375 
Q 37.203125 6.109375 41.296875 11.75 
Q 45.40625 17.390625 45.40625 27.296875 
Q 45.40625 37.203125 41.296875 42.84375 
Q 37.203125 48.484375 30.078125 48.484375 
Q 22.953125 48.484375 18.875 42.84375 
Q 14.796875 37.203125 14.796875 27.296875 
M 45.40625 8.203125 
Q 42.578125 3.328125 38.25 0.953125 
Q 33.9375 -1.421875 27.875 -1.421875 
Q 17.96875 -1.421875 11.734375 6.484375 
Q 5.515625 14.40625 5.515625 27.296875 
Q 5.515625 40.1875 11.734375 48.09375 
Q 17.96875 56 27.875 56 
Q 33.9375 56 38.25 53.625 
Q 42.578125 51.265625 45.40625 46.390625 
L 45.40625 54.6875 
L 54.390625 54.6875 
L 54.390625 -20.796875 
L 45.40625 -20.796875 
z
" id="BitstreamVeraSans-Roman-71"/>
     </defs>
     <g transform="translate(95.97 73.79825)scale(0.144 -0.144)">
      <use xlink:href="#BitstreamVeraSans-Roman-54"/>
      <use x="61.083984375" xlink:href="#BitstreamVeraSans-Roman-2c"/>
      <use x="92.87109375" xlink:href="#BitstreamVeraSans-Roman-50"/>
      <use x="153.173828125" xlink:href="#BitstreamVeraSans-Roman-2c"/>
      <use x="184.9609375" xlink:href="#BitstreamVeraSans-Roman-71"/>
      <use x="248.4375" xlink:href="#BitstreamVeraSans-Roman-20"/>
      <use x="280.224609375" xlink:href="#BitstreamVeraSans-Roman-74"/>
      <use x="319.43359375" xlink:href="#BitstreamVeraSans-Roman-72"/>
      <use x="360.515625" xlink:href="#BitstreamVeraSans-Roman-6f"/>
      <use x="421.697265625" xlink:href="#BitstreamVeraSans-Roman-70"/>
     </g>
    </g>
    <g id="line2d_53">
     <path d="M 59.97 89.89475 
L 80.13 89.89475 
" style="fill:none;stroke:#ffa500;stroke-linecap:square;stroke-width:2.0;"/>
    </g>
    <g id="line2d_54"/>
    <g id="text_21">
     <!-- T,P trop -->
     <g transform="translate(95.97 94.93475)scale(0.144 -0.144)">
      <use xlink:href="#BitstreamVeraSans-Roman-54"/>
      <use x="61.083984375" xlink:href="#BitstreamVeraSans-Roman-2c"/>
      <use x="92.87109375" xlink:href="#BitstreamVeraSans-Roman-50"/>
      <use x="153.173828125" xlink:href="#BitstreamVeraSans-Roman-20"/>
      <use x="184.9609375" xlink:href="#BitstreamVeraSans-Roman-74"/>
      <use x="224.169921875" xlink:href="#BitstreamVeraSans-Roman-72"/>
      <use x="265.251953125" xlink:href="#BitstreamVeraSans-Roman-6f"/>
      <use x="326.43359375" xlink:href="#BitstreamVeraSans-Roman-70"/>
     </g>
    </g>
   </g>
  </g>
  <g id="axes_2">
   <g id="patch_8">
    <path d="M 239.28375 381.778313 
L 369.00375 381.778313 
L 369.00375 28.76 
L 239.28375 28.76 
z
" style="fill:#ffffff;"/>
   </g>
   <g id="line2d_55">
    <path clip-path="url(#pfe2abf6bd5)" d="M 257.30097 -1 
L 257.614321 39.26777 
L 258.130679 76.733243 
L 258.545298 94.550067 
L 259.270479 117.374658 
L 260.005004 133.784359 
L 260.708967 144.558835 
L 261.608096 155.397378 
L 262.77727 166.118711 
L 264.227614 176.824878 
L 265.928586 187.502091 
L 267.952571 198.393592 
L 270.328369 209.218567 
L 273.039888 219.984071 
L 276.095858 230.770482 
L 279.490834 241.564207 
L 283.22066 252.293334 
L 287.307505 262.929331 
L 291.707011 273.478259 
L 296.322031 284.16702 
L 301.215153 294.679554 
L 303.721531 299.786494 
L 308.9133 309.664912 
L 314.178978 318.907286 
L 319.360593 327.451777 
L 324.355059 335.197829 
L 331.548822 346.228591 
L 337.838231 356.957577 
L 347.488709 373.277552 
L 350.277523 378.408871 
L 351.464947 381.022969 
L 351.680718 381.778313 
L 351.680718 381.778313 
" style="fill:none;stroke:#ff0000;stroke-dasharray:6.000000,6.000000;stroke-dashoffset:0.0;stroke-width:2.0;"/>
   </g>
   <g id="line2d_56">
    <path clip-path="url(#pfe2abf6bd5)" d="M 263.002957 -1 
L 262.956561 25.799945 
L 263.120097 52.167609 
L 263.416864 70.714827 
L 263.775506 82.703113 
L 264.792091 100.402946 
L 267.206487 128.373655 
L 268.84493 144.558835 
L 270.009354 155.397378 
L 272.677505 176.824878 
L 274.177076 187.502091 
L 276.109436 198.393592 
L 278.257528 209.218567 
L 281.992362 225.337643 
L 284.934715 236.158881 
L 286.566983 241.564207 
L 290.419827 252.293334 
L 292.42099 257.627774 
L 296.890784 268.225426 
L 301.536662 278.840533 
L 304.001275 284.16702 
L 306.565569 289.437006 
L 309.311232 294.679554 
L 318.350501 309.664912 
L 321.292973 314.363587 
L 330.049687 327.451777 
L 332.179152 331.419633 
L 336.179182 339.199238 
L 338.934545 344.085734 
L 340.262207 346.228591 
L 342.580921 349.113351 
L 355.296176 364.735679 
L 358.969393 369.531798 
L 361.517218 373.277552 
L 362.662442 375.293476 
L 363.412821 376.988189 
L 363.775521 378.408871 
L 363.802915 379.02995 
L 363.71228 379.597586 
L 363.475251 380.116416 
L 363.038463 380.590198 
L 362.279988 381.022969 
L 360.835563 381.417854 
L 352.388046 381.778313 
L 352.388046 381.778313 
" style="fill:none;stroke:#000000;stroke-linecap:square;stroke-width:2.0;"/>
   </g>
   <g id="line2d_57">
    <path clip-path="url(#pfe2abf6bd5)" d="M 260.084504 -1 
L 260.011793 25.799945 
L 260.156465 52.167609 
L 260.451589 70.714827 
L 260.820346 82.703113 
L 261.874895 100.402946 
L 264.371277 128.373655 
L 265.484118 139.151111 
L 267.310404 155.397378 
L 270.200264 176.824878 
L 271.893398 187.502091 
L 274.168802 198.393592 
L 275.406859 203.818957 
L 278.213091 214.603146 
L 281.181711 225.337643 
L 284.486902 236.158881 
L 286.298363 241.564207 
L 290.470994 252.293334 
L 292.622787 257.627774 
L 297.352709 268.225426 
L 304.690986 284.16702 
L 307.266959 289.437006 
L 309.998252 294.679554 
L 316.078897 304.786046 
L 319.118417 309.664912 
L 325.297991 318.907286 
L 328.274706 323.281783 
L 330.970351 327.451777 
L 333.090158 331.419633 
L 338.017799 341.293468 
L 340.731318 346.228591 
L 342.843781 349.113351 
L 353.829483 363.996163 
L 357.719302 369.531798 
L 360.058759 373.277552 
L 361.118771 375.293476 
L 361.815766 376.988189 
L 362.149666 378.408871 
L 362.080923 379.597586 
L 361.852009 380.116416 
L 361.434322 380.590198 
L 360.716009 381.022969 
L 359.361803 381.417854 
L 351.965035 381.778313 
L 351.965035 381.778313 
" style="fill:none;stroke:#ffa500;stroke-linecap:square;stroke-width:2.0;"/>
   </g>
   <g id="patch_9">
    <path d="M 239.28375 28.76 
L 369.00375 28.76 
" style="fill:none;stroke:#000000;stroke-linecap:square;stroke-linejoin:miter;"/>
   </g>
   <g id="patch_10">
    <path d="M 369.00375 381.778313 
L 369.00375 28.76 
" style="fill:none;stroke:#000000;stroke-linecap:square;stroke-linejoin:miter;"/>
   </g>
   <g id="patch_11">
    <path d="M 239.28375 381.778313 
L 369.00375 381.778313 
" style="fill:none;stroke:#000000;stroke-linecap:square;stroke-linejoin:miter;"/>
   </g>
   <g id="patch_12">
    <path d="M 239.28375 381.778313 
L 239.28375 28.76 
" style="fill:none;stroke:#000000;stroke-linecap:square;stroke-linejoin:miter;"/>
   </g>
   <g id="matplotlib.axis_3">
    <g id="xtick_11">
     <g id="line2d_58">
      <path clip-path="url(#pfe2abf6bd5)" d="M 239.28375 381.778313 
L 239.28375 28.76 
" style="fill:none;stroke:#000000;stroke-dasharray:1.000000,3.000000;stroke-dashoffset:0.0;stroke-width:0.5;"/>
     </g>
     <g id="line2d_59">
      <g>
       <use style="stroke:#000000;stroke-width:0.5;" x="239.28375" xlink:href="#m86acaacddb" y="381.7783125"/>
      </g>
     </g>
     <g id="line2d_60">
      <g>
       <use style="stroke:#000000;stroke-width:0.5;" x="239.28375" xlink:href="#m4b66ceb6e8" y="28.76"/>
      </g>
     </g>
     <g id="text_22">
      <!-- 250 -->
      <g transform="translate(227.83125 394.8964375)scale(0.12 -0.12)">
       <use xlink:href="#BitstreamVeraSans-Roman-32"/>
       <use x="63.623046875" xlink:href="#BitstreamVeraSans-Roman-35"/>
       <use x="127.24609375" xlink:href="#BitstreamVeraSans-Roman-30"/>
      </g>
     </g>
    </g>
    <g id="xtick_12">
     <g id="line2d_61">
      <path clip-path="url(#pfe2abf6bd5)" d="M 271.71375 381.778313 
L 271.71375 28.76 
" style="fill:none;stroke:#000000;stroke-dasharray:1.000000,3.000000;stroke-dashoffset:0.0;stroke-width:0.5;"/>
     </g>
     <g id="line2d_62">
      <g>
       <use style="stroke:#000000;stroke-width:0.5;" x="271.71375" xlink:href="#m86acaacddb" y="381.7783125"/>
      </g>
     </g>
     <g id="line2d_63">
      <g>
       <use style="stroke:#000000;stroke-width:0.5;" x="271.71375" xlink:href="#m4b66ceb6e8" y="28.76"/>
      </g>
     </g>
     <g id="text_23">
      <!-- 300 -->
      <g transform="translate(260.26125 394.8964375)scale(0.12 -0.12)">
       <use xlink:href="#BitstreamVeraSans-Roman-33"/>
       <use x="63.623046875" xlink:href="#BitstreamVeraSans-Roman-30"/>
       <use x="127.24609375" xlink:href="#BitstreamVeraSans-Roman-30"/>
      </g>
     </g>
    </g>
    <g id="xtick_13">
     <g id="line2d_64">
      <path clip-path="url(#pfe2abf6bd5)" d="M 304.14375 381.778313 
L 304.14375 28.76 
" style="fill:none;stroke:#000000;stroke-dasharray:1.000000,3.000000;stroke-dashoffset:0.0;stroke-width:0.5;"/>
     </g>
     <g id="line2d_65">
      <g>
       <use style="stroke:#000000;stroke-width:0.5;" x="304.14375" xlink:href="#m86acaacddb" y="381.7783125"/>
      </g>
     </g>
     <g id="line2d_66">
      <g>
       <use style="stroke:#000000;stroke-width:0.5;" x="304.14375" xlink:href="#m4b66ceb6e8" y="28.76"/>
      </g>
     </g>
     <g id="text_24">
      <!-- 350 -->
      <g transform="translate(292.69125 394.8964375)scale(0.12 -0.12)">
       <use xlink:href="#BitstreamVeraSans-Roman-33"/>
       <use x="63.623046875" xlink:href="#BitstreamVeraSans-Roman-35"/>
       <use x="127.24609375" xlink:href="#BitstreamVeraSans-Roman-30"/>
      </g>
     </g>
    </g>
    <g id="xtick_14">
     <g id="line2d_67">
      <path clip-path="url(#pfe2abf6bd5)" d="M 336.57375 381.778313 
L 336.57375 28.76 
" style="fill:none;stroke:#000000;stroke-dasharray:1.000000,3.000000;stroke-dashoffset:0.0;stroke-width:0.5;"/>
     </g>
     <g id="line2d_68">
      <g>
       <use style="stroke:#000000;stroke-width:0.5;" x="336.57375" xlink:href="#m86acaacddb" y="381.7783125"/>
      </g>
     </g>
     <g id="line2d_69">
      <g>
       <use style="stroke:#000000;stroke-width:0.5;" x="336.57375" xlink:href="#m4b66ceb6e8" y="28.76"/>
      </g>
     </g>
     <g id="text_25">
      <!-- 400 -->
      <g transform="translate(325.12125 394.8964375)scale(0.12 -0.12)">
       <use xlink:href="#BitstreamVeraSans-Roman-34"/>
       <use x="63.623046875" xlink:href="#BitstreamVeraSans-Roman-30"/>
       <use x="127.24609375" xlink:href="#BitstreamVeraSans-Roman-30"/>
      </g>
     </g>
    </g>
    <g id="xtick_15">
     <g id="line2d_70">
      <path clip-path="url(#pfe2abf6bd5)" d="M 369.00375 381.778313 
L 369.00375 28.76 
" style="fill:none;stroke:#000000;stroke-dasharray:1.000000,3.000000;stroke-dashoffset:0.0;stroke-width:0.5;"/>
     </g>
     <g id="line2d_71">
      <g>
       <use style="stroke:#000000;stroke-width:0.5;" x="369.00375" xlink:href="#m86acaacddb" y="381.7783125"/>
      </g>
     </g>
     <g id="line2d_72">
      <g>
       <use style="stroke:#000000;stroke-width:0.5;" x="369.00375" xlink:href="#m4b66ceb6e8" y="28.76"/>
      </g>
     </g>
     <g id="text_26">
      <!-- 450 -->
      <g transform="translate(357.55125 394.8964375)scale(0.12 -0.12)">
       <use xlink:href="#BitstreamVeraSans-Roman-34"/>
       <use x="63.623046875" xlink:href="#BitstreamVeraSans-Roman-35"/>
       <use x="127.24609375" xlink:href="#BitstreamVeraSans-Roman-30"/>
      </g>
     </g>
    </g>
    <g id="text_27">
     <!-- Up fluxes (W/m$^2$) -->
     <defs>
      <path d="M 8.6875 72.90625 
L 18.609375 72.90625 
L 18.609375 28.609375 
Q 18.609375 16.890625 22.84375 11.734375 
Q 27.09375 6.59375 36.625 6.59375 
Q 46.09375 6.59375 50.34375 11.734375 
Q 54.59375 16.890625 54.59375 28.609375 
L 54.59375 72.90625 
L 64.5 72.90625 
L 64.5 27.390625 
Q 64.5 13.140625 57.4375 5.859375 
Q 50.390625 -1.421875 36.625 -1.421875 
Q 22.796875 -1.421875 15.734375 5.859375 
Q 8.6875 13.140625 8.6875 27.390625 
z
" id="BitstreamVeraSans-Roman-55"/>
     </defs>
     <g transform="translate(252.90375 412.5920625)scale(0.12 -0.12)">
      <use transform="translate(0.0 0.109375)" xlink:href="#BitstreamVeraSans-Roman-55"/>
      <use transform="translate(73.162109375 0.109375)" xlink:href="#BitstreamVeraSans-Roman-70"/>
      <use transform="translate(136.638671875 0.109375)" xlink:href="#BitstreamVeraSans-Roman-20"/>
      <use transform="translate(168.42578125 0.109375)" xlink:href="#BitstreamVeraSans-Roman-66"/>
      <use transform="translate(203.630859375 0.109375)" xlink:href="#BitstreamVeraSans-Roman-6c"/>
      <use transform="translate(231.4140625 0.109375)" xlink:href="#BitstreamVeraSans-Roman-75"/>
      <use transform="translate(294.79296875 0.109375)" xlink:href="#BitstreamVeraSans-Roman-78"/>
      <use transform="translate(353.97265625 0.109375)" xlink:href="#BitstreamVeraSans-Roman-65"/>
      <use transform="translate(415.49609375 0.109375)" xlink:href="#BitstreamVeraSans-Roman-73"/>
      <use transform="translate(467.595703125 0.109375)" xlink:href="#BitstreamVeraSans-Roman-20"/>
      <use transform="translate(499.3828125 0.109375)" xlink:href="#BitstreamVeraSans-Roman-28"/>
      <use transform="translate(538.396484375 0.109375)" xlink:href="#BitstreamVeraSans-Roman-57"/>
      <use transform="translate(637.2734375 0.109375)" xlink:href="#BitstreamVeraSans-Roman-2f"/>
      <use transform="translate(670.96484375 0.109375)" xlink:href="#BitstreamVeraSans-Roman-6d"/>
      <use transform="translate(772.84109375 38.3734375)scale(0.7)" xlink:href="#Cmr10-32"/>
      <use transform="translate(814.2184375 0.109375)" xlink:href="#BitstreamVeraSans-Roman-29"/>
     </g>
    </g>
   </g>
   <g id="matplotlib.axis_4">
    <g id="ytick_6">
     <g id="line2d_73">
      <path clip-path="url(#pfe2abf6bd5)" d="M 239.28375 381.778313 
L 369.00375 381.778313 
" style="fill:none;stroke:#000000;stroke-dasharray:1.000000,3.000000;stroke-dashoffset:0.0;stroke-width:0.5;"/>
     </g>
     <g id="line2d_74">
      <g>
       <use style="stroke:#000000;stroke-width:0.5;" x="239.28375" xlink:href="#mfa0a6fd976" y="381.7783125"/>
      </g>
     </g>
     <g id="line2d_75">
      <g>
       <use style="stroke:#000000;stroke-width:0.5;" x="369.00375" xlink:href="#m6880616380" y="381.7783125"/>
      </g>
     </g>
     <g id="text_28">
      <!-- 0 -->
      <g transform="translate(227.64875 385.0895625)scale(0.12 -0.12)">
       <use xlink:href="#BitstreamVeraSans-Roman-30"/>
      </g>
     </g>
    </g>
    <g id="ytick_7">
     <g id="line2d_76">
      <path clip-path="url(#pfe2abf6bd5)" d="M 239.28375 293.523734 
L 369.00375 293.523734 
" style="fill:none;stroke:#000000;stroke-dasharray:1.000000,3.000000;stroke-dashoffset:0.0;stroke-width:0.5;"/>
     </g>
     <g id="line2d_77">
      <g>
       <use style="stroke:#000000;stroke-width:0.5;" x="239.28375" xlink:href="#mfa0a6fd976" y="293.523734375"/>
      </g>
     </g>
     <g id="line2d_78">
      <g>
       <use style="stroke:#000000;stroke-width:0.5;" x="369.00375" xlink:href="#m6880616380" y="293.523734375"/>
      </g>
     </g>
     <g id="text_29">
      <!-- 5 -->
      <g transform="translate(227.64875 296.834984375)scale(0.12 -0.12)">
       <use xlink:href="#BitstreamVeraSans-Roman-35"/>
      </g>
     </g>
    </g>
    <g id="ytick_8">
     <g id="line2d_79">
      <path clip-path="url(#pfe2abf6bd5)" d="M 239.28375 205.269156 
L 369.00375 205.269156 
" style="fill:none;stroke:#000000;stroke-dasharray:1.000000,3.000000;stroke-dashoffset:0.0;stroke-width:0.5;"/>
     </g>
     <g id="line2d_80">
      <g>
       <use style="stroke:#000000;stroke-width:0.5;" x="239.28375" xlink:href="#mfa0a6fd976" y="205.26915625"/>
      </g>
     </g>
     <g id="line2d_81">
      <g>
       <use style="stroke:#000000;stroke-width:0.5;" x="369.00375" xlink:href="#m6880616380" y="205.26915625"/>
      </g>
     </g>
     <g id="text_30">
      <!-- 10 -->
      <g transform="translate(220.01375 208.58040625)scale(0.12 -0.12)">
       <use xlink:href="#BitstreamVeraSans-Roman-31"/>
       <use x="63.623046875" xlink:href="#BitstreamVeraSans-Roman-30"/>
      </g>
     </g>
    </g>
    <g id="ytick_9">
     <g id="line2d_82">
      <path clip-path="url(#pfe2abf6bd5)" d="M 239.28375 117.014578 
L 369.00375 117.014578 
" style="fill:none;stroke:#000000;stroke-dasharray:1.000000,3.000000;stroke-dashoffset:0.0;stroke-width:0.5;"/>
     </g>
     <g id="line2d_83">
      <g>
       <use style="stroke:#000000;stroke-width:0.5;" x="239.28375" xlink:href="#mfa0a6fd976" y="117.014578125"/>
      </g>
     </g>
     <g id="line2d_84">
      <g>
       <use style="stroke:#000000;stroke-width:0.5;" x="369.00375" xlink:href="#m6880616380" y="117.014578125"/>
      </g>
     </g>
     <g id="text_31">
      <!-- 15 -->
      <g transform="translate(220.01375 120.325828125)scale(0.12 -0.12)">
       <use xlink:href="#BitstreamVeraSans-Roman-31"/>
       <use x="63.623046875" xlink:href="#BitstreamVeraSans-Roman-35"/>
      </g>
     </g>
    </g>
    <g id="ytick_10">
     <g id="line2d_85">
      <path clip-path="url(#pfe2abf6bd5)" d="M 239.28375 28.76 
L 369.00375 28.76 
" style="fill:none;stroke:#000000;stroke-dasharray:1.000000,3.000000;stroke-dashoffset:0.0;stroke-width:0.5;"/>
     </g>
     <g id="line2d_86">
      <g>
       <use style="stroke:#000000;stroke-width:0.5;" x="239.28375" xlink:href="#mfa0a6fd976" y="28.76"/>
      </g>
     </g>
     <g id="line2d_87">
      <g>
       <use style="stroke:#000000;stroke-width:0.5;" x="369.00375" xlink:href="#m6880616380" y="28.76"/>
      </g>
     </g>
     <g id="text_32">
      <!-- 20 -->
      <g transform="translate(220.01375 32.07125)scale(0.12 -0.12)">
       <use xlink:href="#BitstreamVeraSans-Roman-32"/>
       <use x="63.623046875" xlink:href="#BitstreamVeraSans-Roman-30"/>
      </g>
     </g>
    </g>
    <g id="text_33">
     <!-- z (km) -->
     <g transform="translate(212.518125 224.32571875)rotate(-90.0)scale(0.12 -0.12)">
      <use xlink:href="#BitstreamVeraSans-Roman-7a"/>
      <use x="52.490234375" xlink:href="#BitstreamVeraSans-Roman-20"/>
      <use x="84.27734375" xlink:href="#BitstreamVeraSans-Roman-28"/>
      <use x="123.291015625" xlink:href="#BitstreamVeraSans-Roman-6b"/>
      <use x="181.201171875" xlink:href="#BitstreamVeraSans-Roman-6d"/>
      <use x="278.61328125" xlink:href="#BitstreamVeraSans-Roman-29"/>
     </g>
    </g>
   </g>
   <g id="text_34">
    <!-- Up fluxes -->
    <g transform="translate(270.478125 23.76)scale(0.144 -0.144)">
     <use xlink:href="#BitstreamVeraSans-Roman-55"/>
     <use x="73.193359375" xlink:href="#BitstreamVeraSans-Roman-70"/>
     <use x="136.669921875" xlink:href="#BitstreamVeraSans-Roman-20"/>
     <use x="168.45703125" xlink:href="#BitstreamVeraSans-Roman-66"/>
     <use x="203.662109375" xlink:href="#BitstreamVeraSans-Roman-6c"/>
     <use x="231.4453125" xlink:href="#BitstreamVeraSans-Roman-75"/>
     <use x="294.82421875" xlink:href="#BitstreamVeraSans-Roman-78"/>
     <use x="353.95703125" xlink:href="#BitstreamVeraSans-Roman-65"/>
     <use x="415.48046875" xlink:href="#BitstreamVeraSans-Roman-73"/>
    </g>
   </g>
   <g id="legend_2">
    <g id="patch_13">
     <path d="M 240.10125 103.6895 
L 361.80375 103.6895 
L 361.80375 35.96 
L 240.10125 35.96 
z
" style="fill:#ffffff;stroke:#000000;stroke-linejoin:miter;"/>
    </g>
    <g id="line2d_88">
     <path d="M 250.18125 47.62175 
L 270.34125 47.62175 
" style="fill:none;stroke:#ff0000;stroke-dasharray:6.000000,6.000000;stroke-dashoffset:0.0;stroke-width:2.0;"/>
    </g>
    <g id="line2d_89"/>
    <g id="text_35">
     <!-- i3rc -->
     <g transform="translate(286.18125 52.66175)scale(0.144 -0.144)">
      <use xlink:href="#BitstreamVeraSans-Roman-69"/>
      <use x="27.783203125" xlink:href="#BitstreamVeraSans-Roman-33"/>
      <use x="91.40625" xlink:href="#BitstreamVeraSans-Roman-72"/>
      <use x="132.48828125" xlink:href="#BitstreamVeraSans-Roman-63"/>
     </g>
    </g>
    <g id="line2d_90">
     <path d="M 250.18125 68.75825 
L 270.34125 68.75825 
" style="fill:none;stroke:#000000;stroke-linecap:square;stroke-width:2.0;"/>
    </g>
    <g id="line2d_91"/>
    <g id="text_36">
     <!-- T,P,q trop -->
     <g transform="translate(286.18125 73.79825)scale(0.144 -0.144)">
      <use xlink:href="#BitstreamVeraSans-Roman-54"/>
      <use x="61.083984375" xlink:href="#BitstreamVeraSans-Roman-2c"/>
      <use x="92.87109375" xlink:href="#BitstreamVeraSans-Roman-50"/>
      <use x="153.173828125" xlink:href="#BitstreamVeraSans-Roman-2c"/>
      <use x="184.9609375" xlink:href="#BitstreamVeraSans-Roman-71"/>
      <use x="248.4375" xlink:href="#BitstreamVeraSans-Roman-20"/>
      <use x="280.224609375" xlink:href="#BitstreamVeraSans-Roman-74"/>
      <use x="319.43359375" xlink:href="#BitstreamVeraSans-Roman-72"/>
      <use x="360.515625" xlink:href="#BitstreamVeraSans-Roman-6f"/>
      <use x="421.697265625" xlink:href="#BitstreamVeraSans-Roman-70"/>
     </g>
    </g>
    <g id="line2d_92">
     <path d="M 250.18125 89.89475 
L 270.34125 89.89475 
" style="fill:none;stroke:#ffa500;stroke-linecap:square;stroke-width:2.0;"/>
    </g>
    <g id="line2d_93"/>
    <g id="text_37">
     <!-- T,P trop -->
     <g transform="translate(286.18125 94.93475)scale(0.144 -0.144)">
      <use xlink:href="#BitstreamVeraSans-Roman-54"/>
      <use x="61.083984375" xlink:href="#BitstreamVeraSans-Roman-2c"/>
      <use x="92.87109375" xlink:href="#BitstreamVeraSans-Roman-50"/>
      <use x="153.173828125" xlink:href="#BitstreamVeraSans-Roman-20"/>
      <use x="184.9609375" xlink:href="#BitstreamVeraSans-Roman-74"/>
      <use x="224.169921875" xlink:href="#BitstreamVeraSans-Roman-72"/>
      <use x="265.251953125" xlink:href="#BitstreamVeraSans-Roman-6f"/>
      <use x="326.43359375" xlink:href="#BitstreamVeraSans-Roman-70"/>
     </g>
    </g>
   </g>
  </g>
  <g id="axes_3">
   <g id="patch_14">
    <path d="M 429.495 381.778313 
L 559.215 381.778313 
L 559.215 28.76 
L 429.495 28.76 
z
" style="fill:#ffffff;"/>
   </g>
   <g id="line2d_94">
    <path clip-path="url(#pe060166258)" d="M 444.214354 -1 
L 444.953411 45.784316 
L 445.397104 88.648137 
L 445.900562 150.000612 
L 446.0371 155.397378 
L 446.626087 166.118711 
L 447.067633 171.481238 
L 447.734109 176.824878 
L 448.568758 182.185469 
L 449.621781 187.502091 
L 452.1466 198.393592 
L 463.336677 241.564207 
L 466.392313 252.293334 
L 469.658792 262.929331 
L 473.131646 273.478259 
L 476.841876 284.16702 
L 480.805802 294.679554 
L 482.865251 299.786494 
L 487.156618 309.664912 
L 495.314143 327.451777 
L 501.976261 341.293468 
L 507.562294 351.997247 
L 510.993242 358.360454 
L 514.309043 363.996163 
L 516.874505 368.060849 
L 520.454671 373.277552 
L 523.820049 377.729967 
L 526.599375 381.022969 
L 527.339751 381.778313 
L 527.339751 381.778313 
" style="fill:none;stroke:#ff0000;stroke-dasharray:6.000000,6.000000;stroke-dashoffset:0.0;stroke-width:2.0;"/>
   </g>
   <g id="line2d_95">
    <path clip-path="url(#pe060166258)" d="M 439.241794 -1 
L 439.448409 18.775911 
L 439.509763 45.784316 
L 439.313263 70.714827 
L 438.91593 88.648137 
L 438.300553 117.374658 
L 438.141012 139.151111 
L 438.21519 150.000612 
L 438.535493 160.750899 
L 439.220879 171.481238 
L 440.402395 182.185469 
L 441.06909 187.502091 
L 441.988192 192.967873 
L 444.289081 203.818957 
L 445.665388 209.218567 
L 448.768011 219.984071 
L 450.419063 225.337643 
L 453.995666 236.158881 
L 455.687094 241.564207 
L 461.323189 257.627774 
L 465.55791 268.225426 
L 467.712738 273.478259 
L 470.06029 278.840533 
L 474.872443 289.437006 
L 477.190786 294.679554 
L 484.164286 309.664912 
L 486.574696 314.363587 
L 491.919689 323.281783 
L 494.602276 327.451777 
L 506.061707 344.085734 
L 509.455021 349.113351 
L 514.251206 355.554682 
L 518.70083 361.166226 
L 521.78201 364.735679 
L 525.091649 368.060849 
L 529.492514 372.1325 
L 533.253291 375.293476 
L 536.489878 377.729967 
L 539.427343 379.597586 
L 541.459377 380.590198 
L 542.65365 381.022969 
L 544.244061 381.417854 
L 550.447657 381.778313 
L 550.447657 381.778313 
" style="fill:none;stroke:#000000;stroke-linecap:square;stroke-width:2.0;"/>
   </g>
   <g id="line2d_96">
    <path clip-path="url(#pe060166258)" d="M 441.624125 -1 
L 441.887913 18.775911 
L 442.016443 45.784316 
L 441.93047 64.639379 
L 441.626559 82.703113 
L 440.93286 111.780741 
L 440.826454 133.784359 
L 440.951808 144.558835 
L 441.308767 155.397378 
L 442.161576 166.118711 
L 442.734447 171.481238 
L 444.427889 182.185469 
L 445.482648 187.502091 
L 448.194527 198.393592 
L 451.117644 209.218567 
L 461.370216 246.937498 
L 464.493375 257.627774 
L 469.763246 273.478259 
L 477.704044 294.679554 
L 482.031805 304.786046 
L 484.239337 309.664912 
L 491.051985 323.281783 
L 493.274759 327.451777 
L 497.657196 335.197829 
L 501.662544 343.387677 
L 505.080428 350.555731 
L 508.546648 356.957577 
L 511.474744 361.867675 
L 513.385139 364.735679 
L 517.035824 369.531798 
L 520.180541 373.277552 
L 522.925294 376.177977 
L 525.398992 378.408871 
L 527.003193 379.597586 
L 528.742531 380.590198 
L 529.793326 381.022969 
L 531.218749 381.417854 
L 536.627589 381.778313 
L 536.627589 381.778313 
" style="fill:none;stroke:#ffa500;stroke-linecap:square;stroke-width:2.0;"/>
   </g>
   <g id="patch_15">
    <path d="M 429.495 28.76 
L 559.215 28.76 
" style="fill:none;stroke:#000000;stroke-linecap:square;stroke-linejoin:miter;"/>
   </g>
   <g id="patch_16">
    <path d="M 559.215 381.778313 
L 559.215 28.76 
" style="fill:none;stroke:#000000;stroke-linecap:square;stroke-linejoin:miter;"/>
   </g>
   <g id="patch_17">
    <path d="M 429.495 381.778313 
L 559.215 381.778313 
" style="fill:none;stroke:#000000;stroke-linecap:square;stroke-linejoin:miter;"/>
   </g>
   <g id="patch_18">
    <path d="M 429.495 381.778313 
L 429.495 28.76 
" style="fill:none;stroke:#000000;stroke-linecap:square;stroke-linejoin:miter;"/>
   </g>
   <g id="matplotlib.axis_5">
    <g id="xtick_16">
     <g id="line2d_97">
      <path clip-path="url(#pe060166258)" d="M 429.495 381.778313 
L 429.495 28.76 
" style="fill:none;stroke:#000000;stroke-dasharray:1.000000,3.000000;stroke-dashoffset:0.0;stroke-width:0.5;"/>
     </g>
     <g id="line2d_98">
      <g>
       <use style="stroke:#000000;stroke-width:0.5;" x="429.495" xlink:href="#m86acaacddb" y="381.7783125"/>
      </g>
     </g>
     <g id="line2d_99">
      <g>
       <use style="stroke:#000000;stroke-width:0.5;" x="429.495" xlink:href="#m4b66ceb6e8" y="28.76"/>
      </g>
     </g>
     <g id="text_38">
      <!-- −300 -->
      <defs>
       <path d="M 10.59375 35.5 
L 73.1875 35.5 
L 73.1875 27.203125 
L 10.59375 27.203125 
z
" id="BitstreamVeraSans-Roman-2212"/>
      </defs>
      <g transform="translate(413.0146875 394.8964375)scale(0.12 -0.12)">
       <use xlink:href="#BitstreamVeraSans-Roman-2212"/>
       <use x="83.7890625" xlink:href="#BitstreamVeraSans-Roman-33"/>
       <use x="147.412109375" xlink:href="#BitstreamVeraSans-Roman-30"/>
       <use x="211.03515625" xlink:href="#BitstreamVeraSans-Roman-30"/>
      </g>
     </g>
    </g>
    <g id="xtick_17">
     <g id="line2d_100">
      <path clip-path="url(#pe060166258)" d="M 451.115 381.778313 
L 451.115 28.76 
" style="fill:none;stroke:#000000;stroke-dasharray:1.000000,3.000000;stroke-dashoffset:0.0;stroke-width:0.5;"/>
     </g>
     <g id="line2d_101">
      <g>
       <use style="stroke:#000000;stroke-width:0.5;" x="451.115" xlink:href="#m86acaacddb" y="381.7783125"/>
      </g>
     </g>
     <g id="line2d_102">
      <g>
       <use style="stroke:#000000;stroke-width:0.5;" x="451.115" xlink:href="#m4b66ceb6e8" y="28.76"/>
      </g>
     </g>
     <g id="text_39">
      <!-- −250 -->
      <g transform="translate(434.6346875 394.8964375)scale(0.12 -0.12)">
       <use xlink:href="#BitstreamVeraSans-Roman-2212"/>
       <use x="83.7890625" xlink:href="#BitstreamVeraSans-Roman-32"/>
       <use x="147.412109375" xlink:href="#BitstreamVeraSans-Roman-35"/>
       <use x="211.03515625" xlink:href="#BitstreamVeraSans-Roman-30"/>
      </g>
     </g>
    </g>
    <g id="xtick_18">
     <g id="line2d_103">
      <path clip-path="url(#pe060166258)" d="M 472.735 381.778313 
L 472.735 28.76 
" style="fill:none;stroke:#000000;stroke-dasharray:1.000000,3.000000;stroke-dashoffset:0.0;stroke-width:0.5;"/>
     </g>
     <g id="line2d_104">
      <g>
       <use style="stroke:#000000;stroke-width:0.5;" x="472.735" xlink:href="#m86acaacddb" y="381.7783125"/>
      </g>
     </g>
     <g id="line2d_105">
      <g>
       <use style="stroke:#000000;stroke-width:0.5;" x="472.735" xlink:href="#m4b66ceb6e8" y="28.76"/>
      </g>
     </g>
     <g id="text_40">
      <!-- −200 -->
      <g transform="translate(456.2546875 394.8964375)scale(0.12 -0.12)">
       <use xlink:href="#BitstreamVeraSans-Roman-2212"/>
       <use x="83.7890625" xlink:href="#BitstreamVeraSans-Roman-32"/>
       <use x="147.412109375" xlink:href="#BitstreamVeraSans-Roman-30"/>
       <use x="211.03515625" xlink:href="#BitstreamVeraSans-Roman-30"/>
      </g>
     </g>
    </g>
    <g id="xtick_19">
     <g id="line2d_106">
      <path clip-path="url(#pe060166258)" d="M 494.355 381.778313 
L 494.355 28.76 
" style="fill:none;stroke:#000000;stroke-dasharray:1.000000,3.000000;stroke-dashoffset:0.0;stroke-width:0.5;"/>
     </g>
     <g id="line2d_107">
      <g>
       <use style="stroke:#000000;stroke-width:0.5;" x="494.355" xlink:href="#m86acaacddb" y="381.7783125"/>
      </g>
     </g>
     <g id="line2d_108">
      <g>
       <use style="stroke:#000000;stroke-width:0.5;" x="494.355" xlink:href="#m4b66ceb6e8" y="28.76"/>
      </g>
     </g>
     <g id="text_41">
      <!-- −150 -->
      <g transform="translate(477.8746875 394.8964375)scale(0.12 -0.12)">
       <use xlink:href="#BitstreamVeraSans-Roman-2212"/>
       <use x="83.7890625" xlink:href="#BitstreamVeraSans-Roman-31"/>
       <use x="147.412109375" xlink:href="#BitstreamVeraSans-Roman-35"/>
       <use x="211.03515625" xlink:href="#BitstreamVeraSans-Roman-30"/>
      </g>
     </g>
    </g>
    <g id="xtick_20">
     <g id="line2d_109">
      <path clip-path="url(#pe060166258)" d="M 515.975 381.778313 
L 515.975 28.76 
" style="fill:none;stroke:#000000;stroke-dasharray:1.000000,3.000000;stroke-dashoffset:0.0;stroke-width:0.5;"/>
     </g>
     <g id="line2d_110">
      <g>
       <use style="stroke:#000000;stroke-width:0.5;" x="515.975" xlink:href="#m86acaacddb" y="381.7783125"/>
      </g>
     </g>
     <g id="line2d_111">
      <g>
       <use style="stroke:#000000;stroke-width:0.5;" x="515.975" xlink:href="#m4b66ceb6e8" y="28.76"/>
      </g>
     </g>
     <g id="text_42">
      <!-- −100 -->
      <g transform="translate(499.4946875 394.8964375)scale(0.12 -0.12)">
       <use xlink:href="#BitstreamVeraSans-Roman-2212"/>
       <use x="83.7890625" xlink:href="#BitstreamVeraSans-Roman-31"/>
       <use x="147.412109375" xlink:href="#BitstreamVeraSans-Roman-30"/>
       <use x="211.03515625" xlink:href="#BitstreamVeraSans-Roman-30"/>
      </g>
     </g>
    </g>
    <g id="xtick_21">
     <g id="line2d_112">
      <path clip-path="url(#pe060166258)" d="M 537.595 381.778313 
L 537.595 28.76 
" style="fill:none;stroke:#000000;stroke-dasharray:1.000000,3.000000;stroke-dashoffset:0.0;stroke-width:0.5;"/>
     </g>
     <g id="line2d_113">
      <g>
       <use style="stroke:#000000;stroke-width:0.5;" x="537.595" xlink:href="#m86acaacddb" y="381.7783125"/>
      </g>
     </g>
     <g id="line2d_114">
      <g>
       <use style="stroke:#000000;stroke-width:0.5;" x="537.595" xlink:href="#m4b66ceb6e8" y="28.76"/>
      </g>
     </g>
     <g id="text_43">
      <!-- −50 -->
      <g transform="translate(524.9321875 394.8964375)scale(0.12 -0.12)">
       <use xlink:href="#BitstreamVeraSans-Roman-2212"/>
       <use x="83.7890625" xlink:href="#BitstreamVeraSans-Roman-35"/>
       <use x="147.412109375" xlink:href="#BitstreamVeraSans-Roman-30"/>
      </g>
     </g>
    </g>
    <g id="xtick_22">
     <g id="line2d_115">
      <path clip-path="url(#pe060166258)" d="M 559.215 381.778313 
L 559.215 28.76 
" style="fill:none;stroke:#000000;stroke-dasharray:1.000000,3.000000;stroke-dashoffset:0.0;stroke-width:0.5;"/>
     </g>
     <g id="line2d_116">
      <g>
       <use style="stroke:#000000;stroke-width:0.5;" x="559.215" xlink:href="#m86acaacddb" y="381.7783125"/>
      </g>
     </g>
     <g id="line2d_117">
      <g>
       <use style="stroke:#000000;stroke-width:0.5;" x="559.215" xlink:href="#m4b66ceb6e8" y="28.76"/>
      </g>
     </g>
     <g id="text_44">
      <!-- 0 -->
      <g transform="translate(555.3975 394.8964375)scale(0.12 -0.12)">
       <use xlink:href="#BitstreamVeraSans-Roman-30"/>
      </g>
     </g>
    </g>
    <g id="text_45">
     <!-- Net fluxes (W/m$^2$) -->
     <defs>
      <path d="M 9.8125 72.90625 
L 23.09375 72.90625 
L 55.421875 11.921875 
L 55.421875 72.90625 
L 64.984375 72.90625 
L 64.984375 0 
L 51.703125 0 
L 19.390625 60.984375 
L 19.390625 0 
L 9.8125 0 
z
" id="BitstreamVeraSans-Roman-4e"/>
     </defs>
     <g transform="translate(440.775 411.7764375)scale(0.12 -0.12)">
      <use transform="translate(0.0 0.109375)" xlink:href="#BitstreamVeraSans-Roman-4e"/>
      <use transform="translate(74.8046875 0.109375)" xlink:href="#BitstreamVeraSans-Roman-65"/>
      <use transform="translate(136.328125 0.109375)" xlink:href="#BitstreamVeraSans-Roman-74"/>
      <use transform="translate(175.537109375 0.109375)" xlink:href="#BitstreamVeraSans-Roman-20"/>
      <use transform="translate(207.32421875 0.109375)" xlink:href="#BitstreamVeraSans-Roman-66"/>
      <use transform="translate(242.529296875 0.109375)" xlink:href="#BitstreamVeraSans-Roman-6c"/>
      <use transform="translate(270.3125 0.109375)" xlink:href="#BitstreamVeraSans-Roman-75"/>
      <use transform="translate(333.69140625 0.109375)" xlink:href="#BitstreamVeraSans-Roman-78"/>
      <use transform="translate(392.87109375 0.109375)" xlink:href="#BitstreamVeraSans-Roman-65"/>
      <use transform="translate(454.39453125 0.109375)" xlink:href="#BitstreamVeraSans-Roman-73"/>
      <use transform="translate(506.494140625 0.109375)" xlink:href="#BitstreamVeraSans-Roman-20"/>
      <use transform="translate(538.28125 0.109375)" xlink:href="#BitstreamVeraSans-Roman-28"/>
      <use transform="translate(577.294921875 0.109375)" xlink:href="#BitstreamVeraSans-Roman-57"/>
      <use transform="translate(676.171875 0.109375)" xlink:href="#BitstreamVeraSans-Roman-2f"/>
      <use transform="translate(709.86328125 0.109375)" xlink:href="#BitstreamVeraSans-Roman-6d"/>
      <use transform="translate(811.73953125 38.3734375)scale(0.7)" xlink:href="#Cmr10-32"/>
      <use transform="translate(853.116875 0.109375)" xlink:href="#BitstreamVeraSans-Roman-29"/>
     </g>
    </g>
   </g>
   <g id="matplotlib.axis_6">
    <g id="ytick_11">
     <g id="line2d_118">
      <path clip-path="url(#pe060166258)" d="M 429.495 381.778313 
L 559.215 381.778313 
" style="fill:none;stroke:#000000;stroke-dasharray:1.000000,3.000000;stroke-dashoffset:0.0;stroke-width:0.5;"/>
     </g>
     <g id="line2d_119">
      <g>
       <use style="stroke:#000000;stroke-width:0.5;" x="429.495" xlink:href="#mfa0a6fd976" y="381.7783125"/>
      </g>
     </g>
     <g id="line2d_120">
      <g>
       <use style="stroke:#000000;stroke-width:0.5;" x="559.215" xlink:href="#m6880616380" y="381.7783125"/>
      </g>
     </g>
     <g id="text_46">
      <!-- 0 -->
      <g transform="translate(417.86 385.0895625)scale(0.12 -0.12)">
       <use xlink:href="#BitstreamVeraSans-Roman-30"/>
      </g>
     </g>
    </g>
    <g id="ytick_12">
     <g id="line2d_121">
      <path clip-path="url(#pe060166258)" d="M 429.495 293.523734 
L 559.215 293.523734 
" style="fill:none;stroke:#000000;stroke-dasharray:1.000000,3.000000;stroke-dashoffset:0.0;stroke-width:0.5;"/>
     </g>
     <g id="line2d_122">
      <g>
       <use style="stroke:#000000;stroke-width:0.5;" x="429.495" xlink:href="#mfa0a6fd976" y="293.523734375"/>
      </g>
     </g>
     <g id="line2d_123">
      <g>
       <use style="stroke:#000000;stroke-width:0.5;" x="559.215" xlink:href="#m6880616380" y="293.523734375"/>
      </g>
     </g>
     <g id="text_47">
      <!-- 5 -->
      <g transform="translate(417.86 296.834984375)scale(0.12 -0.12)">
       <use xlink:href="#BitstreamVeraSans-Roman-35"/>
      </g>
     </g>
    </g>
    <g id="ytick_13">
     <g id="line2d_124">
      <path clip-path="url(#pe060166258)" d="M 429.495 205.269156 
L 559.215 205.269156 
" style="fill:none;stroke:#000000;stroke-dasharray:1.000000,3.000000;stroke-dashoffset:0.0;stroke-width:0.5;"/>
     </g>
     <g id="line2d_125">
      <g>
       <use style="stroke:#000000;stroke-width:0.5;" x="429.495" xlink:href="#mfa0a6fd976" y="205.26915625"/>
      </g>
     </g>
     <g id="line2d_126">
      <g>
       <use style="stroke:#000000;stroke-width:0.5;" x="559.215" xlink:href="#m6880616380" y="205.26915625"/>
      </g>
     </g>
     <g id="text_48">
      <!-- 10 -->
      <g transform="translate(410.225 208.58040625)scale(0.12 -0.12)">
       <use xlink:href="#BitstreamVeraSans-Roman-31"/>
       <use x="63.623046875" xlink:href="#BitstreamVeraSans-Roman-30"/>
      </g>
     </g>
    </g>
    <g id="ytick_14">
     <g id="line2d_127">
      <path clip-path="url(#pe060166258)" d="M 429.495 117.014578 
L 559.215 117.014578 
" style="fill:none;stroke:#000000;stroke-dasharray:1.000000,3.000000;stroke-dashoffset:0.0;stroke-width:0.5;"/>
     </g>
     <g id="line2d_128">
      <g>
       <use style="stroke:#000000;stroke-width:0.5;" x="429.495" xlink:href="#mfa0a6fd976" y="117.014578125"/>
      </g>
     </g>
     <g id="line2d_129">
      <g>
       <use style="stroke:#000000;stroke-width:0.5;" x="559.215" xlink:href="#m6880616380" y="117.014578125"/>
      </g>
     </g>
     <g id="text_49">
      <!-- 15 -->
      <g transform="translate(410.225 120.325828125)scale(0.12 -0.12)">
       <use xlink:href="#BitstreamVeraSans-Roman-31"/>
       <use x="63.623046875" xlink:href="#BitstreamVeraSans-Roman-35"/>
      </g>
     </g>
    </g>
    <g id="ytick_15">
     <g id="line2d_130">
      <path clip-path="url(#pe060166258)" d="M 429.495 28.76 
L 559.215 28.76 
" style="fill:none;stroke:#000000;stroke-dasharray:1.000000,3.000000;stroke-dashoffset:0.0;stroke-width:0.5;"/>
     </g>
     <g id="line2d_131">
      <g>
       <use style="stroke:#000000;stroke-width:0.5;" x="429.495" xlink:href="#mfa0a6fd976" y="28.76"/>
      </g>
     </g>
     <g id="line2d_132">
      <g>
       <use style="stroke:#000000;stroke-width:0.5;" x="559.215" xlink:href="#m6880616380" y="28.76"/>
      </g>
     </g>
     <g id="text_50">
      <!-- 20 -->
      <g transform="translate(410.225 32.07125)scale(0.12 -0.12)">
       <use xlink:href="#BitstreamVeraSans-Roman-32"/>
       <use x="63.623046875" xlink:href="#BitstreamVeraSans-Roman-30"/>
      </g>
     </g>
    </g>
    <g id="text_51">
     <!-- z (km) -->
     <g transform="translate(402.729375 224.32571875)rotate(-90.0)scale(0.12 -0.12)">
      <use xlink:href="#BitstreamVeraSans-Roman-7a"/>
      <use x="52.490234375" xlink:href="#BitstreamVeraSans-Roman-20"/>
      <use x="84.27734375" xlink:href="#BitstreamVeraSans-Roman-28"/>
      <use x="123.291015625" xlink:href="#BitstreamVeraSans-Roman-6b"/>
      <use x="181.201171875" xlink:href="#BitstreamVeraSans-Roman-6d"/>
      <use x="278.61328125" xlink:href="#BitstreamVeraSans-Roman-29"/>
     </g>
    </g>
   </g>
   <g id="text_52">
    <!-- Net fluxes -->
    <g transform="translate(457.890375 23.76)scale(0.144 -0.144)">
     <use xlink:href="#BitstreamVeraSans-Roman-4e"/>
     <use x="74.8046875" xlink:href="#BitstreamVeraSans-Roman-65"/>
     <use x="136.328125" xlink:href="#BitstreamVeraSans-Roman-74"/>
     <use x="175.537109375" xlink:href="#BitstreamVeraSans-Roman-20"/>
     <use x="207.32421875" xlink:href="#BitstreamVeraSans-Roman-66"/>
     <use x="242.529296875" xlink:href="#BitstreamVeraSans-Roman-6c"/>
     <use x="270.3125" xlink:href="#BitstreamVeraSans-Roman-75"/>
     <use x="333.69140625" xlink:href="#BitstreamVeraSans-Roman-78"/>
     <use x="392.82421875" xlink:href="#BitstreamVeraSans-Roman-65"/>
     <use x="454.34765625" xlink:href="#BitstreamVeraSans-Roman-73"/>
    </g>
   </g>
   <g id="legend_3">
    <g id="patch_19">
     <path d="M 430.3125 103.6895 
L 552.015 103.6895 
L 552.015 35.96 
L 430.3125 35.96 
z
" style="fill:#ffffff;stroke:#000000;stroke-linejoin:miter;"/>
    </g>
    <g id="line2d_133">
     <path d="M 440.3925 47.62175 
L 460.5525 47.62175 
" style="fill:none;stroke:#ff0000;stroke-dasharray:6.000000,6.000000;stroke-dashoffset:0.0;stroke-width:2.0;"/>
    </g>
    <g id="line2d_134"/>
    <g id="text_53">
     <!-- i3rc -->
     <g transform="translate(476.3925 52.66175)scale(0.144 -0.144)">
      <use xlink:href="#BitstreamVeraSans-Roman-69"/>
      <use x="27.783203125" xlink:href="#BitstreamVeraSans-Roman-33"/>
      <use x="91.40625" xlink:href="#BitstreamVeraSans-Roman-72"/>
      <use x="132.48828125" xlink:href="#BitstreamVeraSans-Roman-63"/>
     </g>
    </g>
    <g id="line2d_135">
     <path d="M 440.3925 68.75825 
L 460.5525 68.75825 
" style="fill:none;stroke:#000000;stroke-linecap:square;stroke-width:2.0;"/>
    </g>
    <g id="line2d_136"/>
    <g id="text_54">
     <!-- T,P,q trop -->
     <g transform="translate(476.3925 73.79825)scale(0.144 -0.144)">
      <use xlink:href="#BitstreamVeraSans-Roman-54"/>
      <use x="61.083984375" xlink:href="#BitstreamVeraSans-Roman-2c"/>
      <use x="92.87109375" xlink:href="#BitstreamVeraSans-Roman-50"/>
      <use x="153.173828125" xlink:href="#BitstreamVeraSans-Roman-2c"/>
      <use x="184.9609375" xlink:href="#BitstreamVeraSans-Roman-71"/>
      <use x="248.4375" xlink:href="#BitstreamVeraSans-Roman-20"/>
      <use x="280.224609375" xlink:href="#BitstreamVeraSans-Roman-74"/>
      <use x="319.43359375" xlink:href="#BitstreamVeraSans-Roman-72"/>
      <use x="360.515625" xlink:href="#BitstreamVeraSans-Roman-6f"/>
      <use x="421.697265625" xlink:href="#BitstreamVeraSans-Roman-70"/>
     </g>
    </g>
    <g id="line2d_137">
     <path d="M 440.3925 89.89475 
L 460.5525 89.89475 
" style="fill:none;stroke:#ffa500;stroke-linecap:square;stroke-width:2.0;"/>
    </g>
    <g id="line2d_138"/>
    <g id="text_55">
     <!-- T,P trop -->
     <g transform="translate(476.3925 94.93475)scale(0.144 -0.144)">
      <use xlink:href="#BitstreamVeraSans-Roman-54"/>
      <use x="61.083984375" xlink:href="#BitstreamVeraSans-Roman-2c"/>
      <use x="92.87109375" xlink:href="#BitstreamVeraSans-Roman-50"/>
      <use x="153.173828125" xlink:href="#BitstreamVeraSans-Roman-20"/>
      <use x="184.9609375" xlink:href="#BitstreamVeraSans-Roman-74"/>
      <use x="224.169921875" xlink:href="#BitstreamVeraSans-Roman-72"/>
      <use x="265.251953125" xlink:href="#BitstreamVeraSans-Roman-6f"/>
      <use x="326.43359375" xlink:href="#BitstreamVeraSans-Roman-70"/>
     </g>
    </g>
   </g>
  </g>
 </g>
 <defs>
  <clipPath id="p22ce12ed63">
   <rect height="353.0183125" width="129.72" x="49.0725" y="28.76"/>
  </clipPath>
  <clipPath id="pe060166258">
   <rect height="353.0183125" width="129.72" x="429.495" y="28.76"/>
  </clipPath>
  <clipPath id="pfe2abf6bd5">
   <rect height="353.0183125" width="129.72" x="239.28375" y="28.76"/>
  </clipPath>
 </defs>
</svg>
